{
    "_id": "88VcnxbKPF2QkPiF",
    "data": {
        "abilities": {
            "cha": {
                "min": 3,
                "mod": 2,
                "value": 14
            },
            "con": {
                "min": 3,
                "mod": 3,
                "value": 16
            },
            "dex": {
                "min": 3,
                "mod": 4,
                "value": 18
            },
            "int": {
                "min": 3,
                "mod": 0,
                "value": 10
            },
            "str": {
                "min": 3,
                "mod": 4,
                "value": 18
            },
            "wis": {
                "min": 3,
                "mod": 0,
                "value": 10
            }
        },
        "attributes": {
            "ac": {
                "check": 0,
                "details": "",
                "dex": 0,
                "item": 0,
                "min": 0,
                "value": 22
            },
            "allSaves": {
                "value": ""
            },
            "ancestryhp": 0,
            "bonusEncumbranceBulk": 0,
            "bonusLimitBulk": 0,
            "classDC": {
                "ability": "str",
                "breakdown": "",
                "item": 0,
                "rank": 0,
                "value": 0
            },
            "classhp": 0,
            "flatbonushp": 0,
            "flatbonussp": 0,
            "hp": {
                "details": "",
                "max": 95,
                "min": 0,
                "temp": 0,
                "tempmax": 0,
                "value": 95
            },
            "init": {
                "bonus": 0,
                "value": 0
            },
            "initiative": {
                "ability": "",
                "circumstance": 0,
                "status": 0
            },
            "levelbonushp": 0,
            "levelbonussp": 0,
            "perception": {
                "ability": "wis",
                "breakdown": "",
                "item": 0,
                "rank": 0,
                "value": 12
            },
            "resolve": {
                "value": 0
            },
            "shield": {
                "ac": 0,
                "brokenThreshold": "0",
                "hardness": 0,
                "max": "0",
                "min": 0,
                "value": 0
            },
            "sp": {
                "details": "",
                "max": 0,
                "min": 0,
                "value": 0
            },
            "speed": {
                "otherSpeeds": [
                    {
                        "type": "Mobility",
                        "value": ""
                    }
                ],
                "special": "",
                "value": "30 feet"
            }
        },
        "currency": {
            "cp": {
                "value": 0
            },
            "gp": {
                "value": 0
            },
            "pp": {
                "value": 0
            },
            "sp": {
                "value": 0
            }
        },
        "customModifiers": {},
        "details": {
            "alignment": {
                "value": "CN"
            },
            "ancestry": {
                "value": ""
            },
            "biography": {
                "public": "",
                "value": ""
            },
            "class": {
                "value": ""
            },
            "creatureType": "",
            "deity": {
                "image": "systems/pf2e/assets/sheet/deity.png",
                "value": ""
            },
            "flavourText": "",
            "heritage": {
                "value": ""
            },
            "keyability": {
                "value": "str"
            },
            "level": {
                "min": 1,
                "value": 6
            },
            "nethysUrl": "",
            "recallKnowledgeText": "",
            "sidebarText": "",
            "source": {
                "value": ""
            }
        },
        "martial": {
            "advanced": {
                "breakdown": "",
                "rank": 0,
                "value": 0
            },
            "heavy": {
                "breakdown": "",
                "rank": 0,
                "value": 0
            },
            "light": {
                "breakdown": "",
                "rank": 0,
                "value": 0
            },
            "martial": {
                "breakdown": "",
                "rank": 0,
                "value": 0
            },
            "medium": {
                "breakdown": "",
                "rank": 0,
                "value": 0
            },
            "simple": {
                "breakdown": "",
                "rank": 0,
                "value": 0
            },
            "unarmed": {
                "breakdown": "",
                "rank": 0,
                "value": 0
            },
            "unarmored": {
                "breakdown": "",
                "rank": 0,
                "value": 0
            }
        },
        "saves": {
            "fortitude": {
                "ability": "con",
                "breakdown": "",
                "item": 0,
                "rank": 0,
                "saveDetail": "",
                "value": 15
            },
            "reflex": {
                "ability": "dex",
                "breakdown": "",
                "item": 0,
                "rank": 0,
                "saveDetail": "",
                "value": 16
            },
            "will": {
                "ability": "wis",
                "breakdown": "",
                "item": 0,
                "rank": 0,
                "saveDetail": "",
                "value": 10
            }
        },
        "schema": {
            "version": {
                "value": ""
            }
        },
        "skills": {
            "acr": {
                "ability": "dex",
                "armor": 1,
                "breakdown": "",
                "item": 0,
                "mod": 0,
                "rank": 0,
                "value": 0
            },
            "arc": {
                "ability": "int",
                "breakdown": "",
                "item": 0,
                "mod": 0,
                "rank": 0,
                "value": 0
            },
            "ath": {
                "ability": "str",
                "armor": 1,
                "breakdown": "",
                "item": 0,
                "mod": 0,
                "rank": 0,
                "value": 0
            },
            "cra": {
                "ability": "int",
                "breakdown": "",
                "item": 0,
                "mod": 0,
                "rank": 0,
                "value": 0
            },
            "dec": {
                "ability": "cha",
                "breakdown": "",
                "item": 0,
                "mod": 0,
                "rank": 0,
                "value": 0
            },
            "dip": {
                "ability": "cha",
                "breakdown": "",
                "item": 0,
                "mod": 0,
                "rank": 0,
                "value": 0
            },
            "itm": {
                "ability": "cha",
                "breakdown": "",
                "item": 0,
                "mod": 0,
                "rank": 0,
                "value": 0
            },
            "med": {
                "ability": "wis",
                "breakdown": "",
                "item": 0,
                "mod": 0,
                "rank": 0,
                "value": 0
            },
            "nat": {
                "ability": "wis",
                "breakdown": "",
                "item": 0,
                "mod": 0,
                "rank": 0,
                "value": 0
            },
            "occ": {
                "ability": "int",
                "breakdown": "",
                "item": 0,
                "mod": 0,
                "rank": 0,
                "value": 0
            },
            "prf": {
                "ability": "cha",
                "breakdown": "",
                "item": 0,
                "mod": 0,
                "rank": 0,
                "value": 0
            },
            "rel": {
                "ability": "wis",
                "breakdown": "",
                "item": 0,
                "mod": 0,
                "rank": 0,
                "value": 0
            },
            "soc": {
                "ability": "int",
                "breakdown": "",
                "item": 0,
                "mod": 0,
                "rank": 0,
                "value": 0
            },
            "ste": {
                "ability": "dex",
                "armor": 1,
                "breakdown": "",
                "item": 0,
                "mod": 0,
                "rank": 0,
                "value": 0
            },
            "sur": {
                "ability": "wis",
                "breakdown": "",
                "item": 0,
                "mod": 0,
                "rank": 0,
                "value": 0
            },
            "thi": {
                "ability": "dex",
                "armor": 1,
                "breakdown": "",
                "item": 0,
                "mod": 0,
                "rank": 0,
                "value": 0
            }
        },
        "spells": {
            "spell0": {
                "max": 0
            },
            "spell1": {
                "max": 0
            },
            "spell10": {
                "max": 0
            },
            "spell11": {
                "max": 0
            },
            "spell2": {
                "max": 0
            },
            "spell3": {
                "max": 0
            },
            "spell4": {
                "max": 0
            },
            "spell5": {
                "max": 0
            },
            "spell6": {
                "max": 0
            },
            "spell7": {
                "max": 0
            },
            "spell8": {
                "max": 0
            },
            "spell9": {
                "max": 0
            }
        },
        "statusEffects": [],
        "traits": {
            "ci": [],
            "di": {
                "custom": "",
                "value": []
            },
            "dr": [],
            "dv": [],
            "languages": {
                "custom": "",
                "selected": [],
                "value": [
                    "common"
                ]
            },
            "rarity": {
                "value": "rare"
            },
            "senses": {
                "value": ""
            },
            "size": {
                "value": "med"
            },
            "traits": {
                "custom": "",
                "value": [
                    "human",
                    "humanoid"
                ]
            }
        }
    },
    "effects": [],
    "flags": {
        "pf2e": {
            "editNPC": {
                "value": false
            }
        },
        "pf2e_updatednpcsheet": {
            "npcNotes": {
                "value": ""
            }
        }
    },
    "img": "icons/svg/mystery-man.svg",
    "items": [
        {
            "_id": "bn0Z3k2gK4VsKjQ4",
            "data": {
                "attack": {
                    "value": ""
                },
                "attackEffects": {
                    "value": []
                },
                "bonus": {
                    "total": 16,
                    "value": "16"
                },
                "brokenThreshold": {
                    "value": 0
                },
                "bulkCapacity": {
                    "value": ""
                },
                "collapsed": {
                    "value": false
                },
                "containerId": {
                    "value": ""
                },
                "damage": {
                    "damageType": "slashing",
                    "die": "1d6+6"
                },
                "damageRolls": {
                    "0": {
                        "damage": "1d6+6",
                        "damageType": "slashing"
                    }
                },
                "description": {
                    "chat": "",
                    "unidentified": "",
                    "value": ""
                },
                "equipped": {
                    "value": false
                },
                "equippedBulk": {
                    "value": ""
                },
                "hardness": {
                    "value": 0
                },
                "hp": {
                    "value": 0
                },
                "identified": {
                    "value": false
                },
                "invested": {
                    "value": false
                },
                "maxHp": {
                    "value": 0
                },
                "negateBulk": {
                    "value": "0"
                },
                "preciousMaterial": {
                    "value": ""
                },
                "preciousMaterialGrade": {
                    "value": ""
                },
                "price": {
                    "value": 0
                },
                "property1": {
                    "critDamage": "",
                    "critDamageType": "",
                    "critDice": 0,
                    "critDie": "",
                    "damageType": "",
                    "dice": 0,
                    "die": "",
                    "value": ""
                },
                "property2": {
                    "critDamage": "",
                    "critDamageType": "",
                    "critDice": 0,
                    "critDie": "",
                    "damageType": "",
                    "dice": 0,
                    "die": "",
                    "value": ""
                },
                "property3": {
                    "critDamage": "",
                    "critDamageType": "",
                    "critDice": 0,
                    "critDie": "",
                    "damageType": "",
                    "dice": 0,
                    "die": "",
                    "value": ""
                },
                "quantity": {
                    "value": 1
                },
                "rarity": {
                    "value": "common"
                },
                "source": {
                    "value": ""
                },
                "stackGroup": {
                    "value": ""
                },
                "traits": {
                    "selected": {
                        "agile": "Agile",
                        "sweep": "Sweep"
                    },
                    "value": [
                        "agile",
                        "sweep"
                    ]
                },
                "usage": {
                    "value": "held-in-one-hand"
                },
                "weight": {
                    "value": 0
                }
            },
            "effects": [],
            "flags": {
                "pf2e_updatednpcsheet": {}
            },
            "img": "icons/svg/mystery-man.svg",
            "name": "Hatchet",
            "sort": 300000,
            "type": "melee"
        },
        {
            "_id": "YFBnzaEl7UBKGHLo",
            "data": {
                "attack": {
                    "value": ""
                },
                "attackEffects": {
                    "custom": "",
                    "value": [
                        "Muscle Striker"
                    ]
                },
                "bonus": {
                    "total": 16,
                    "value": "16"
                },
                "brokenThreshold": {
                    "value": 0
                },
                "bulkCapacity": {
                    "value": ""
                },
                "collapsed": {
                    "value": false
                },
                "containerId": {
                    "value": ""
                },
                "damage": {
                    "damageType": "piercing",
                    "die": "1d6+8"
                },
                "damageRolls": {
                    "0": {
                        "damage": "1d6+8",
                        "damageType": "piercing"
                    }
                },
                "description": {
                    "chat": "",
                    "unidentified": "",
                    "value": ""
                },
                "equipped": {
                    "value": false
                },
                "equippedBulk": {
                    "value": ""
                },
                "hardness": {
                    "value": 0
                },
                "hp": {
                    "value": 0
                },
                "identified": {
                    "value": false
                },
                "invested": {
                    "value": false
                },
                "maxHp": {
                    "value": 0
                },
                "negateBulk": {
                    "value": "0"
                },
                "preciousMaterial": {
                    "value": ""
                },
                "preciousMaterialGrade": {
                    "value": ""
                },
                "price": {
                    "value": 0
                },
                "property1": {
                    "critDamage": "",
                    "critDamageType": "",
                    "critDice": 0,
                    "critDie": "",
                    "damageType": "",
                    "dice": 0,
                    "die": "",
                    "value": ""
                },
                "property2": {
                    "critDamage": "",
                    "critDamageType": "",
                    "critDice": 0,
                    "critDie": "",
                    "damageType": "",
                    "dice": 0,
                    "die": "",
                    "value": ""
                },
                "property3": {
                    "critDamage": "",
                    "critDamageType": "",
                    "critDice": 0,
                    "critDie": "",
                    "damageType": "",
                    "dice": 0,
                    "die": "",
                    "value": ""
                },
                "quantity": {
                    "value": 1
                },
                "rarity": {
                    "value": "common"
                },
                "source": {
                    "value": ""
                },
                "stackGroup": {
                    "value": ""
                },
                "traits": {
                    "selected": {},
                    "value": [
                        "deadly d10",
                        "range increment 60 feet"
                    ]
                },
                "usage": {
                    "value": "held-in-one-hand"
                },
                "weaponType": {
                    "value": "ranged"
                },
                "weight": {
                    "value": 0
                }
            },
            "effects": [],
            "flags": {
                "pf2e_updatednpcsheet": {}
            },
            "img": "icons/svg/mystery-man.svg",
            "name": "Composite Shortbow",
            "sort": 400000,
            "type": "melee"
        },
        {
            "_id": "EoEZjFDg31YP4hUr",
            "data": {
                "attack": {
                    "value": ""
                },
                "attackEffects": {
                    "value": []
                },
                "bonus": {
                    "total": 16,
                    "value": "16"
                },
                "brokenThreshold": {
                    "value": 0
                },
                "bulkCapacity": {
                    "value": ""
                },
                "collapsed": {
                    "value": false
                },
                "containerId": {
                    "value": ""
                },
                "damage": {
                    "damageType": "slashing",
                    "die": "1d6+6"
                },
                "damageRolls": {
                    "0": {
                        "damage": "1d6+6",
                        "damageType": "slashing"
                    }
                },
                "description": {
                    "chat": "",
                    "unidentified": "",
                    "value": ""
                },
                "equipped": {
                    "value": false
                },
                "equippedBulk": {
                    "value": ""
                },
                "hardness": {
                    "value": 0
                },
                "hp": {
                    "value": 0
                },
                "identified": {
                    "value": false
                },
                "invested": {
                    "value": false
                },
                "maxHp": {
                    "value": 0
                },
                "negateBulk": {
                    "value": "0"
                },
                "preciousMaterial": {
                    "value": ""
                },
                "preciousMaterialGrade": {
                    "value": ""
                },
                "price": {
                    "value": 0
                },
                "property1": {
                    "critDamage": "",
                    "critDamageType": "",
                    "critDice": 0,
                    "critDie": "",
                    "damageType": "",
                    "dice": 0,
                    "die": "",
                    "value": ""
                },
                "property2": {
                    "critDamage": "",
                    "critDamageType": "",
                    "critDice": 0,
                    "critDie": "",
                    "damageType": "",
                    "dice": 0,
                    "die": "",
                    "value": ""
                },
                "property3": {
                    "critDamage": "",
                    "critDamageType": "",
                    "critDice": 0,
                    "critDie": "",
                    "damageType": "",
                    "dice": 0,
                    "die": "",
                    "value": ""
                },
                "quantity": {
                    "value": 1
                },
                "rarity": {
                    "value": "common"
                },
                "source": {
                    "value": ""
                },
                "stackGroup": {
                    "value": ""
                },
                "traits": {
                    "selected": {
                        "agile": "Agile",
                        "sweep": "Sweep"
                    },
                    "value": [
                        "agile",
                        "sweep",
                        "thrown 10 feet"
                    ]
                },
                "usage": {
                    "value": "held-in-one-hand"
                },
                "weaponType": {
                    "value": "ranged"
                },
                "weight": {
                    "value": 0
                }
            },
            "effects": [],
            "flags": {
                "pf2e_updatednpcsheet": {}
            },
            "img": "icons/svg/mystery-man.svg",
            "name": "Hatchet",
            "sort": 500000,
            "type": "melee"
        },
        {
            "_id": "QXq9Nn7zGrJqJnuV",
            "data": {
                "actionCategory": {
                    "value": "offensive"
                },
                "actionType": {
                    "value": "passive"
                },
                "actions": {
                    "value": ""
                },
                "description": {
                    "chat": "",
                    "unidentified": "",
                    "value": "<p>@Compendium[pf2e.actionspf2e.Strike]{Striking} from concealment doesn't cause the bandit to become @Compendium[pf2e.conditionitems.Observed]{Observed}.</p>"
                },
                "rarity": {
                    "value": "common"
                },
                "requirements": {
                    "value": ""
                },
                "skill_requirement": {
                    "skill": {
                        "rank": "",
                        "skill": ""
                    }
                },
                "skill_requirements": {
                    "rank": "",
                    "skill": ""
                },
                "source": {
                    "value": ""
                },
                "traits": {
                    "selected": {},
                    "value": []
                },
                "trigger": {
                    "value": ""
                },
                "usage": {
                    "value": "held-in-one-hand"
                },
                "weapon": {
                    "value": ""
                }
            },
            "effects": [],
            "flags": {},
            "img": "icons/svg/mystery-man.svg",
            "name": "Experienced Ambusher",
            "sort": 600000,
            "type": "action"
        },
        {
            "_id": "MCOjIjgJTtdMmKyA",
            "data": {
                "actionCategory": {
                    "value": "offensive"
                },
                "actionType": {
                    "value": "passive"
                },
                "actions": {
                    "value": ""
                },
                "description": {
                    "chat": "",
                    "unidentified": "",
                    "value": "<p> A bandit deals an additional [[/r 2d6 #precision]] precision damage to @Compendium[pf2e.conditionitems.Flat-Footed]{Flat-Footed} creatures.</p>"
                },
                "rarity": {
                    "value": "common"
                },
                "requirements": {
                    "value": ""
                },
                "skill_requirement": {
                    "skill": {
                        "rank": "",
                        "skill": ""
                    }
                },
                "skill_requirements": {
                    "rank": "",
                    "skill": ""
                },
                "source": {
                    "value": ""
                },
                "traits": {
                    "selected": {},
                    "value": []
                },
                "trigger": {
                    "value": ""
                },
                "usage": {
                    "value": "held-in-one-hand"
                },
                "weapon": {
                    "value": ""
                }
            },
            "effects": [],
            "flags": {},
            "img": "icons/svg/mystery-man.svg",
            "name": "Sneak Attack",
            "sort": 700000,
            "type": "action"
        },
        {
            "_id": "lAZv5wBV9YR8Mocp",
            "data": {
                "description": {
                    "chat": "",
                    "unidentified": "",
                    "value": ""
                },
                "featType": "",
                "item": {
                    "value": 0
                },
                "mod": {
                    "value": 14
                },
                "proficient": {
                    "value": 0
                },
                "rarity": {
                    "value": "common"
                },
                "source": {
                    "value": ""
                },
                "traits": {
                    "value": []
                },
                "usage": {
                    "value": "held-in-one-hand"
                }
            },
            "effects": [],
            "flags": {},
            "img": "icons/svg/mystery-man.svg",
            "name": "Acrobatics",
            "sort": 800000,
            "type": "lore"
        },
        {
            "_id": "EslvLcsOUId3mFLd",
            "data": {
                "description": {
                    "chat": "",
                    "unidentified": "",
                    "value": ""
                },
                "featType": "",
                "item": {
                    "value": 0
                },
                "mod": {
                    "value": 14
                },
                "proficient": {
                    "value": 0
                },
                "rarity": {
                    "value": "common"
                },
                "source": {
                    "value": ""
                },
                "traits": {
                    "value": []
                },
                "usage": {
                    "value": "held-in-one-hand"
                }
            },
            "effects": [],
            "flags": {},
            "img": "icons/svg/mystery-man.svg",
            "name": "Athletics",
            "sort": 900000,
            "type": "lore"
        },
        {
            "_id": "hznmFVwouf8dXyUP",
            "data": {
                "description": {
                    "chat": "",
                    "unidentified": "",
                    "value": ""
                },
                "featType": "",
                "item": {
                    "value": 0
                },
                "mod": {
                    "value": 12
                },
                "proficient": {
                    "value": 0
                },
                "rarity": {
                    "value": "common"
                },
                "source": {
                    "value": ""
                },
                "traits": {
                    "value": []
                },
                "usage": {
                    "value": "held-in-one-hand"
                }
            },
            "effects": [],
            "flags": {},
            "img": "icons/svg/mystery-man.svg",
            "name": "Intimidation",
            "sort": 1000000,
            "type": "lore"
        },
        {
            "_id": "jZ765a8rPjSa1TXl",
            "data": {
                "description": {
                    "chat": "",
                    "unidentified": "",
                    "value": ""
                },
                "featType": "",
                "item": {
                    "value": 0
                },
                "mod": {
                    "value": 10
                },
                "proficient": {
                    "value": 0
                },
                "rarity": {
                    "value": "common"
                },
                "source": {
                    "value": ""
                },
                "traits": {
                    "value": []
                },
                "usage": {
                    "value": "held-in-one-hand"
                }
            },
            "effects": [],
            "flags": {},
            "img": "icons/svg/mystery-man.svg",
            "name": "Society",
            "sort": 1100000,
            "type": "lore"
        },
        {
            "_id": "2p0i5rO3YFnIUKdb",
            "data": {
                "description": {
                    "chat": "",
                    "unidentified": "",
                    "value": ""
                },
                "featType": "",
                "item": {
                    "value": 0
                },
                "mod": {
                    "value": 16
                },
                "proficient": {
                    "value": 0
                },
                "rarity": {
                    "value": "common"
                },
                "source": {
                    "value": ""
                },
                "traits": {
                    "value": []
                },
                "usage": {
                    "value": "held-in-one-hand"
                }
            },
            "effects": [],
            "flags": {},
            "img": "icons/svg/mystery-man.svg",
            "name": "Stealth",
            "sort": 1200000,
            "type": "lore"
        },
        {
            "_id": "29znGASxw3B2s89T",
            "data": {
                "description": {
                    "chat": "",
                    "unidentified": "",
                    "value": ""
                },
                "featType": "",
                "item": {
                    "value": 0
                },
                "mod": {
                    "value": 12
                },
                "proficient": {
                    "value": 0
                },
                "rarity": {
                    "value": "common"
                },
                "source": {
                    "value": ""
                },
                "traits": {
                    "value": []
                },
                "usage": {
                    "value": "held-in-one-hand"
                }
            },
            "effects": [],
            "flags": {},
            "img": "icons/svg/mystery-man.svg",
            "name": "Survival",
            "sort": 1300000,
            "type": "lore"
        },
        {
            "_id": "a4SSMVjAQgcwes1C",
            "data": {
                "actionCategory": {
                    "value": "offensive"
                },
                "actionType": {
                    "value": "passive"
                },
                "actions": {
                    "value": ""
                },
                "description": {
                    "chat": "",
                    "unidentified": "",
                    "value": "<p>A target damaged by the bandit's @Compendium[pf2e.equipment-srd.Shortbow]{Shortbow} @Compendium[pf2e.actionspf2e.Strike]{Strike} must succeed at a DC 22 Fortitude save or be @Compendium[pf2e.conditionitems.Slowed]{Slowed} 1 until the end of the bandit's next turn.</p>"
                },
                "rarity": {
                    "value": "common"
                },
                "requirements": {
                    "value": ""
                },
                "skill_requirement": {
                    "skill": {
                        "rank": "",
                        "skill": ""
                    }
                },
                "skill_requirements": {
                    "rank": "",
                    "skill": ""
                },
                "source": {
                    "value": ""
                },
                "traits": {
                    "selected": [],
                    "value": []
                },
                "trigger": {
                    "value": ""
                },
                "usage": {
                    "value": "held-in-one-hand"
                },
                "weapon": {
                    "value": ""
                }
            },
            "effects": [],
            "flags": {},
            "img": "icons/svg/mystery-man.svg",
            "name": "Muscle Striker",
            "sort": 1400000,
            "type": "action"
        },
        {
            "_id": "CDCwXayq3NXDaBiB",
            "data": {
                "MAP": {
                    "value": ""
                },
                "ability": {
                    "label": "Offensive Ability",
                    "type": "String",
                    "value": "dex"
                },
                "bonus": {
                    "label": "Item Bonus",
                    "type": "String",
                    "value": 0
                },
                "bonusDamage": {
                    "value": 0
                },
                "brokenThreshold": {
                    "value": 0
                },
                "bulkCapacity": {
                    "value": ""
                },
                "collapsed": {
                    "value": false
                },
                "containerId": {
                    "value": ""
                },
                "damage": {
                    "damageType": "piercing",
                    "dice": 1,
                    "die": "d6",
                    "label": "damage",
                    "type": "String",
                    "value": ""
                },
                "description": {
                    "chat": "",
                    "label": "Description",
                    "type": "String",
                    "unidentified": "",
                    "value": "<p><span class=\"fontstyle0\">This shortbow is made from horn, wood, and sinew laminated together to increase the power of its pull and the force of its projectile. Its compact size and power make it a favorite of mounted archers. Any time an ability is specifically restricted to a shortbow, it also applies to composite shortbows unless otherwise stated.</span></p>"
                },
                "equipped": {
                    "value": false
                },
                "equippedBulk": {
                    "value": ""
                },
                "group": {
                    "label": "Weapon Group",
                    "type": "String",
                    "value": "bow"
                },
                "hands": {
                    "label": "Hands",
                    "type": "String",
                    "value": ""
                },
                "hardness": {
                    "value": 0
                },
                "hp": {
                    "value": 0
                },
                "identified": {
                    "value": false
                },
                "invested": {
                    "value": false
                },
                "level": {
                    "label": "Item Level",
                    "type": "Number",
                    "value": null
                },
                "maxHp": {
                    "value": 0
                },
                "negateBulk": {
                    "value": "0"
                },
                "potencyRune": {
                    "value": ""
                },
                "preciousMaterial": {
                    "value": ""
                },
                "preciousMaterialGrade": {
                    "value": ""
                },
                "price": {
                    "label": "Price",
                    "type": "String",
                    "value": "14 gp"
                },
                "property1": {
                    "critDamage": "",
                    "critDamageType": "",
                    "critDice": null,
                    "critDie": "",
                    "criticalConditionType": "",
                    "criticalConditionValue": null,
                    "damageType": "",
                    "dice": null,
                    "die": "",
                    "label": "Primary Property",
                    "strikeConditionType": "",
                    "strikeConditionValue": null,
                    "type": "String",
                    "value": ""
                },
                "property2": {
                    "critDamage": "",
                    "critDamageType": "",
                    "critDice": 0,
                    "critDie": "",
                    "damageType": "",
                    "dice": 0,
                    "die": "",
                    "label": "Secondary Property",
                    "type": "String",
                    "value": ""
                },
                "property3": {
                    "critDamage": "",
                    "critDamageType": "",
                    "critDice": 0,
                    "critDie": "",
                    "damageType": "",
                    "dice": 0,
                    "die": "",
                    "label": "Tertiary Property",
                    "type": "String",
                    "value": ""
                },
                "propertyRune1": {
                    "value": ""
                },
                "propertyRune2": {
                    "value": ""
                },
                "propertyRune3": {
                    "value": ""
                },
                "propertyRune4": {
                    "value": ""
                },
                "quantity": {
                    "label": "Quantity",
                    "type": "Number",
                    "value": 1
                },
                "range": {
                    "label": "Weapon Range",
                    "type": "String",
                    "value": "60"
                },
                "rarity": {
                    "value": "common"
                },
                "reload": {
                    "label": "Reload",
                    "type": "String",
                    "value": ""
                },
                "source": {
                    "label": "Source",
                    "type": "String",
                    "value": ""
                },
                "splashDamage": {
                    "value": 0
                },
                "stackGroup": {
                    "value": ""
                },
                "strikingRune": {
                    "value": ""
                },
                "traits": {
                    "custom": "",
                    "label": "Weapon Traits",
                    "type": "String",
                    "value": [
                        "deadly-d10",
                        "propulsive"
                    ]
                },
                "usage": {
                    "value": "held-in-one-hand"
                },
                "weaponType": {
                    "label": "Weapon Category",
                    "type": "String",
                    "value": "martial"
                },
                "weight": {
                    "label": "Bulk",
                    "type": "Number",
                    "value": "1"
                }
            },
            "effects": [],
            "flags": {},
            "img": "systems/pf2e/icons/equipment/weapons/composite-shortbow.png",
            "name": "Composite Shortbow",
            "sort": 1500000,
            "type": "weapon"
        },
        {
            "_id": "rdK0MhUJpiTD0Q31",
            "data": {
                "MAP": {
                    "value": ""
                },
                "ability": {
                    "label": "Offensive Ability",
                    "type": "String",
                    "value": "str"
                },
                "bonus": {
                    "label": "Item Bonus",
                    "type": "String",
                    "value": 0
                },
                "bonusDamage": {
                    "value": 0
                },
                "brokenThreshold": {
                    "value": 0
                },
                "bulkCapacity": {
                    "value": ""
                },
                "collapsed": {
                    "value": false
                },
                "containerId": {
                    "value": ""
                },
                "damage": {
                    "damageType": "slashing",
                    "dice": 1,
                    "die": "d6",
                    "label": "damage",
                    "type": "String",
                    "value": ""
                },
                "description": {
                    "chat": "",
                    "label": "Description",
                    "type": "String",
                    "unidentified": "",
                    "value": "<p>This small axe can be used in close combat or thrown.</p>"
                },
                "equipped": {
                    "value": false
                },
                "equippedBulk": {
                    "value": ""
                },
                "group": {
                    "label": "Weapon Group",
                    "type": "String",
                    "value": "axe"
                },
                "hands": {
                    "label": "Hands",
                    "type": "String",
                    "value": ""
                },
                "hardness": {
                    "value": 0
                },
                "hp": {
                    "value": 0
                },
                "identified": {
                    "value": false
                },
                "invested": {
                    "value": false
                },
                "level": {
                    "label": "Item Level",
                    "type": "Number",
                    "value": null
                },
                "maxHp": {
                    "value": 0
                },
                "negateBulk": {
                    "value": "0"
                },
                "potencyRune": {
                    "value": ""
                },
                "preciousMaterial": {
                    "value": ""
                },
                "preciousMaterialGrade": {
                    "value": ""
                },
                "price": {
                    "label": "Price",
                    "type": "String",
                    "value": "4 sp"
                },
                "property1": {
                    "critDamage": "",
                    "critDamageType": "",
                    "critDice": null,
                    "critDie": "",
                    "criticalConditionType": "",
                    "criticalConditionValue": null,
                    "damageType": "",
                    "dice": null,
                    "die": "",
                    "label": "Primary Property",
                    "strikeConditionType": "",
                    "strikeConditionValue": null,
                    "type": "String",
                    "value": ""
                },
                "property2": {
                    "critDamage": "",
                    "critDamageType": "",
                    "critDice": 0,
                    "critDie": "",
                    "damageType": "",
                    "dice": 0,
                    "die": "",
                    "label": "Secondary Property",
                    "type": "String",
                    "value": ""
                },
                "property3": {
                    "critDamage": "",
                    "critDamageType": "",
                    "critDice": 0,
                    "critDie": "",
                    "damageType": "",
                    "dice": 0,
                    "die": "",
                    "label": "Tertiary Property",
                    "type": "String",
                    "value": ""
                },
                "propertyRune1": {
                    "value": ""
                },
                "propertyRune2": {
                    "value": ""
                },
                "propertyRune3": {
                    "value": ""
                },
                "propertyRune4": {
                    "value": ""
                },
                "quantity": {
                    "label": "Quantity",
                    "type": "Number",
                    "value": 2
                },
                "range": {
                    "label": "Weapon Range",
                    "type": "String",
                    "value": "10"
                },
                "rarity": {
                    "value": "common"
                },
                "reload": {
                    "label": "Reload",
                    "type": "String",
                    "value": ""
                },
                "source": {
                    "label": "Source",
                    "type": "String",
                    "value": ""
                },
                "splashDamage": {
                    "value": 0
                },
                "stackGroup": {
                    "value": ""
                },
                "strikingRune": {
                    "value": ""
                },
                "traits": {
                    "custom": "",
                    "label": "Weapon Traits",
                    "rarity": {
                        "value": "common"
                    },
                    "selected": [],
                    "type": "String",
                    "value": [
                        "agile",
                        "sweep",
                        "thrown-10"
                    ]
                },
                "usage": {
                    "value": "held-in-one-hand"
                },
                "weaponType": {
                    "label": "Weapon Category",
                    "type": "String",
                    "value": "martial"
                },
                "weight": {
                    "label": "Bulk",
                    "type": "Number",
                    "value": "-"
                }
            },
            "effects": [],
            "flags": {},
            "img": "systems/pf2e/icons/equipment/weapons/hatchet.png",
            "name": "Hatchet",
            "sort": 1600000,
            "type": "weapon"
        },
        {
            "_id": "TWsNNEaUiCalth3H",
            "data": {
                "activation": {
                    "condition": "",
                    "cost": 0,
                    "type": ""
                },
                "autoDestroy": {
                    "_deprecated": true,
                    "label": "Destroy on Empty",
                    "type": "Boolean",
                    "value": true
                },
                "autoUse": {
                    "_deprecated": true,
                    "label": "Consume on Use",
                    "type": "Boolean",
                    "value": true
                },
                "brokenThreshold": {
                    "value": 0
                },
                "bulkCapacity": {
                    "value": ""
                },
                "charges": {
                    "_deprecated": true,
                    "label": "Charges",
                    "max": 1,
                    "type": "Number",
                    "value": 1
                },
                "collapsed": {
                    "value": false
                },
                "consumableType": {
                    "label": "Consumable Type",
                    "type": "String",
                    "value": "ammo"
                },
                "consume": {
                    "_deprecated": true,
                    "label": "Roll on Consume",
                    "type": "String",
                    "value": ""
                },
                "containerId": {
                    "value": ""
                },
                "description": {
                    "chat": "",
                    "label": "Description",
                    "type": "String",
                    "unidentified": "",
                    "value": "<p><span class=\"fontstyle0\">These projectiles are the ammunition for bows. The shaft of an arrow is made of wood. It is stabilized in flight by fletching at one end and bears a metal head on the other.</span></p>"
                },
                "duration": {
                    "units": "",
                    "value": null
                },
                "equipped": {
                    "value": false
                },
                "equippedBulk": {
                    "value": ""
                },
                "hardness": {
                    "value": 0
                },
                "hp": {
                    "value": 0
                },
                "identified": {
                    "value": false
                },
                "invested": {
                    "value": false
                },
                "level": {
                    "label": "Item Level",
                    "type": "Number",
                    "value": null
                },
                "maxHp": {
                    "value": 0
                },
                "negateBulk": {
                    "value": "0"
                },
                "preciousMaterial": {
                    "value": ""
                },
                "preciousMaterialGrade": {
                    "value": ""
                },
                "price": {
                    "label": "Price",
                    "type": "String",
                    "value": "1 sp"
                },
                "quantity": {
                    "label": "Quantity",
                    "type": "Number",
                    "value": 20
                },
                "range": {
                    "long": null,
                    "units": "",
                    "value": null
                },
                "rarity": {
                    "value": "common"
                },
                "source": {
                    "label": "Source",
                    "type": "String",
                    "value": ""
                },
                "stackGroup": {
                    "value": "arrows"
                },
                "target": {
                    "type": "",
                    "units": "",
                    "value": null
                },
                "traits": {
                    "rarity": {
                        "value": "common"
                    },
                    "usage": {
                        "value": "held-in-one-hand"
                    },
                    "value": []
                },
                "usage": {
                    "value": "held-in-one-hand"
                },
                "uses": {
                    "autoDestroy": true,
                    "autoUse": true,
                    "max": 0,
                    "per": null,
                    "value": 0
                },
                "weight": {
                    "label": "Bulk",
                    "type": "Number",
                    "value": "L"
                }
            },
            "effects": [],
            "flags": {},
            "img": "systems/pf2e/icons/equipment/weapons/arrows.jpg",
            "name": "Arrows",
            "sort": 1800000,
            "type": "consumable"
        },
        {
            "_id": "5POWwJTdcA0KHWau",
            "data": {
                "armor": {
                    "label": "AC Bonus",
                    "type": "Number",
                    "value": 1
                },
                "armorType": {
                    "label": "Armor Category",
                    "type": "String",
                    "value": "light"
                },
                "brokenThreshold": {
                    "value": null
                },
                "bulkCapacity": {
                    "value": ""
                },
                "check": {
                    "label": "Check Penalty",
                    "type": "String",
                    "value": ""
                },
                "collapsed": {
                    "value": false
                },
                "containerId": {
                    "value": ""
                },
                "description": {
                    "chat": "",
                    "label": "Description",
                    "type": "String",
                    "unidentified": "",
                    "value": "<p><span class=\"fontstyle0\">This armor is simply a layer of heavy, quilted cloth, but it is sometimes used because it's so inexpensive. Padded armor is easier to damage and destroy than other types of armor. Heavy armor comes with a padded armor undercoat included in its Price, though it loses the comfort trait when worn under heavy armor. You can wear just that padded armor or undercoat to sleep in, if your heavy armor is destroyed, or when otherwise not wearing the full heavy armor. This allows you to keep the armor invested and benefit from the power of any runes on the associated heavy armor, but no one else can wear your heavy armor without the padded undercoat.</span></p>"
                },
                "dex": {
                    "label": "Dex Modifier Cap",
                    "type": "String",
                    "value": "3"
                },
                "equipped": {
                    "label": "Equipped",
                    "type": "Boolean",
                    "value": false
                },
                "equippedBulk": {
                    "value": "L"
                },
                "group": {
                    "label": "Group",
                    "type": "String",
                    "value": ""
                },
                "hardness": {
                    "value": null
                },
                "hp": {
                    "value": null
                },
                "identified": {
                    "value": false
                },
                "invested": {
                    "value": false
                },
                "level": {
                    "label": "Item Level",
                    "type": "Number",
                    "value": 0
                },
                "maxHp": {
                    "value": null
                },
                "negateBulk": {
                    "value": "0"
                },
                "potency": {
                    "label": "Armor Potency",
                    "type": "String"
                },
                "potencyRune": {
                    "value": ""
                },
                "preciousMaterial": {
                    "value": ""
                },
                "preciousMaterialGrade": {
                    "value": ""
                },
                "price": {
                    "label": "Price",
                    "type": "String",
                    "value": "2 sp"
                },
                "property1": {
                    "critDamage": "",
                    "critDamageType": "",
                    "critDice": 0,
                    "critDie": "",
                    "damageType": "",
                    "dice": 0,
                    "die": "",
                    "label": "Property Rune 1",
                    "type": "Number",
                    "value": ""
                },
                "property2": {
                    "critDamage": "",
                    "critDamageType": "",
                    "critDice": 0,
                    "critDie": "",
                    "damageType": "",
                    "dice": 0,
                    "die": "",
                    "label": "Property Rune 2",
                    "type": "Number",
                    "value": ""
                },
                "property3": {
                    "critDamage": "",
                    "critDamageType": "",
                    "critDice": 0,
                    "critDie": "",
                    "damageType": "",
                    "dice": 0,
                    "die": "",
                    "label": "Property Rune 3",
                    "type": "Number",
                    "value": ""
                },
                "propertyRune1": {
                    "value": ""
                },
                "propertyRune2": {
                    "value": ""
                },
                "propertyRune3": {
                    "value": ""
                },
                "propertyRune4": {
                    "value": ""
                },
                "quantity": {
                    "label": "Quantity",
                    "type": "Number",
                    "value": 1
                },
                "rarity": {
                    "value": "common"
                },
                "resiliencyRune": {
                    "value": ""
                },
                "resilient": {
                    "label": "Resilient",
                    "type": "String"
                },
                "source": {
                    "label": "Source",
                    "type": "String",
                    "value": ""
                },
                "speed": {
                    "label": "Speed Penalty",
                    "type": "String",
                    "value": ""
                },
                "stackGroup": {
                    "value": ""
                },
                "strength": {
                    "label": "Required Strength",
                    "type": "String",
                    "value": "10"
                },
                "traits": {
                    "label": "Traits",
                    "rarity": {
                        "value": "common"
                    },
                    "type": "String",
                    "value": "Comfort"
                },
                "usage": {
                    "value": "held-in-one-hand"
                },
                "weight": {
                    "label": "Bulk",
                    "type": "Number",
                    "value": "1"
                }
            },
            "effects": [],
            "flags": {},
            "img": "systems/pf2e/icons/equipment/armor/padded-armor.jpg",
            "name": "Padded Armor",
            "sort": 1900000,
            "type": "armor"
        }
    ],
    "name": "Bitter Truth Bandits",
    "permission": {
        "default": 0
    },
    "token": {
        "actorId": "88VcnxbKPF2QkPiF",
        "actorLink": false,
        "bar1": {
            "attribute": "attributes.hp"
        },
        "bar2": {},
        "brightLight": 0,
        "brightSight": 0,
        "dimLight": 0,
        "dimSight": 0,
        "displayBars": 20,
        "displayName": 20,
        "disposition": -1,
        "flags": {},
        "height": 1,
        "img": "icons/svg/mystery-man.svg",
        "lightAlpha": 1,
        "lightAngle": 360,
        "lightAnimation": {
            "intensity": 5,
            "speed": 5
        },
        "lockRotation": false,
        "name": "Bitter Truth Bandits",
        "randomImg": false,
        "rotation": 0,
        "scale": 1,
        "sightAngle": 360,
        "tint": null,
        "vision": false,
        "width": 1
    },
    "type": "npc"
}
