{
  "name": "pf2e",
  "title": "Pathfinder 2nd Edition",
  "description": "A community contributed game system for Pathfinder Second Edition.",
  "version": "1.10.31",
  "schema": 0.594,
  "minimumCoreVersion": "0.7.5",
  "compatibleCoreVersion": "0.7.9",
  "author": "hooking, Trey",
  "esmodules": ["main.bundle.js"],
  "scripts": [
    "./lib/tooltipster.bundle.min.js"
  ],
  "styles": ["./styles/pf2e.css"],
  "packs": [
    {
      "name": "spells-srd",
      "label": "Spells (SRD)",
      "system": "pf2e",
      "module": "pf2e",
      "path": "./packs/spells.db",
      "entity": "Item"
    },
    {
      "name": "spell-effects",
      "label": "Spell Effects",
      "system": "pf2e",
      "module": "pf2e",
      "path": "./packs/spell-effects.db",
      "entity": "Item"
    },
    {
      "name": "feats-srd",
      "label": "Feats (SRD)",
      "system": "pf2e",
      "module": "pf2e",
      "path": "./packs/feats.db",
      "entity": "Item"
    },
    {
      "name": "equipment-srd",
      "label": "Equipment (SRD)",
      "system": "pf2e",
      "module": "pf2e",
      "path": "./packs/equipment.db",
      "entity": "Item"
    },
    {
      "name": "conditionitems",
      "label": "Conditions (PF2e)",
      "system": "pf2e",
      "module": "pf2e",
      "path": "packs/conditionitems.db",
      "entity": "Item"
    },
    {
      "name": "actionspf2e",
      "label": "Actions (SRD)",
      "system": "pf2e",
      "module": "pf2e",
      "path": "packs/actions.db",
      "entity": "Item"
    },
    {
      "name": "archetypes",
      "label": "Archetypes",
      "system": "pf2e",
      "module": "pf2e",
      "path": "packs/archetypes.db",
      "entity": "JournalEntry"
    },
    {
      "name": "pathfinder-bestiary",
      "label": "Pathfinder Bestiary",
      "system": "pf2e",
      "module": "pf2e",
      "path": "packs/pathfinder-bestiary.db",
      "entity": "Actor"
    },
    {
      "name": "pathfinder-bestiary-2",
      "label": "Pathfinder Bestiary 2",
      "system": "pf2e",
      "module": "pf2e",
      "path": "packs/pathfinder-bestiary-2.db",
      "entity": "Actor"
    },
    {
      "name": "hazards",
      "label": "Hazards",
      "system": "pf2e",
      "module": "pf2e",
      "path": "packs/hazards.db",
      "entity": "Actor"
    },
    {
      "name": "age-of-ashes-bestiary",
      "label": "Age of Ashes Bestiary",
      "system": "pf2e",
      "module": "pf2e",
      "path": "packs/age-of-ashes-bestiary.db",
      "entity": "Actor"
    },
    {
      "name": "extinction-curse-bestiary",
      "label": "Extinction Curse Bestiary",
      "system": "pf2e",
      "module": "pf2e",
      "path": "packs/extinction-curse-bestiary.db",
      "entity": "Actor"
    },
    {
      "name": "agents-of-edgewatch-bestiary",
      "label": "Agents of Edgewatch Bestiary",
      "system": "pf2e",
      "module": "pf2e",
      "path": "packs/agents-of-edgewatch-bestiary.db",
      "entity": "Actor"
    },
    {
      "name": "fall-of-plaguestone-bestiary",
      "label": "Fall of Plaguestone Bestiary",
      "system": "pf2e",
      "module": "pf2e",
      "path": "packs/fall-of-plaguestone.db",
      "entity": "Actor"
    },
    {
      "name": "menace-under-otari-bestiary",
      "label": "Menace Under Otari Bestiary",
      "system": "pf2e",
      "module": "pf2e",
      "path": "packs/menace-under-otari-bestiary.db",
      "entity": "Actor"
    },
    {
      "name": "iconics",
      "label": "Iconics Pregenerated Characters",
      "system": "pf2e",
      "module": "pf2e",
      "path": "packs/iconics.db",
      "entity": "Actor"
    },
    {
      "name": "npc-gallery",
      "label": "NPC Gallery",
      "system": "pf2e",
      "module": "pf2e",
      "path": "packs/npc-gallery.db",
      "entity": "Actor"
    },
    {
      "name": "ancestryfeatures",
      "label": "Ancestry Features (SRD)",
      "path": "packs/ancestryfeatures.db",
      "entity": "Item",
      "module": "pf2e",
      "system": "pf2e"
    },
    {
      "name": "classfeatures",
      "label": "Class Features (SRD)",
      "path": "packs/classfeatures.db",
      "entity": "Item",
      "module": "pf2e",
      "system": "pf2e"
    },
    {
      "name": "rollable-tables",
      "label": "Rollable Tables",
      "path": "packs/rollable-tables.db",
      "entity": "RollTable",
      "system": "pf2e",
      "module": "pf2e"
    },
    {
      "name": "backgrounds",
      "label": "Backgrounds",
      "path": "packs/backgrounds.db",
      "entity": "Item",
      "system": "pf2e",
      "module": "pf2e"
    },
    {
      "name": "deities",
      "label": "Deities",
      "system": "pf2e",
      "module": "pf2e",
      "path": "packs/deities.db",
      "entity": "JournalEntry"
    },
    {
      "name": "gmg-srd",
      "label": "Game Mastery Guide (SRD)",
      "system": "pf2e",
      "module": "pf2e",
      "path": "packs/gmg-srd.db",
      "entity": "JournalEntry"
    },
    {
      "name": "classes",
      "label": "Classes (SRD)",
      "system": "pf2e",
      "module": "pf2e",
      "path": "packs/classes.db",
      "entity": "JournalEntry"
    },
    {
      "name": "criticaldeck",
      "label": "Critical Hit/Fumble Deck",
      "system": "pf2e",
      "module": "pf2e",
      "path": "packs/criticaldeck.db",
      "entity": "JournalEntry"
    },
    {
      "name": "pf2e-macros",
      "label": "PF2e Macros",
      "system": "pf2e",
      "module": "pf2e",
      "path": "packs/pf2e-macros.db",
      "entity": "Macro"
    },
    {
      "name": "bestiary-ability-glossary-srd",
      "label": "Bestiary Ability Glossary",
      "system": "pf2e",
      "module": "pf2e",
      "path": "packs/bestiary-ability-glossary-srd.db",
      "entity": "Item"
    },
    {
      "name": "pathfinder-society-boons",
      "label": "Pathfinder Society Boons",
      "system": "pf2e",
      "module": "pf2e",
      "path": "packs/pathfinder-society-boons.db",
      "entity": "Item"
    },
    {
      "name": "the-slithering-bestiary",
      "label": "The Slithering Bestiary",
      "system": "pf2e",
      "module": "pf2e",
      "path": "packs/the-slithering-bestiary.db",
      "entity": "Actor"
    },
    {
      "name": "troubles-in-otari-bestiary",
      "label": "Troubles in Otari Bestiary",
      "system": "pf2e",
      "module": "pf2e",
      "path": "packs/troubles-in-otari-bestiary.db",
      "entity": "Actor"
    },
    {
      "name": "boons-and-curses",
      "label": "Deity Boons and Curses",
      "system": "pf2e",
      "module": "pf2e",
      "path": "packs/boons-and-curses.db",
      "entity": "Item"
    },
    {
      "name": "pfs-season-1-bestiary",
      "label": "PFS Season 1 Bestiary",
      "system": "pf2e",
      "module": "pf2e",
      "path": "packs/pfs-season-1-bestiary.db",
      "entity": "Actor"
    },
    {
      "name": "pfs-season-2-bestiary",
      "label": "PFS Season 2 Bestiary",
      "system": "pf2e",
      "module": "pf2e",
      "path": "packs/pfs-season-2-bestiary.db",
      "entity": "Actor"
    },
    {
      "name": "familiar-abilities",
      "label": "Familiar Abilities",
      "system": "pf2e",
      "module": "pf2e",
      "path": "packs/familiar-abilities.db",
      "entity": "Item"
    },
    {
      "name": "ancestries",
      "label": "Ancestries",
      "system": "pf2e",
      "module": "pf2e",
      "path": "packs/ancestries.db",
      "entity": "Item"
    }
  ],
  "languages": [
    {
      "lang": "en",
      "name": "English",
      "path": "lang/en.json"
    }
  ],
  "socket": true,
  "templateVersion": 2,
  "initiative": "1d20 + @attributes.perception.value + (@abilities.wis.value / 100)",
  "gridDistance": 5,
  "gridUnits": "ft",
  "url": "https://gitlab.com/hooking/foundry-vtt---pathfinder-2e",
  "manifest": "https://gitlab.com/hooking/foundry-vtt---pathfinder-2e/-/jobs/artifacts/release/raw/system.json?job=build",
  "download": "https://gitlab.com/hooking/foundry-vtt---pathfinder-2e/-/jobs/artifacts/release/raw/pf2e.zip?job=build"
}
