{
    "_id": "hyMbJb2MRF5beIaU",
    "data": {
        "brokenThreshold": {
            "value": 0
        },
        "bulkCapacity": {
            "value": ""
        },
        "collapsed": {
            "value": false
        },
        "containerId": {
            "value": ""
        },
        "description": {
            "chat": "",
            "unidentified": "",
            "value": "<p><strong>Activate</strong> Cast a Spell</p>\n<p>An <em>archaic wayfinder</em> functions as a compass and acts as a repository for one cantrip cast into it. To fill an <em>archaic wayfinder</em>, a spellcaster casts the chosen cantrip into the empty device, providing any necessary cost; the spell cannot be one that is normally cast as a free action or reaction.</p>\n<p>Activating an <em>archaic wayfinder</em> is the same as the casting for the relevant spell. Once it has been activated, it becomes empty again. An <em>archaic wayfinder</em> can hold an aeon stone and activate its resonant power. An archaic wayfinder counts against the limit of one wayfinder with a slotted resonant aeon stone.</p>\n<p></p>"
        },
        "equipped": {
            "value": false
        },
        "equippedBulk": {
            "value": ""
        },
        "hardness": {
            "value": 0
        },
        "hp": {
            "value": 0
        },
        "identified": {
            "value": true
        },
        "invested": {
            "value": false
        },
        "level": {
            "value": "2"
        },
        "maxHp": {
            "value": 0
        },
        "negateBulk": {
            "value": ""
        },
        "preciousMaterial": {
            "value": ""
        },
        "preciousMaterialGrade": {
            "value": ""
        },
        "price": {
            "value": "30 gp"
        },
        "quantity": {
            "value": "1"
        },
        "rarity": {
            "value": "common"
        },
        "rules": [],
        "source": {
            "value": ""
        },
        "stackGroup": {
            "value": ""
        },
        "traits": {
            "custom": "",
            "rarity": {
                "value": "uncommon"
            },
            "usage": {
                "value": "held-in-one-hand"
            },
            "value": [
                "evocation",
                "magical"
            ]
        },
        "usage": {
            "value": "held-in-one-hand"
        },
        "weight": {
            "value": "-"
        }
    },
    "effects": [],
    "flags": {},
    "img": "systems/pf2e/icons/equipment/worn-items/other-worn-items/wayfinder.jpg",
    "name": "Archaic Wayfinder",
    "permission": {
        "default": 0
    },
    "type": "equipment"
}
