{
    "_id": "0QgniSjpzksm5riV",
    "data": {
        "brokenThreshold": {
            "value": 0
        },
        "bulkCapacity": {
            "value": ""
        },
        "collapsed": {
            "value": false
        },
        "containerId": {
            "value": ""
        },
        "description": {
            "chat": "",
            "label": "Description",
            "type": "String",
            "unidentified": "",
            "value": "<p>You need these tools to create items from raw materials with the Craft skill. Sterling artisan's tools give you a +1 item bonus to the check.</p>\n<p>Different sets are needed for different work, as determined by the GM; for example, blacksmith's tools differ from woodworker's tools.</p>\n<hr />\n<p>Automatically applied effects:</p>\n<ul>\n<li>+1 item bonus to Crafting roll to Craft items</li>\n</ul>"
        },
        "equipped": {
            "label": "Equipped",
            "type": "Boolean",
            "value": false
        },
        "equippedBulk": {
            "value": ""
        },
        "hardness": {
            "value": 0
        },
        "hp": {
            "value": 0
        },
        "identified": {
            "value": true
        },
        "invested": {
            "value": false
        },
        "level": {
            "label": "Item Level",
            "type": "Number",
            "value": 3
        },
        "maxHp": {
            "value": 0
        },
        "negateBulk": {
            "value": "0"
        },
        "preciousMaterial": {
            "value": ""
        },
        "preciousMaterialGrade": {
            "value": ""
        },
        "price": {
            "label": "Price",
            "type": "String",
            "value": "50 gp"
        },
        "quantity": {
            "label": "Quantity",
            "type": "Number",
            "value": 1
        },
        "rarity": {
            "value": "common"
        },
        "rules": [
            {
                "key": "PF2E.RuleElement.FlatModifier",
                "label": "Artisan's Tools, Sterling (craft items)",
                "predicate": {
                    "all": [
                        "action:craft"
                    ]
                },
                "selector": "crafting",
                "type": "item",
                "value": 1
            }
        ],
        "source": {
            "label": "Source",
            "type": "String",
            "value": ""
        },
        "stackGroup": {
            "value": ""
        },
        "traits": {
            "rarity": {
                "value": "common"
            },
            "usage": {
                "value": "held-in-one-hand"
            },
            "value": []
        },
        "usage": {
            "value": "held-in-one-hand"
        },
        "weight": {
            "label": "Bulk",
            "type": "Number",
            "value": "2"
        }
    },
    "flags": {},
    "img": "systems/pf2e/icons/equipment/adventuring-gear/artisan-tools.jpg",
    "name": "Artisan's Tools (Sterling)",
    "permission": {
        "default": 0
    },
    "type": "equipment"
}
