{
    "_id": "HamOU17sqb5ljiB5",
    "data": {
        "brokenThreshold": {
            "value": 0
        },
        "bulkCapacity": {
            "value": "8L"
        },
        "capacity": {
            "type": "weight",
            "value": 0,
            "weightless": false
        },
        "collapsed": {
            "value": false
        },
        "containerId": {
            "value": ""
        },
        "currency": {
            "cp": 0,
            "ep": 0,
            "gp": 0,
            "pp": 0,
            "sp": 0
        },
        "description": {
            "chat": "",
            "label": "Description",
            "type": "String",
            "unidentified": "",
            "value": "<p>A bandolier holds up to eight items of light Bulk within easy reach and is usually used for alchemical items or potions. If you are carrying or stowing a bandolier rather than wearing it around your chest, it has light Bulk instead of negligible. A bandolier can be dedicated to a full set of tools, such as healer's tools, allowing you to draw the tools as part of the action that requires them.</p>"
        },
        "equipped": {
            "value": false
        },
        "equippedBulk": {
            "value": "0"
        },
        "hardness": {
            "value": 0
        },
        "hp": {
            "value": 0
        },
        "identified": {
            "value": true
        },
        "invested": {
            "value": false
        },
        "level": {
            "value": "0"
        },
        "maxHp": {
            "value": 0
        },
        "negateBulk": {
            "value": "0"
        },
        "preciousMaterial": {
            "value": ""
        },
        "preciousMaterialGrade": {
            "value": ""
        },
        "price": {
            "label": "Price",
            "type": "String",
            "value": "1 sp"
        },
        "quantity": {
            "label": "Quantity",
            "type": "Number",
            "value": 1
        },
        "rarity": {
            "value": "common"
        },
        "source": {
            "label": "Source",
            "type": "String",
            "value": ""
        },
        "stackGroup": {
            "value": ""
        },
        "traits": {
            "rarity": {
                "value": "common"
            },
            "value": []
        },
        "usage": {
            "value": "held-in-one-hand"
        },
        "weight": {
            "label": "Bulk",
            "type": "Number",
            "value": "L"
        }
    },
    "flags": {},
    "img": "systems/pf2e/icons/equipment/adventuring-gear/bandolier.jpg",
    "name": "Bandolier",
    "permission": {
        "default": 0
    },
    "type": "backpack"
}
