{
    "_id": "NLC3c1mudubNNekY",
    "data": {
        "brokenThreshold": {
            "value": 0
        },
        "bulkCapacity": {
            "value": ""
        },
        "collapsed": {
            "value": false
        },
        "containerId": {
            "value": ""
        },
        "description": {
            "chat": "",
            "unidentified": "",
            "value": "<p>This small recording device can be as tiny as a music box or around the size of large book and is typically concealed in hollowed-out books and jewelry. A clockwork recorder can record up to 1 hour of sound before its wax cylinders must be retrieved and replaced. Any given clockwork recorder can play back the recordings of a cylinder, regardless of whether it was the recorder used for the original recording.</p>\n<p><strong>Activate</strong> <span style=\"font-family: 'Pathfinder2eActions'; font-size: 1.8em; display: inline;\">3</span> Interact</p>\n<p><strong> Effect</strong> You wind the recorder to start recording sound or to play back a recording. You can have the recording or playback start immediately or be timed to start at any point up to one month later.</p>"
        },
        "equipped": {
            "value": false
        },
        "equippedBulk": {
            "value": ""
        },
        "hardness": {
            "value": 0
        },
        "hp": {
            "value": 0
        },
        "identified": {
            "value": true
        },
        "invested": {
            "value": false
        },
        "level": {
            "value": "6"
        },
        "maxHp": {
            "value": 0
        },
        "negateBulk": {
            "value": "0"
        },
        "preciousMaterial": {
            "value": ""
        },
        "preciousMaterialGrade": {
            "value": ""
        },
        "price": {
            "value": "250 gp"
        },
        "quantity": {
            "value": "1"
        },
        "rarity": {
            "value": "common"
        },
        "rules": [],
        "source": {
            "value": ""
        },
        "stackGroup": {
            "value": ""
        },
        "traits": {
            "rarity": {
                "value": "rare"
            },
            "usage": {
                "value": "held-in-one-hand"
            },
            "value": []
        },
        "usage": {
            "value": "held-in-one-hand"
        },
        "weight": {
            "value": "L"
        }
    },
    "flags": {},
    "img": "systems/pf2e/icons/equipment/adventuring-gear/clockwork-recorder.jpg",
    "name": "Clockwork Recorder",
    "permission": {
        "default": 0
    },
    "type": "equipment"
}
