{
    "_id": "r9lPNhrvG69Ae88d",
    "data": {
        "brokenThreshold": {
            "value": 0
        },
        "bulkCapacity": {
            "value": ""
        },
        "collapsed": {
            "value": false
        },
        "containerId": {
            "value": ""
        },
        "description": {
            "chat": "",
            "unidentified": "",
            "value": "<p><span>Darkwood is a very lightweight wood found primarily in old-growth forests in south-central Avistan; it is dark as ebony but has a slight purple tint. A darkwood item's Bulk is reduced by 1 (or to light Bulk if its normal Bulk is 1, with no effect on an item that normally has light Bulk). The Price of an item made of darkwood is based on the item's normal Bulk, not its reduced Bulk for being made of darkwood, but reduce the Bulk before making any further Bulk adjustments for the size of the item. </span></p><h2>Darkwood Items</h2>\n<table style=\"width: 381px; user-select: text; color: #191813; font-size: 13px; height: 197px;\" border=\"1\">\n<tbody style=\"box-sizing: border-box; user-select: text;\">\n<tr style=\"box-sizing: border-box; user-select: text; height: 17px;\">\n<td style=\"box-sizing: border-box; user-select: text; color: white; height: 32px; width: 220px; background-color: #522e2c; text-align: center;\">\n<h3><span><strong>Darkwood Items</strong></span></h3>\n</td>\n<td style=\"box-sizing: border-box; user-select: text; color: white; width: 74px; text-align: center; background-color: #522e2c; height: 32px;\">\n<h3><strong style=\"box-sizing: border-box; user-select: text;\"><strong>Hardness</strong></strong> </h3>\n</td>\n<td style=\"box-sizing: border-box; user-select: text; color: white; width: 41px; text-align: center; background-color: #522e2c; height: 32px;\">\n<h3>HP</h3>\n</td>\n<td style=\"box-sizing: border-box; user-select: text; color: white; width: 45px; text-align: center; background-color: #522e2c; height: 32px;\">\n<h3>BT</h3>\n</td>\n</tr>\n<tr style=\"box-sizing: border-box; user-select: text; height: 17px;\">\n<td style=\"box-sizing: border-box; user-select: text; height: 25px; width: 220px; text-align: center; background-color: #f6f1e1;\"><strong>Thin Items</strong></td>\n<td style=\"box-sizing: border-box; user-select: text; width: 74px; text-align: center; background-color: #f6f1e1; height: 25px;\"> </td>\n<td style=\"box-sizing: border-box; user-select: text; width: 41px; text-align: center; background-color: #f6f1e1; height: 25px;\"> </td>\n<td style=\"box-sizing: border-box; user-select: text; width: 45px; text-align: center; background-color: #f6f1e1; height: 25px;\"> </td>\n</tr>\n<tr style=\"box-sizing: border-box; user-select: text; height: 17px;\">\n<td style=\"box-sizing: border-box; user-select: text; height: 25px; width: 220px; background-color: #eee5c8; text-align: center;\">Standard-grade</td>\n<td style=\"box-sizing: border-box; user-select: text; width: 74px; text-align: center; background-color: #eee5c8; height: 25px;\">5<span id=\"ctl00_MainContent_DetailedOutput\" style=\"box-sizing: border-box; user-select: text; display: block;\"></span></td>\n<td style=\"box-sizing: border-box; user-select: text; width: 41px; text-align: center; background-color: #eee5c8; height: 25px;\">20</td>\n<td style=\"box-sizing: border-box; user-select: text; width: 45px; text-align: center; background-color: #eee5c8; height: 25px;\">10</td>\n</tr>\n<tr style=\"box-sizing: border-box; user-select: text; height: 17px;\">\n<td style=\"box-sizing: border-box; user-select: text; height: 25px; width: 220px; text-align: center; background-color: #f6f1e1;\">High-grade</td>\n<td style=\"box-sizing: border-box; user-select: text; width: 74px; text-align: center; background-color: #f6f1e1; height: 25px;\">8</td>\n<td style=\"box-sizing: border-box; user-select: text; width: 41px; text-align: center; background-color: #f6f1e1; height: 25px;\">32</td>\n<td style=\"box-sizing: border-box; user-select: text; width: 45px; text-align: center; background-color: #f6f1e1; height: 25px;\">16</td>\n</tr>\n<tr style=\"box-sizing: border-box; user-select: text; height: 19px;\">\n<td style=\"box-sizing: border-box; user-select: text; height: 25px; width: 220px; text-align: center; background-color: #eee5c8;\"><strong>Items</strong></td>\n<td style=\"box-sizing: border-box; user-select: text; width: 74px; text-align: center; background-color: #eee5c8; height: 25px;\"> </td>\n<td style=\"box-sizing: border-box; user-select: text; width: 41px; text-align: center; background-color: #eee5c8; height: 25px;\"> </td>\n<td style=\"box-sizing: border-box; user-select: text; width: 45px; text-align: center; background-color: #eee5c8; height: 25px;\"> </td>\n</tr>\n<tr style=\"height: 19px;\">\n<td style=\"box-sizing: border-box; user-select: text; width: 220px; text-align: center; background-color: #f6f1e1; height: 25px;\">Standard-grade<strong><br /></strong></td>\n<td style=\"box-sizing: border-box; user-select: text; width: 74px; text-align: center; background-color: #f6f1e1; height: 25px;\">7</td>\n<td style=\"box-sizing: border-box; user-select: text; width: 41px; text-align: center; background-color: #f6f1e1; height: 25px;\">28</td>\n<td style=\"box-sizing: border-box; user-select: text; width: 45px; text-align: center; background-color: #f6f1e1; height: 25px;\">14</td>\n</tr>\n<tr style=\"height: 19px;\">\n<td style=\"box-sizing: border-box; user-select: text; width: 220px; text-align: center; background-color: #eee5c8; height: 25px;\">High-grade<strong><br /></strong></td>\n<td style=\"box-sizing: border-box; user-select: text; width: 74px; text-align: center; background-color: #eee5c8; height: 25px;\">10</td>\n<td style=\"box-sizing: border-box; user-select: text; width: 41px; text-align: center; background-color: #eee5c8; height: 25px;\">40</td>\n<td style=\"box-sizing: border-box; user-select: text; width: 45px; text-align: center; background-color: #eee5c8; height: 25px;\">20</td>\n</tr>\n<tr style=\"height: 19px;\">\n<td style=\"box-sizing: border-box; user-select: text; width: 220px; text-align: center; background-color: #f6f1e1; height: 25px;\"><strong>Structure</strong></td>\n<td style=\"box-sizing: border-box; user-select: text; width: 74px; text-align: center; background-color: #f6f1e1; height: 25px;\"> </td>\n<td style=\"box-sizing: border-box; user-select: text; width: 41px; text-align: center; background-color: #f6f1e1; height: 25px;\"> </td>\n<td style=\"box-sizing: border-box; user-select: text; width: 45px; text-align: center; background-color: #f6f1e1; height: 25px;\"> </td>\n</tr>\n<tr style=\"height: 19px;\">\n<td style=\"box-sizing: border-box; user-select: text; width: 220px; text-align: center; background-color: #eee5c8; height: 25px;\">Standard-grade<strong><br /></strong></td>\n<td style=\"box-sizing: border-box; user-select: text; width: 74px; text-align: center; background-color: #eee5c8; height: 25px;\">14</td>\n<td style=\"box-sizing: border-box; user-select: text; width: 41px; text-align: center; background-color: #eee5c8; height: 25px;\">56</td>\n<td style=\"box-sizing: border-box; user-select: text; width: 45px; text-align: center; background-color: #eee5c8; height: 25px;\">28</td>\n</tr>\n<tr style=\"height: 19px;\">\n<td style=\"box-sizing: border-box; user-select: text; width: 220px; text-align: center; background-color: #f6f1e1; height: 25px;\">High-grade<strong><br /></strong></td>\n<td style=\"box-sizing: border-box; user-select: text; width: 74px; text-align: center; background-color: #f6f1e1; height: 25px;\">20</td>\n<td style=\"box-sizing: border-box; user-select: text; width: 41px; text-align: center; background-color: #f6f1e1; height: 25px;\">80</td>\n<td style=\"box-sizing: border-box; user-select: text; width: 45px; text-align: center; background-color: #f6f1e1; height: 25px;\">40</td>\n</tr>\n</tbody>\n</table>"
        },
        "equipped": {
            "value": false
        },
        "equippedBulk": {
            "value": ""
        },
        "hardness": {
            "value": 0
        },
        "hp": {
            "value": 0
        },
        "identified": {
            "value": true
        },
        "invested": {
            "value": false
        },
        "level": {
            "value": "0"
        },
        "maxHp": {
            "value": 0
        },
        "negateBulk": {
            "value": "0"
        },
        "preciousMaterial": {
            "value": ""
        },
        "preciousMaterialGrade": {
            "value": ""
        },
        "price": {
            "value": "5,000 gp"
        },
        "quantity": {
            "value": "1"
        },
        "rarity": {
            "value": "common"
        },
        "source": {
            "value": ""
        },
        "stackGroup": {
            "value": ""
        },
        "traits": {
            "custom": "",
            "rarity": {
                "value": "uncommon"
            },
            "usage": {
                "value": "held-in-one-hand"
            },
            "value": [
                "precious"
            ]
        },
        "usage": {
            "value": "held-in-one-hand"
        },
        "weight": {
            "value": "1"
        }
    },
    "flags": {},
    "img": "systems/pf2e/icons/equipment/materials/darkwood-lumber.jpg",
    "name": "Darkwood Lumber",
    "permission": {
        "default": 0
    },
    "type": "equipment"
}
