{
    "_id": "6vyr3drpizIrd5PS",
    "data": {
        "activation": {
            "condition": "",
            "cost": 0,
            "type": ""
        },
        "autoDestroy": {
            "_deprecated": true,
            "value": true
        },
        "autoUse": {
            "_deprecated": true,
            "value": true
        },
        "brokenThreshold": {
            "value": 0
        },
        "bulkCapacity": {
            "value": ""
        },
        "charges": {
            "_deprecated": true,
            "max": "1",
            "value": "1"
        },
        "collapsed": {
            "value": false
        },
        "consumableType": {
            "value": "poison"
        },
        "consume": {
            "_deprecated": true,
            "value": null
        },
        "containerId": {
            "value": ""
        },
        "description": {
            "chat": "",
            "unidentified": "",
            "value": "<p><strong>Activate</strong> <span style=\"font-family: 'Pathfinder2eActions'; font-size: 1.8em; display: inline;\">1</span> Interact;</p>\n<p>This heavier-than-air mist emits a soft glow. While this poison lasts, it causes its victims to shine from within with agonizing, brilliant radiance. This effect has the light trait (although the poison itself doesn't, so only the light effect can be counteracted by darkness effects). The @Compendium[pf2e.conditionitems.Sickened]{Sickened} condition from daylight vapor can't be removed while the poison lasts, and when the victim enters an area of magical darkness, the poison attempts to counteract the darkness with a counteract modifier of +21. If the poison fails, it can't attempt to counteract the same darkness again.</p>\n<hr />\n<p><strong>Saving Throw</strong>DC 31 Fortitude;</p>\n<p><strong>Onset</strong>1 round;</p>\n<p><strong>Maximum Duration</strong>6 rounds;</p>\n<p><strong>Stage 1</strong>[[/r 4d6 #poison]] poison damage and sickened 1 (1 round);</p>\n<p><strong>Stage 2</strong>[[/r 6d6 #poison]] poison damage and sickened 2 (1 round);</p>\n<p><strong>Stage 3</strong> [[/r 10d6 #poison]] damage and sickened 3 (1 round)</p>\n<hr />\n<p><strong>Craft Requirements</strong>Supply one casting of @Compendium[pf2e.spells-srd.Sunburst]{Sunburst}.</p>"
        },
        "duration": {
            "units": "",
            "value": null
        },
        "equipped": {
            "value": false
        },
        "equippedBulk": {
            "value": ""
        },
        "hardness": {
            "value": 0
        },
        "hp": {
            "value": 0
        },
        "identified": {
            "value": true
        },
        "invested": {
            "value": false
        },
        "level": {
            "value": "13"
        },
        "maxHp": {
            "value": 0
        },
        "negateBulk": {
            "value": "0"
        },
        "preciousMaterial": {
            "value": ""
        },
        "preciousMaterialGrade": {
            "value": ""
        },
        "price": {
            "value": "500 gp"
        },
        "quantity": {
            "value": "1"
        },
        "range": {
            "long": null,
            "units": "",
            "value": null
        },
        "rarity": {
            "value": "common"
        },
        "rules": [],
        "source": {
            "value": ""
        },
        "stackGroup": {
            "value": ""
        },
        "target": {
            "type": "",
            "units": "",
            "value": null
        },
        "traits": {
            "custom": "",
            "rarity": {
                "value": "uncommon"
            },
            "usage": {
                "value": "held-in-one-hand"
            },
            "value": [
                "consumable",
                "divine",
                "inhaled",
                "poison"
            ]
        },
        "usage": {
            "value": "held-in-one-hand"
        },
        "uses": {
            "autoDestroy": true,
            "autoUse": true,
            "max": 0,
            "per": null,
            "value": 0
        },
        "weight": {
            "value": "L"
        }
    },
    "effects": [],
    "flags": {},
    "img": "systems/pf2e/icons/equipment/alchemical-items/alchemical-poisons/daylight-vapor.jpg",
    "name": "Daylight Vapor",
    "permission": {
        "default": 0
    },
    "type": "consumable"
}
