{
    "_id": "ItLZL9Bd6xwgfeB8",
    "data": {
        "brokenThreshold": {
            "value": 0
        },
        "bulkCapacity": {
            "value": ""
        },
        "collapsed": {
            "value": false
        },
        "containerId": {
            "value": ""
        },
        "description": {
            "chat": "",
            "unidentified": "",
            "value": "<p>This leather satchel contains empty vials, a pair of tweezers, a supply of small linen cloths, a set of brass calipers and a knotted string for measuring distances, several pieces of chalk, a pen, and a blank notebook for keeping notes.</p>\n<p>Every component of a detective's kit is of exceeding quality, and thus a detective's kit adds a +1 item bonus to checks to investigate a crime scene, a clue, or similar details.</p>\n<hr />\n<p><strong>Automatically applied effects:</strong></p>\n<ul>\n<li>+1 item bonus to checks to investigate</li>\n</ul>"
        },
        "equipped": {
            "value": false
        },
        "equippedBulk": {
            "value": ""
        },
        "hardness": {
            "value": 0
        },
        "hp": {
            "value": 0
        },
        "identified": {
            "value": true
        },
        "invested": {
            "value": false
        },
        "level": {
            "value": "3"
        },
        "maxHp": {
            "value": 0
        },
        "negateBulk": {
            "value": "0"
        },
        "preciousMaterial": {
            "value": ""
        },
        "preciousMaterialGrade": {
            "value": ""
        },
        "price": {
            "value": "25 gp"
        },
        "quantity": {
            "value": "1"
        },
        "rarity": {
            "value": "common"
        },
        "rules": [
            {
                "key": "PF2E.RuleElement.FlatModifier",
                "label": "Detective's Kit (to investigate)",
                "predicate": {
                    "all": [
                        "action:investigate"
                    ]
                },
                "selector": "skill-check",
                "type": "item",
                "value": 1
            },
            {
                "key": "PF2E.RuleElement.FlatModifier",
                "label": "Detective's Kit (to investigate)",
                "predicate": {
                    "all": [
                        "action:investigate"
                    ]
                },
                "selector": "perception",
                "type": "item",
                "value": 1
            }
        ],
        "source": {
            "value": ""
        },
        "stackGroup": {
            "value": ""
        },
        "traits": {
            "rarity": {
                "value": "common"
            },
            "usage": {
                "value": "held-in-two-hands"
            },
            "value": []
        },
        "usage": {
            "value": "held-in-one-hand"
        },
        "weight": {
            "value": "1"
        }
    },
    "effects": [],
    "flags": {},
    "img": "systems/pf2e/icons/equipment/adventuring-gear/detectives-kit.jpg",
    "name": "Detective's Kit",
    "permission": {
        "default": 0
    },
    "type": "equipment"
}
