{
    "_id": "1FKDq4Gfev5GObDT",
    "data": {
        "brokenThreshold": {
            "value": 0
        },
        "bulkCapacity": {
            "value": ""
        },
        "collapsed": {
            "value": false
        },
        "containerId": {
            "value": ""
        },
        "description": {
            "chat": "",
            "unidentified": "",
            "value": "<p>An elegant, colorful gem cut into a complex geometric pattern is slotted into a narrow metal band that fits around your brow. You gain a +3 item bonus to checks to Recall Knowledge, regardless of the skill.</p>\n<p>When you invest the diadem, you either increase your Intelligence score by 2 or increase it to 18, whichever would give you a higher score.</p>\n<p>This gives you additional trained skills and languages, as normal for increasing your Intelligence score. You must select skills and languages the first time you invest the item, and whenever you invest the same <em>diadem of intellect</em>, you get the same skills and languages you chose the first time.</p>\n<p><strong>Activate</strong> <span style=\"font-family: 'Pathfinder2eActions'; font-size: 1.8em; display: inline;\">A</span> envision</p>\n<p><strong>Frequency</strong> once per hour</p>\n<p><strong>Effect</strong> You gain the effects of @Compendium[pf2e.spells-srd.Hypercognition]{Hypercognition}.</p>\n<hr />\n<p>Automatically applied effects:</p>\n<ul>\n<li>+3 item bonus to checks to Recall Knowledge</li>\n</ul>"
        },
        "equipped": {
            "value": false
        },
        "equippedBulk": {
            "value": ""
        },
        "hardness": {
            "value": 0
        },
        "hp": {
            "value": 0
        },
        "identified": {
            "value": true
        },
        "invested": {
            "value": false
        },
        "level": {
            "value": "17"
        },
        "maxHp": {
            "value": 0
        },
        "negateBulk": {
            "value": "0"
        },
        "preciousMaterial": {
            "value": ""
        },
        "preciousMaterialGrade": {
            "value": ""
        },
        "price": {
            "value": "15,000 gp"
        },
        "quantity": {
            "value": "1"
        },
        "rarity": {
            "value": "common"
        },
        "rules": [
            {
                "key": "PF2E.RuleElement.FlatModifier",
                "predicate": {
                    "any": [
                        "action:recall-knowledge"
                    ]
                },
                "selector": "skill-check",
                "type": "item",
                "value": 3
            }
        ],
        "source": {
            "value": ""
        },
        "stackGroup": {
            "value": ""
        },
        "traits": {
            "custom": "",
            "rarity": {
                "value": "common"
            },
            "usage": {
                "value": "worncirclet"
            },
            "value": [
                "apex",
                "divination",
                "invested",
                "magical"
            ]
        },
        "usage": {
            "value": "held-in-one-hand"
        },
        "weight": {
            "value": "L"
        }
    },
    "effects": [],
    "flags": {},
    "img": "systems/pf2e/icons/equipment/worn-items/apex-items/diadem-of-intellect.jpg",
    "name": "Diadem of Intellect",
    "permission": {
        "default": 0
    },
    "type": "equipment"
}
