{
    "_id": "xY2MogTwH9Fd8UPG",
    "data": {
        "activation": {
            "condition": "",
            "cost": 0,
            "type": ""
        },
        "autoDestroy": {
            "_deprecated": true,
            "label": "Destroy on Empty",
            "type": "Boolean",
            "value": true
        },
        "autoUse": {
            "_deprecated": true,
            "label": "Consume on Use",
            "type": "Boolean",
            "value": true
        },
        "brokenThreshold": {
            "value": 0
        },
        "bulkCapacity": {
            "value": ""
        },
        "charges": {
            "_deprecated": true,
            "label": "Charges",
            "max": 1,
            "type": "Number",
            "value": 1
        },
        "collapsed": {
            "value": false
        },
        "consumableType": {
            "label": "Consumable Type",
            "type": "String",
            "value": "potion"
        },
        "consume": {
            "_deprecated": true,
            "label": "Roll on Consume",
            "type": "String",
            "value": ""
        },
        "containerId": {
            "value": ""
        },
        "description": {
            "chat": "",
            "label": "Description",
            "type": "String",
            "unidentified": "",
            "value": "<p><strong>Activate</strong> <span style=\"font-family: 'Pathfinder2eActions'; font-size: 1.8em; display: inline;\">A</span> Interact</p>\n<hr />\n<p>Your skin grows tough scales like a drake, your eyesight become sharp and your pupils slitted, and your limbs grow wiry and quick, but your mind and reflexes become slow.</p>\n<p><strong>Benefit</strong> You gain +5 item bonus to AC, a Dexterity cap of +2 (as usual, use your lowest Dexterity cap if you have more than one), and a +2 item bonus to Perception checks. If you're wearing armor, you still calculate your proficiency bonus to AC based on your proficiency in the armor you're wearing, even if the drakeheart mutagen has a higher item bonus. You also gain the @Compendium[pf2e.actionspf2e.Final Surge]{Final Surge} action.</p>\n<p><strong>Drawback</strong> You take a -1 penalty to Will saves, Reflex saves, and all skill checks to @Compendium[pf2e.actionspf2e.Recall Knowledge (Lore)]{Recall Knowledge}.</p>\n<p><strong>Duration</strong> 10 minutes or until you use Final Surge, whichever comes first.</p>\n<p>@Compendium[pf2e.spell-effects.Effect: Drakeheart Mutagen (Moderate)]{Effect: Drakeheart Mutagen (Moderate)}</p>"
        },
        "duration": {
            "units": "",
            "value": null
        },
        "equipped": {
            "value": false
        },
        "equippedBulk": {
            "value": ""
        },
        "hardness": {
            "value": 0
        },
        "hp": {
            "value": 0
        },
        "identified": {
            "value": true
        },
        "invested": {
            "value": false
        },
        "level": {
            "label": "Item Level",
            "type": "Number",
            "value": 3
        },
        "maxHp": {
            "value": 0
        },
        "negateBulk": {
            "value": "0"
        },
        "preciousMaterial": {
            "value": ""
        },
        "preciousMaterialGrade": {
            "value": ""
        },
        "price": {
            "label": "Price",
            "type": "String",
            "value": "12 gp"
        },
        "quantity": {
            "label": "Quantity",
            "type": "Number",
            "value": 1
        },
        "range": {
            "long": null,
            "units": "",
            "value": null
        },
        "rarity": {
            "value": "common"
        },
        "rules": [],
        "source": {
            "label": "Source",
            "type": "String",
            "value": ""
        },
        "stackGroup": {
            "value": ""
        },
        "target": {
            "type": "",
            "units": "",
            "value": null
        },
        "traits": {
            "custom": "",
            "rarity": {
                "value": "common"
            },
            "usage": {
                "value": "held-in-one-hand"
            },
            "value": [
                "alchemical",
                "consumable",
                "elixir",
                "mutagen",
                "polymorph"
            ]
        },
        "usage": {
            "value": "held-in-one-hand"
        },
        "uses": {
            "autoDestroy": true,
            "autoUse": true,
            "max": 0,
            "per": null,
            "value": 0
        },
        "weight": {
            "label": "Bulk",
            "type": "Number",
            "value": "L"
        }
    },
    "flags": {},
    "img": "systems/pf2e/icons/equipment/alchemical-items/alchemical-elixirs/drakeheart-mutagen.jpg",
    "name": "Drakeheart Mutagen (Moderate)",
    "permission": {
        "default": 0
    },
    "type": "consumable"
}
