{
    "_id": "RH1fNsslZ1wdeqy2",
    "data": {
        "activation": {
            "condition": "",
            "cost": 0,
            "type": ""
        },
        "autoDestroy": {
            "_deprecated": true,
            "value": true
        },
        "autoUse": {
            "_deprecated": true,
            "value": true
        },
        "brokenThreshold": {
            "value": 0
        },
        "bulkCapacity": {
            "value": ""
        },
        "charges": {
            "_deprecated": true,
            "max": "1",
            "value": "1"
        },
        "collapsed": {
            "value": false
        },
        "consumableType": {
            "value": "poison"
        },
        "consume": {
            "_deprecated": true,
            "value": null
        },
        "containerId": {
            "value": ""
        },
        "description": {
            "chat": "",
            "unidentified": "",
            "value": "<p><strong>Activate</strong> <span style=\"font-family: 'Pathfinder2eActions'; font-size: 1.8em; display: inline;\">1</span> Interact;</p>\n<p>Cultivated by mashing and fermenting toxic weeds found in lonely graveyards, fearweed is a greenish paste magically infused with psychic horror. The @Compendium[pf2e.conditionitems.Frightened]{Frightened} condition from fearweed can't be removed while the poison lasts.</p>\n<hr />\n<p><strong>Saving Throw</strong>DC 30 Fortitude;</p>\n<p><strong>Onset</strong>1 minute;</p>\n<p><strong>Maximum Duration</strong>6 minutes;</p>\n<p><strong>Stage 1</strong>[[/r 7d6 #poison]] poison damage and frightened 1 (1 minute);</p>\n<p><strong>Stage 2</strong>[[/r 8d6 #poison]] poison damage and frightened 2 (1 minute);</p>\n<p><strong>Stage 3</strong> [[/r 9d6 #poison]] poison damage and frightened 3 (1 minute)</p>\n<hr />\n<p><strong>Craft Requirements</strong>Supply one casting of 4th-level @Compendium[pf2e.spells-srd.Fear]{Fear}.</p>"
        },
        "duration": {
            "units": "",
            "value": null
        },
        "equipped": {
            "value": false
        },
        "equippedBulk": {
            "value": ""
        },
        "hardness": {
            "value": 0
        },
        "hp": {
            "value": 0
        },
        "identified": {
            "value": true
        },
        "invested": {
            "value": false
        },
        "level": {
            "value": "10"
        },
        "maxHp": {
            "value": 0
        },
        "negateBulk": {
            "value": "0"
        },
        "preciousMaterial": {
            "value": ""
        },
        "preciousMaterialGrade": {
            "value": ""
        },
        "price": {
            "value": "160 gp"
        },
        "quantity": {
            "value": "1"
        },
        "range": {
            "long": null,
            "units": "",
            "value": null
        },
        "rarity": {
            "value": "common"
        },
        "rules": [],
        "source": {
            "value": ""
        },
        "stackGroup": {
            "value": ""
        },
        "target": {
            "type": "",
            "units": "",
            "value": null
        },
        "traits": {
            "custom": "",
            "rarity": {
                "value": "uncommon"
            },
            "usage": {
                "value": "held-in-one-hand"
            },
            "value": [
                "consumable",
                "contact",
                "divine",
                "poison"
            ]
        },
        "usage": {
            "value": "held-in-one-hand"
        },
        "uses": {
            "autoDestroy": true,
            "autoUse": true,
            "max": 0,
            "per": null,
            "value": 0
        },
        "weight": {
            "value": "L"
        }
    },
    "effects": [],
    "flags": {},
    "img": "systems/pf2e/icons/equipment/alchemical-items/alchemical-poisons/fearweed.jpg",
    "name": "Fearweed",
    "permission": {
        "default": 0
    },
    "type": "consumable"
}
