{
    "_id": "IxuDS3POB6EH8TVN",
    "data": {
        "armor": {
            "label": "AC Bonus",
            "type": "Number",
            "value": 1
        },
        "armorType": {
            "label": "Armor Category",
            "type": "String",
            "value": "shield"
        },
        "brokenThreshold": {
            "value": 3
        },
        "bulkCapacity": {
            "value": ""
        },
        "check": {
            "label": "Check Penalty",
            "type": "String",
            "value": ""
        },
        "collapsed": {
            "value": false
        },
        "containerId": {
            "value": ""
        },
        "description": {
            "chat": "",
            "label": "Description",
            "type": "String",
            "unidentified": "",
            "value": "<p>A glamorous buckler (Hardness 3, HP 6, BT 3) is lavishly decorated with gilding and inset gemstones that glitter in the light. While you have it raised, the glamorous buckler grants you a +1 item bonus to Deception checks to Feint.</p>\n<p>@Compendium[pf2e.spell-effects.Effect: Glamorous Buckler]{Effect: Glamorous Buckler}</p>\n<hr />\n<p><strong>Activate</strong> <span style=\"font-family: 'Pathfinder2eActions'; font-size: 1.8em; display: inline;\">F</span> envision;</p>\n<p><strong>Frequency</strong> once per day;</p>\n<p><strong>Trigger</strong> You Feint;</p>\n<p><strong>Requirements</strong> You have the glamorous buckler raised;</p>\n<p><strong>Effect</strong> As you Feint, the glamorous buckler sparkles mightily. On a successful Feint, the target is dazzled for 1 round.</p>\n<hr />\n<table style=\"height: 32px;\" border=\"1\">\n<tbody>\n<tr style=\"height: 15px;\">\n<td style=\"height: 15px; width: 115px;\">Hardness</td>\n<td style=\"height: 15px; width: 115px;\">HP</td>\n<td style=\"height: 15px; width: 116px;\">BT</td>\n</tr>\n<tr style=\"height: 17px;\">\n<td style=\"height: 17px; width: 115px;\">3</td>\n<td style=\"height: 17px; width: 115px;\">6</td>\n<td style=\"height: 17px; width: 116px;\">3</td>\n</tr>\n</tbody>\n</table>"
        },
        "dex": {
            "label": "Dex Modifier Cap",
            "type": "String",
            "value": ""
        },
        "equipped": {
            "label": "Equipped",
            "type": "Boolean",
            "value": true
        },
        "equippedBulk": {
            "value": ""
        },
        "group": {
            "label": "Group",
            "type": "String",
            "value": ""
        },
        "hardness": {
            "value": 3
        },
        "hp": {
            "value": 6
        },
        "identified": {
            "value": true
        },
        "invested": {
            "value": false
        },
        "level": {
            "label": "Item Level",
            "type": "Number",
            "value": 2
        },
        "maxHp": {
            "value": 6
        },
        "negateBulk": {
            "value": "0"
        },
        "potency": {
            "label": "Armor Potency",
            "type": "String"
        },
        "potencyRune": {
            "value": ""
        },
        "preciousMaterial": {
            "value": ""
        },
        "preciousMaterialGrade": {
            "value": ""
        },
        "price": {
            "label": "Price",
            "type": "String",
            "value": "35 gp"
        },
        "propertyRune1": {
            "value": ""
        },
        "propertyRune2": {
            "value": ""
        },
        "propertyRune3": {
            "value": ""
        },
        "propertyRune4": {
            "value": ""
        },
        "quantity": {
            "label": "Quantity",
            "type": "Number",
            "value": 1
        },
        "rarity": {
            "value": "common"
        },
        "resiliencyRune": {
            "value": ""
        },
        "resilient": {
            "label": "Resilient",
            "type": "String"
        },
        "rules": [],
        "source": {
            "label": "Source",
            "type": "String",
            "value": ""
        },
        "speed": {
            "label": "Speed Penalty",
            "type": "String",
            "value": ""
        },
        "stackGroup": {
            "value": ""
        },
        "strength": {
            "label": "Required Strength",
            "type": "String",
            "value": ""
        },
        "traits": {
            "custom": "",
            "label": "Traits",
            "rarity": {
                "value": "common"
            },
            "type": "String",
            "value": [
                "illusion",
                "magical"
            ]
        },
        "usage": {
            "value": "held-in-one-hand"
        },
        "weight": {
            "label": "Bulk",
            "type": "Number",
            "value": "L"
        }
    },
    "effects": [],
    "flags": {},
    "img": "systems/pf2e/icons/equipment/shields/specific-shields/glamorous-buckler.jpg",
    "name": "Glamorous Buckler",
    "permission": {
        "default": 0
    },
    "type": "armor"
}
