{
    "_id": "ftSaD4c5io4pP4OB",
    "data": {
        "brokenThreshold": {
            "value": 0
        },
        "bulkCapacity": {
            "value": ""
        },
        "collapsed": {
            "value": false
        },
        "containerId": {
            "value": ""
        },
        "description": {
            "chat": "",
            "unidentified": "",
            "value": "<p>These gloves appear and function as @Compendium[pf2e.equipment-srd.Gloves of Storing]{Gloves of Storing} but repel any item not stored in the gloves. When wearing them, whenever you Interact to draw or pick up an item, roll a DC 11 flat check. On a success, you do so as normal. On a failure, you instead fling the item 15 feet in a random direction. You can use a reaction to attempt a DC 23 Reflex save, causing the item to land at your feet instead if you succeed. Removing the stored item from the gloves does not trigger the item's curse. The first time the curse activates, the gloves fuse to you.</p>"
        },
        "equipped": {
            "value": false
        },
        "equippedBulk": {
            "value": ""
        },
        "hardness": {
            "value": 0
        },
        "hp": {
            "value": 0
        },
        "identified": {
            "value": true
        },
        "invested": {
            "value": false
        },
        "level": {
            "value": "7"
        },
        "maxHp": {
            "value": 0
        },
        "negateBulk": {
            "value": ""
        },
        "originalName": "",
        "preciousMaterial": {
            "value": ""
        },
        "preciousMaterialGrade": {
            "value": ""
        },
        "price": {
            "value": null
        },
        "quantity": {
            "value": "1"
        },
        "rarity": {
            "value": "common"
        },
        "rules": [],
        "source": {
            "value": ""
        },
        "stackGroup": {
            "value": ""
        },
        "traits": {
            "custom": "",
            "rarity": {
                "value": "rare"
            },
            "usage": {
                "value": "worngloves"
            },
            "value": [
                "abjuration",
                "cursed",
                "extradimensional",
                "invested",
                "magical"
            ]
        },
        "usage": {
            "value": "held-in-one-hand"
        },
        "weight": {
            "value": "L"
        }
    },
    "effects": [],
    "flags": {},
    "img": "systems/pf2e/icons/equipment/cursed-items/gloves-of-carelessness.jpg",
    "name": "Gloves of Carelessness",
    "permission": {
        "default": 0
    },
    "type": "equipment"
}
