{
    "_id": "CDuN9kzyxBZ4cShq",
    "data": {
        "brokenThreshold": {
            "value": 0
        },
        "bulkCapacity": {
            "value": ""
        },
        "collapsed": {
            "value": false
        },
        "containerId": {
            "value": ""
        },
        "description": {
            "chat": "",
            "unidentified": "",
            "value": "<p>These gleaming golden epaulets are issued to Eagle Knight officers and worn as part of the uniform. While they can be enchanted to provide a variety of effects, the Golden Legion epaulet remains the most common.</p>\n<hr />\n<p><strong>Activate</strong> <span style=\"font-family: 'Pathfinder2eActions'; font-size: 1.8em; display: inline;\">A</span> (Command)</p>\n<p><strong>Frequency</strong> once per day</p>\n<p><strong>Effect</strong> Issue an order as part of the command. You and each ally within 60 feet who follows that order gain a +1 status bonus to attack rolls, damage rolls, and saving throws against fear until the beginning of your next turn.</p>\n<p>@Compendium[pf2e.spell-effects.Effect: Golden Legion Epaulet]{Effect: Golden Legion Epaulet}</p>"
        },
        "equipped": {
            "value": false
        },
        "equippedBulk": {
            "value": ""
        },
        "hardness": {
            "value": 0
        },
        "hp": {
            "value": 0
        },
        "identified": {
            "value": true
        },
        "invested": {
            "value": false
        },
        "level": {
            "value": "3"
        },
        "maxHp": {
            "value": 0
        },
        "negateBulk": {
            "value": ""
        },
        "preciousMaterial": {
            "value": ""
        },
        "preciousMaterialGrade": {
            "value": ""
        },
        "price": {
            "value": "55 gp"
        },
        "quantity": {
            "value": "1"
        },
        "rarity": {
            "value": "common"
        },
        "rules": [],
        "source": {
            "value": ""
        },
        "stackGroup": {
            "value": ""
        },
        "traits": {
            "custom": "",
            "rarity": {
                "value": "uncommon"
            },
            "usage": {
                "value": "wornepaulet"
            },
            "value": [
                "enchantment",
                "invested",
                "magical"
            ]
        },
        "usage": {
            "value": "held-in-one-hand"
        },
        "weight": {
            "value": "L"
        }
    },
    "effects": [],
    "flags": {},
    "img": "systems/pf2e/icons/equipment/worn-items/other-worn-items/golden-legion-epaulet.jpg",
    "name": "Golden Legion Epaulet",
    "permission": {
        "default": 0
    },
    "type": "equipment"
}
