{
    "_id": "pRoikbRo5HFW6YUB",
    "data": {
        "armor": {
            "label": "AC Bonus",
            "type": "Number",
            "value": 5
        },
        "armorType": {
            "label": "Armor Category",
            "type": "String",
            "value": "heavy"
        },
        "brokenThreshold": {
            "value": null
        },
        "bulkCapacity": {
            "value": ""
        },
        "check": {
            "label": "Check Penalty",
            "type": "String",
            "value": "-3"
        },
        "collapsed": {
            "value": false
        },
        "containerId": {
            "value": ""
        },
        "description": {
            "chat": "",
            "label": "Description",
            "type": "String",
            "unidentified": "",
            "value": "<p>Half plate consists of most of the upper body plates used in full plate, with lighter or sparser steel plate protection for the arms and legs. This provides some of the protection of full plate with greater flexibility and speed. A suit of this armor comes with an undercoat of padded armor (see below) and a pair of gauntlets (page 285).</p>"
        },
        "dex": {
            "label": "Dex Modifier Cap",
            "type": "String",
            "value": "1"
        },
        "equipped": {
            "label": "Equipped",
            "type": "Boolean",
            "value": false
        },
        "equippedBulk": {
            "value": "3"
        },
        "group": {
            "label": "Group",
            "type": "String",
            "value": "plate"
        },
        "hardness": {
            "value": null
        },
        "hp": {
            "value": null
        },
        "identified": {
            "value": true
        },
        "invested": {
            "value": false
        },
        "level": {
            "label": "Item Level",
            "type": "Number",
            "value": 1
        },
        "maxHp": {
            "value": null
        },
        "negateBulk": {
            "value": "0"
        },
        "potency": {
            "label": "Armor Potency",
            "type": "String"
        },
        "potencyRune": {
            "value": ""
        },
        "preciousMaterial": {
            "value": ""
        },
        "preciousMaterialGrade": {
            "value": ""
        },
        "price": {
            "label": "Price",
            "type": "String",
            "value": "18 gp"
        },
        "propertyRune1": {
            "value": ""
        },
        "propertyRune2": {
            "value": ""
        },
        "propertyRune3": {
            "value": ""
        },
        "propertyRune4": {
            "value": ""
        },
        "quantity": {
            "label": "Quantity",
            "type": "Number",
            "value": 1
        },
        "rarity": {
            "value": "common"
        },
        "resiliencyRune": {
            "value": ""
        },
        "resilient": {
            "label": "Resilient",
            "type": "String"
        },
        "rules": [],
        "source": {
            "label": "Source",
            "type": "String",
            "value": ""
        },
        "speed": {
            "label": "Speed Penalty",
            "type": "String",
            "value": "-10 ft"
        },
        "stackGroup": {
            "value": ""
        },
        "strength": {
            "label": "Required Strength",
            "type": "String",
            "value": "16"
        },
        "traits": {
            "label": "Traits",
            "rarity": {
                "value": "common"
            },
            "type": "String",
            "value": ""
        },
        "usage": {
            "value": "wornarmor"
        },
        "weight": {
            "label": "Bulk",
            "type": "Number",
            "value": "4"
        }
    },
    "effects": [],
    "flags": {},
    "img": "systems/pf2e/icons/equipment/armor/halfplate.jpg",
    "name": "Half Plate",
    "permission": {
        "default": 0
    },
    "type": "armor"
}
