{
    "_id": "0GOHTXBxs6H6ARBz",
    "data": {
        "brokenThreshold": {
            "value": 0
        },
        "bulkCapacity": {
            "value": ""
        },
        "collapsed": {
            "value": false
        },
        "containerId": {
            "value": ""
        },
        "description": {
            "chat": "",
            "unidentified": "",
            "value": "<p>These clean, white gloves never show signs of blood, even when used to stitch up wounds or treat other ailments. They give you a +2 item bonus to Medicine checks.</p>\n<p><strong>Activate</strong> <span style=\"font-family: 'Pathfinder2eActions'; font-size: 1.8em; display: inline;\">A</span> Interact</p>\n<p><strong>Frequency</strong> once per day</p>\n<p><strong>Effect</strong> You can soothe the wounds of a willing, living, adjacent creature, restoring [[/r 4d6+15]] Hit Points to that creature. This is a positive healing effect. You can't harm undead with this healing.</p>\n<hr />\n<p>Automatically applied effects:</p>\n<ul>\n<li>+2 item bonus to Medicine checks</li>\n</ul>"
        },
        "equipped": {
            "value": false
        },
        "equippedBulk": {
            "value": ""
        },
        "hardness": {
            "value": 0
        },
        "hp": {
            "value": 0
        },
        "identified": {
            "value": true
        },
        "invested": {
            "value": false
        },
        "level": {
            "value": "9"
        },
        "maxHp": {
            "value": 0
        },
        "negateBulk": {
            "value": "0"
        },
        "preciousMaterial": {
            "value": ""
        },
        "preciousMaterialGrade": {
            "value": ""
        },
        "price": {
            "value": "700 gp"
        },
        "quantity": {
            "value": "1"
        },
        "rarity": {
            "value": "common"
        },
        "rules": [
            {
                "key": "PF2E.RuleElement.FlatModifier",
                "selector": "medicine",
                "type": "item",
                "value": 2
            }
        ],
        "source": {
            "value": ""
        },
        "stackGroup": {
            "value": ""
        },
        "traits": {
            "custom": "",
            "rarity": {
                "value": "common"
            },
            "usage": {
                "value": "worngloves"
            },
            "value": [
                "invested",
                "magical",
                "necromancy"
            ]
        },
        "usage": {
            "value": "held-in-one-hand"
        },
        "weight": {
            "value": "L"
        }
    },
    "effects": [],
    "flags": {},
    "img": "systems/pf2e/icons/equipment/worn-items/other-worn-items/healers-gloves.jpg",
    "name": "Healer's Gloves (Greater)",
    "permission": {
        "default": 0
    },
    "type": "equipment"
}
