{
    "_id": "KrtZmC3qfZIGXu76",
    "data": {
        "activation": {
            "condition": "",
            "cost": 0,
            "type": ""
        },
        "autoDestroy": {
            "_deprecated": true,
            "label": "Destroy on Empty",
            "type": "Boolean",
            "value": true
        },
        "autoUse": {
            "_deprecated": true,
            "label": "Consume on Use",
            "type": "Boolean",
            "value": true
        },
        "brokenThreshold": {
            "value": 0
        },
        "bulkCapacity": {
            "value": ""
        },
        "charges": {
            "_deprecated": true,
            "label": "Charges",
            "max": 1,
            "type": "Number",
            "value": 1
        },
        "collapsed": {
            "value": false
        },
        "consumableType": {
            "label": "Consumable Type",
            "type": "String",
            "value": "talasman"
        },
        "consume": {
            "_deprecated": true,
            "label": "Roll on Consume",
            "type": "String",
            "value": ""
        },
        "containerId": {
            "value": ""
        },
        "description": {
            "chat": "",
            "label": "Description",
            "type": "String",
            "unidentified": "",
            "value": "<p><strong>Activate</strong> <span style=\"font-family: 'Pathfinder2eActions'; font-size: 1.8em; display: inline;\">A</span> @Compendium[pf2e.feats-srd.Certain Strike]{Certain Strike}</p>\n<p><strong>Requirements</strong> You are a master with the affixed weapon</p>\n<p>This small iron band has a shifting weight that helps equalize the affixed weapon's balance. When you activate it, you use Certain Strike, as the fighter feat. You must meet the normal requirements, including those of the press trait.</p>\n<p>If you have the Certain Strike feat, the failure effect increases to deal the weapon's normal damage.</p>\n<p></p>"
        },
        "duration": {
            "units": "",
            "value": null
        },
        "equipped": {
            "value": false
        },
        "equippedBulk": {
            "value": ""
        },
        "hardness": {
            "value": 0
        },
        "hp": {
            "value": 0
        },
        "identified": {
            "value": true
        },
        "invested": {
            "value": false
        },
        "level": {
            "label": "Item Level",
            "type": "Number",
            "value": 12
        },
        "maxHp": {
            "value": 0
        },
        "negateBulk": {
            "value": "0"
        },
        "preciousMaterial": {
            "value": ""
        },
        "preciousMaterialGrade": {
            "value": ""
        },
        "price": {
            "label": "Price",
            "type": "String",
            "value": "400 gp"
        },
        "quantity": {
            "label": "Quantity",
            "type": "Number",
            "value": 1
        },
        "range": {
            "long": null,
            "units": "",
            "value": null
        },
        "rarity": {
            "value": "common"
        },
        "rules": [],
        "source": {
            "label": "Source",
            "type": "String",
            "value": ""
        },
        "stackGroup": {
            "value": ""
        },
        "target": {
            "type": "",
            "units": "",
            "value": null
        },
        "traits": {
            "custom": "",
            "rarity": {
                "value": "common"
            },
            "usage": {
                "value": "affixed-to-weapon"
            },
            "value": [
                "consumable",
                "evocation",
                "magical",
                "talisman"
            ]
        },
        "usage": {
            "value": "held-in-one-hand"
        },
        "uses": {
            "autoDestroy": true,
            "autoUse": true,
            "max": 0,
            "per": null,
            "value": 0
        },
        "weight": {
            "label": "Bulk",
            "type": "Number",
            "value": "-"
        }
    },
    "effects": [],
    "flags": {},
    "img": "systems/pf2e/icons/equipment/consumables/talismans/iron-equalizer.jpg",
    "name": "Iron Equalizer",
    "permission": {
        "default": 0
    },
    "type": "consumable"
}
