{
    "_id": "QJNyQlmPNzIrnuLf",
    "data": {
        "armor": {
            "value": "2"
        },
        "armorType": {
            "value": "shield"
        },
        "brokenThreshold": {
            "value": 24
        },
        "bulkCapacity": {
            "value": ""
        },
        "check": {
            "value": "0"
        },
        "collapsed": {
            "value": false
        },
        "containerId": {
            "value": ""
        },
        "description": {
            "chat": "",
            "unidentified": "",
            "value": "<p>This heavy bone shield is composed of a massive plate of dinosaur bone with jagged, tooth-like ridges ringing its edge. It has Hardness 12, HP 48, and BT 24. The ridges are unremovable +1 striking shield spikes that deal slashing damage instead of piercing damage.</p>\n<p>While holding the jawbreaker shield, you gain a +3 item bonus to your Reflex DC to resist Swallow Whole attacks.</p>\n<hr />\n<p><strong>Activate</strong> <span style=\"font-family: 'Pathfinder2eActions'; font-size: 1.8em; display: inline;\">R</span> Interact</p>\n<p><strong>Trigger</strong> A creature attacks you with a jaws or fangs Strike or similar Strike using its mouth</p>\n<p><strong>Effect</strong> You make a shield bash Strike as a reaction against the attacker. If the shield bash hits, the target takes damage and must attempt a DC 31 Fortitude saving throw. The effects of the saving throw are determined after the effects of the triggering Strike are resolved.</p>\n<p><strong>Success</strong> The target is unaffected.</p>\n<p><strong>Failure</strong> You wound the target's mouth. It takes 1d6 persistent bleed damage and takes a -2 status penalty to attack and damage rolls with jaws, fangs, or similar Strikes for 24 hours.</p>\n<p><strong>Critical Failure</strong> You break the target's jaw. As failure, and the creature can't make Strikes using its mouth for 1 minute. At the end of its turn, it can attempt a Fortitude save to regain the ability to make Strikes using its mouth.</p>"
        },
        "dex": {
            "value": "0"
        },
        "equipped": {
            "value": false
        },
        "equippedBulk": {
            "value": ""
        },
        "group": {
            "value": null
        },
        "hardness": {
            "value": 12
        },
        "hp": {
            "value": 48
        },
        "identified": {
            "value": true
        },
        "invested": {
            "value": false
        },
        "level": {
            "value": "12"
        },
        "maxHp": {
            "value": 48
        },
        "negateBulk": {
            "value": "0"
        },
        "potencyRune": {
            "value": ""
        },
        "preciousMaterial": {
            "value": ""
        },
        "preciousMaterialGrade": {
            "value": ""
        },
        "price": {
            "value": "1,650 gp"
        },
        "propertyRune1": {
            "value": ""
        },
        "propertyRune2": {
            "value": ""
        },
        "propertyRune3": {
            "value": ""
        },
        "propertyRune4": {
            "value": ""
        },
        "quantity": {
            "value": "1"
        },
        "rarity": {
            "value": "common"
        },
        "resiliencyRune": {
            "value": ""
        },
        "rules": [],
        "source": {
            "value": ""
        },
        "speed": {
            "value": "0"
        },
        "stackGroup": {
            "value": ""
        },
        "strength": {
            "value": "0"
        },
        "traits": {
            "custom": "",
            "rarity": {
                "value": "uncommon"
            },
            "value": [
                "abjuration",
                "magical"
            ]
        },
        "usage": {
            "value": "held-in-one-hand"
        },
        "weight": {
            "value": "1"
        }
    },
    "effects": [],
    "flags": {},
    "img": "systems/pf2e/icons/equipment/shields/specific-shields/jawbreaker-shield.jpg",
    "name": "Jawbreaker Shield",
    "permission": {
        "default": 0
    },
    "type": "armor"
}
