{
    "_id": "3MGQ8KxH7HNA8THZ",
    "data": {
        "brokenThreshold": {
            "value": 0
        },
        "bulkCapacity": {
            "value": ""
        },
        "collapsed": {
            "value": false
        },
        "containerId": {
            "value": ""
        },
        "description": {
            "chat": "",
            "unidentified": "",
            "value": "<p><span>These bioluminescent jellyfish are as bright as candles, come in a variety of colors, and can act as living lanterns. They dry up and die if removed from the water for more than 1 hour, but as long as they're allowed access to seawater, they can usually survive for up to 1 year by feeding on micronutrients. Rarely, a well-treated jellyfish lamp might live longer and potentially develop stronger light or additional abilities. </span></p>"
        },
        "equipped": {
            "value": false
        },
        "equippedBulk": {
            "value": ""
        },
        "hardness": {
            "value": 0
        },
        "hp": {
            "value": 0
        },
        "identified": {
            "value": true
        },
        "invested": {
            "value": false
        },
        "level": {
            "value": "0"
        },
        "maxHp": {
            "value": 0
        },
        "negateBulk": {
            "value": "0"
        },
        "preciousMaterial": {
            "value": ""
        },
        "preciousMaterialGrade": {
            "value": ""
        },
        "price": {
            "value": "2 gp"
        },
        "quantity": {
            "value": "1"
        },
        "rarity": {
            "value": "common"
        },
        "source": {
            "value": ""
        },
        "stackGroup": {
            "value": ""
        },
        "traits": {
            "rarity": {
                "value": "common"
            },
            "usage": {
                "value": "held-in-one-hand"
            },
            "value": []
        },
        "usage": {
            "value": "held-in-one-hand"
        },
        "weight": {
            "value": "L"
        }
    },
    "flags": {},
    "img": "systems/pf2e/icons/equipment/adventuring-gear/jellyfish-lamp.jpg",
    "name": "Jellyfish Lamp",
    "permission": {
        "default": 0
    },
    "type": "equipment"
}
