{
    "_id": "IHybXd0JGwhMrOlr",
    "data": {
        "brokenThreshold": {
            "value": 0
        },
        "bulkCapacity": {
            "value": ""
        },
        "collapsed": {
            "value": false
        },
        "containerId": {
            "value": ""
        },
        "description": {
            "chat": "",
            "unidentified": "",
            "value": "<p>Granted by Katapesh's Pactmasters to influential merchants, exceptional Zephyr Guards, and favorite retainers, these blue crystal-studded platinum rings sharpen their wearers' urban instincts.</p>\n<p>You gain a +3 item bonus to Mercantile Lore checks while wearing the ring, and you can attempt checks that require a proficiency rank of master in Society.</p>\n<p>While invested, the ring grants a +2 item bonus to saving throws while you are in an urban setting, and this increases to a +3 item bonus if you have legendary proficiency in Guild Lore, Katapesh Lore, Mercantile Lore, or Society.</p>\n<hr />\n<p>Automatically applied effects:</p>\n<ul>\n<li>+2 item bonus to saving throws while you are in an urban setting</li>\n<li>+3 item bonus to saving throws while you are in an urban setting if you have legendary proficiency in Guild Lore, Katapesh Lore, Mercantile Lore, or Society.</li>\n</ul>"
        },
        "equipped": {
            "value": false
        },
        "equippedBulk": {
            "value": ""
        },
        "hardness": {
            "value": 0
        },
        "hp": {
            "value": 0
        },
        "identified": {
            "value": true
        },
        "invested": {
            "value": false
        },
        "level": {
            "value": "14"
        },
        "maxHp": {
            "value": 0
        },
        "negateBulk": {
            "value": ""
        },
        "preciousMaterial": {
            "value": ""
        },
        "preciousMaterialGrade": {
            "value": ""
        },
        "price": {
            "value": "4,000 gp"
        },
        "quantity": {
            "value": "1"
        },
        "rarity": {
            "value": "common"
        },
        "rules": [
            {
                "key": "PF2E.RuleElement.FlatModifier",
                "label": "Pactmaster's Grace (urban environments)",
                "predicate": {
                    "all": [
                        "urban"
                    ]
                },
                "roll-options": [
                    "saving-throw"
                ],
                "selector": "saving-throw",
                "type": "item",
                "value": 2
            },
            {
                "key": "PF2E.RuleElement.FlatModifier",
                "label": "Pactmaster's Grace (urban environments with Legendary skill)",
                "predicate": {
                    "all": [
                        "urban",
                        "legendary"
                    ]
                },
                "roll-options": [
                    "saving-throw"
                ],
                "selector": "saving-throw",
                "type": "item",
                "value": 3
            },
            {
                "key": "PF2E.RuleElement.ToggleProperty",
                "label": "You are in an urban environment",
                "property": "flags.pf2e.rollOptions.saving-throw.urban"
            }
        ],
        "source": {
            "value": ""
        },
        "stackGroup": {
            "value": ""
        },
        "traits": {
            "custom": "",
            "rarity": {
                "value": "uncommon"
            },
            "usage": {
                "value": "worn"
            },
            "value": [
                "divination",
                "invested",
                "magical"
            ]
        },
        "usage": {
            "value": "held-in-one-hand"
        },
        "weight": {
            "value": "-"
        }
    },
    "effects": [],
    "flags": {},
    "img": "systems/pf2e/icons/equipment/worn-items/other-worn-items/pactmasters-grace.jpg",
    "name": "Pactmaster's Grace",
    "permission": {
        "default": 0
    },
    "type": "equipment"
}
