{
    "_id": "LzHxy9YPEaCueLB9",
    "data": {
        "brokenThreshold": {
            "value": 0
        },
        "bulkCapacity": {
            "value": ""
        },
        "collapsed": {
            "value": false
        },
        "containerId": {
            "value": ""
        },
        "denomination": {
            "value": "gp"
        },
        "description": {
            "chat": "",
            "unidentified": "",
            "value": ""
        },
        "equipped": {
            "value": false
        },
        "equippedBulk": {
            "value": ""
        },
        "hardness": {
            "value": 0
        },
        "hp": {
            "value": 0
        },
        "identified": {
            "value": true
        },
        "invested": {
            "value": false
        },
        "level": {
            "value": 0
        },
        "maxHp": {
            "value": 0
        },
        "negateBulk": {
            "value": "0"
        },
        "preciousMaterial": {
            "value": ""
        },
        "preciousMaterialGrade": {
            "value": ""
        },
        "price": {
            "value": 0
        },
        "quantity": {
            "value": 1
        },
        "rarity": {
            "value": "common"
        },
        "source": {
            "value": ""
        },
        "stackGroup": {
            "value": ""
        },
        "traits": {
            "value": []
        },
        "value": {
            "value": 1000
        },
        "weight": {
            "value": "-"
        }
    },
    "flags": {},
    "img": "systems/pf2e/icons/equipment/treasure/art-objects/major-art-object/platinum-image-of-a-fey-noble-with-a-bit%20of-orichalcum.jpg",
    "name": "Platinum image of a fey noble with a bit of orichalcum",
    "permission": {
        "default": 0
    },
    "type": "treasure"
}
