{
    "_id": "HZDkF6MlNQ6yYobD",
    "data": {
        "brokenThreshold": {
            "value": 0
        },
        "bulkCapacity": {
            "value": ""
        },
        "collapsed": {
            "value": false
        },
        "containerId": {
            "value": ""
        },
        "description": {
            "chat": "",
            "unidentified": "",
            "value": "<p>This sprig of berry-festooned holly and mistletoe doesn't wilt or rot. It can be used as a primal focus, and it also grants the creature holding it a +2 item bonus to Nature checks.</p>\n<hr />\n<p><strong>Activate</strong> <span style=\"font-family: 'Pathfinder2eActions'; font-size: 1.8em; display: inline;\">D</span> Interact</p>\n<p><strong>Frequency</strong> once per 10 minutes</p>\n<p><strong>Effect</strong> You squeeze juice from one of the berries and smear it onto a non-magical club or staff to cast @Compendium[pf2e.spells-srd.Shillelagh]{Shillelagh} upon it.</p>\n<hr />\n<p><strong>Activate</strong> <span style=\"font-family: 'Pathfinder2eActions'; font-size: 1.8em; display: inline;\">D</span> Interact</p>\n<p><strong>Frequency</strong> once per day</p>\n<p><strong>Effect</strong> You can twine the sprig around the wrist of one hand and touch a tree to cast @Compendium[pf2e.spells-srd.Tree Shape]{Tree Shape} upon yourself, except instead of a becoming a tree, you become a vine on the touched tree.</p>\n<hr />\n<p><strong>Activate</strong> <span style=\"font-family: 'Pathfinder2eActions'; font-size: 1.8em; display: inline;\">D</span> Interact</p>\n<p><strong>Frequency</strong> once per day</p>\n<p><strong>Effect</strong> You plant the <em>primeval mistletoe</em> into an area of natural earth or stone. Once planted, the plant immediately sprouts into an area of holly bushes that don't impede movement and that pulse with positive energy, replicating the effects of a @Compendium[pf2e.spells-srd.Field of Life]{Field of Life} spell. This lasts for up to 1 minute, as long as you continue to Sustain the Activation. When this magic ends, the holly bushes revert back into the original <em>primeval mistletoe</em>.</p>\n<hr />\n<p>Automatically applied effects:</p>\n<ul>\n<li>+2 item bonus to Nature checks</li>\n</ul>"
        },
        "equipped": {
            "value": false
        },
        "equippedBulk": {
            "value": ""
        },
        "hardness": {
            "value": 0
        },
        "hp": {
            "value": 0
        },
        "identified": {
            "value": true
        },
        "invested": {
            "value": false
        },
        "level": {
            "value": "14"
        },
        "maxHp": {
            "value": 0
        },
        "negateBulk": {
            "value": "0"
        },
        "preciousMaterial": {
            "value": ""
        },
        "preciousMaterialGrade": {
            "value": ""
        },
        "price": {
            "value": "3,900 gp"
        },
        "quantity": {
            "value": "1"
        },
        "rarity": {
            "value": "common"
        },
        "rules": [
            {
                "key": "PF2E.RuleElement.FlatModifier",
                "selector": "nature",
                "type": "item",
                "value": 2
            }
        ],
        "source": {
            "value": ""
        },
        "stackGroup": {
            "value": ""
        },
        "traits": {
            "custom": "",
            "rarity": {
                "value": "common"
            },
            "usage": {
                "value": "held-in-one-hand"
            },
            "value": [
                "primal",
                "transmutation"
            ]
        },
        "usage": {
            "value": "held-in-one-hand"
        },
        "weight": {
            "value": "-"
        }
    },
    "effects": [],
    "flags": {},
    "img": "systems/pf2e/icons/equipment/held-items/primeval-mistletoe.jpg",
    "name": "Primeval Mistletoe (Greater)",
    "permission": {
        "default": 0
    },
    "type": "equipment"
}
