{
    "_id": "C4XKMcHZoGzrAZBl",
    "data": {
        "armor": {
            "label": "AC Bonus",
            "type": "Number",
            "value": 3
        },
        "armorType": {
            "label": "Armor Category",
            "type": "String",
            "value": "medium"
        },
        "brokenThreshold": {
            "value": null
        },
        "bulkCapacity": {
            "value": ""
        },
        "check": {
            "label": "Check Penalty",
            "type": "String",
            "value": "-1"
        },
        "collapsed": {
            "value": false
        },
        "containerId": {
            "value": ""
        },
        "description": {
            "chat": "",
            "label": "Description",
            "type": "String",
            "unidentified": "",
            "value": "<p>This <em>+1 resilient </em>hide armor is made from rhinoceros hide. It has an armor check penalty of -1 instead of -3.</p>\n<p>When you use the Sudden Charge class feat while wearing this armor, your Strike deals an additional 1d8 damage. <br /><br /><strong>Craft Requirements</strong> The initial raw materials must include 320 gp of rhinoceros hide (a common material).</p>\n<hr />\n<p>Automaticlly applied effects:</p>\n<ul>\n<li>+1d8 damage to your Strike when using Sudden Charge</li>\n</ul>"
        },
        "dex": {
            "label": "Dex Modifier Cap",
            "type": "String",
            "value": "2"
        },
        "equipped": {
            "label": "Equipped",
            "type": "Boolean",
            "value": true
        },
        "equippedBulk": {
            "value": "2"
        },
        "group": {
            "label": "Group",
            "type": "String",
            "value": "leather"
        },
        "hardness": {
            "value": null
        },
        "hp": {
            "value": null
        },
        "identified": {
            "value": true
        },
        "invested": {
            "value": false
        },
        "level": {
            "label": "Item Level",
            "type": "Number",
            "value": 9
        },
        "maxHp": {
            "value": null
        },
        "negateBulk": {
            "value": "0"
        },
        "originalName": "",
        "potency": {
            "label": "Armor Potency",
            "type": "String"
        },
        "potencyRune": {
            "value": "1"
        },
        "preciousMaterial": {
            "value": ""
        },
        "preciousMaterialGrade": {
            "value": ""
        },
        "price": {
            "label": "Price",
            "type": "String",
            "value": "700 gp"
        },
        "propertyRune1": {
            "value": ""
        },
        "propertyRune2": {
            "value": ""
        },
        "propertyRune3": {
            "value": ""
        },
        "propertyRune4": {
            "value": ""
        },
        "quantity": {
            "label": "Quantity",
            "type": "Number",
            "value": 1
        },
        "rarity": {
            "value": "common"
        },
        "resiliencyRune": {
            "value": "resilient"
        },
        "resilient": {
            "label": "Resilient",
            "type": "String"
        },
        "rules": [
            {
                "key": "PF2E.RuleElement.ToggleProperty",
                "label": "Sudden Charge",
                "property": "flags.pf2e.rollOptions.damage-roll.action:sudden-charge"
            },
            {
                "diceNumber": 1,
                "dieSize": "d8",
                "key": "PF2E.RuleElement.DamageDice",
                "label": "Rhino Hide",
                "predicate": {
                    "all": [
                        "action:sudden-charge"
                    ]
                },
                "selector": "damage"
            }
        ],
        "source": {
            "label": "Source",
            "type": "String",
            "value": ""
        },
        "speed": {
            "label": "Speed Penalty",
            "type": "String",
            "value": ""
        },
        "stackGroup": {
            "value": ""
        },
        "strength": {
            "label": "Required Strength",
            "type": "String",
            "value": "14"
        },
        "traits": {
            "custom": "",
            "label": "Traits",
            "rarity": {
                "value": "common"
            },
            "type": "String",
            "value": [
                "invested",
                "magical",
                "transmutation"
            ]
        },
        "usage": {
            "value": "wornarmor"
        },
        "weight": {
            "label": "Bulk",
            "type": "Number",
            "value": "3"
        }
    },
    "effects": [],
    "flags": {},
    "img": "systems/pf2e/icons/equipment/armor/specific-magic-armor/rhino-hide.jpg",
    "name": "Rhino Hide",
    "permission": {
        "default": 0
    },
    "type": "armor"
}
