{
    "_id": "Wkm2VYPsfGjWBtQe",
    "data": {
        "brokenThreshold": {
            "value": 0
        },
        "bulkCapacity": {
            "value": ""
        },
        "collapsed": {
            "value": false
        },
        "containerId": {
            "value": ""
        },
        "description": {
            "chat": "",
            "unidentified": "",
            "value": "<p>This ring seems like simple tarnished brass, but it enhances your curiosity about traps and devices of all kinds.</p>\n<p>You can use an Interact action to pull a set of thieves' tools from the ring. These tools appear in your hand and fold back into the ring if they would leave your possession.</p>\n<p>They grant you a +3 item bonus to Thievery checks to Disable a Device and to Pick a Lock, and the ring's insights grant you the same bonus to Crafting checks to Craft and Repair snares and traps.</p>\n<hr />\n<p><strong>Activate</strong> 10 minutes (Interact)</p>\n<p><strong>Frequency</strong> once per day</p>\n<p><strong>Effect</strong> You create a 8th-level @Compendium[pf2e.spells-srd.Glyph of Warding]{Glyph of Warding} containing your choice of either @Compendium[pf2e.spells-srd.Prismatic Spray]{Prismatic Spray} or 7th-level @Compendium[pf2e.spells-srd.Fireball]{Fireball}.</p>\n<p>You can have only one <em>glyph of warding</em> from a <em>ring of maniacal devices</em> active at a time, even if you have multiple rings, and the spell ends if you lose your investiture in the ring.</p>\n<hr />\n<p>Automatically applied effects:</p>\n<ul>\n<li>+3 item bonus to Thievery checks to Disable a Device and to Pick a Lock</li>\n<li>+3 item bonus to Crafting checks to Craft and Repair snares and traps.</li>\n</ul>"
        },
        "equipped": {
            "value": false
        },
        "equippedBulk": {
            "value": ""
        },
        "hardness": {
            "value": 0
        },
        "hp": {
            "value": 0
        },
        "identified": {
            "value": true
        },
        "invested": {
            "value": false
        },
        "level": {
            "value": "18"
        },
        "maxHp": {
            "value": 0
        },
        "negateBulk": {
            "value": "0"
        },
        "originalName": "",
        "preciousMaterial": {
            "value": ""
        },
        "preciousMaterialGrade": {
            "value": ""
        },
        "price": {
            "value": "4,250 gp"
        },
        "quantity": {
            "value": "1"
        },
        "rarity": {
            "value": "common"
        },
        "rules": [
            {
                "key": "PF2E.RuleElement.FlatModifier",
                "label": "Ring of Maniacal Devices (Disable Devices and Pick a Lock)",
                "predicate": {
                    "any": [
                        "action:disable-devices",
                        "action:pick-a-lock"
                    ]
                },
                "selector": "thievery",
                "type": "item",
                "value": 3
            },
            {
                "key": "PF2E.RuleElement.FlatModifier",
                "label": "Ring of Maniacal Devices (Craft snares and traps)",
                "predicate": {
                    "all": [
                        "action:craft"
                    ],
                    "any": [
                        "snare",
                        "trap"
                    ]
                },
                "selector": "crafting",
                "type": "item",
                "value": 3
            },
            {
                "key": "PF2E.RuleElement.FlatModifier",
                "label": "Ring of Maniacal Devices (Repair snares and traps)",
                "predicate": {
                    "all": [
                        "action:repair"
                    ],
                    "any": [
                        "snare",
                        "trap"
                    ]
                },
                "selector": "crafting",
                "type": "item",
                "value": 3
            }
        ],
        "source": {
            "value": ""
        },
        "stackGroup": {
            "value": ""
        },
        "traits": {
            "custom": "",
            "rarity": {
                "value": "common"
            },
            "usage": {
                "value": "worn"
            },
            "value": [
                "divination",
                "invested",
                "magical"
            ]
        },
        "usage": {
            "value": "held-in-one-hand"
        },
        "weight": {
            "value": "-"
        }
    },
    "effects": [],
    "flags": {},
    "img": "systems/pf2e/icons/equipment/worn-items/other-worn-items/ring-of-maniacal-devices.jpg",
    "name": "Ring of Manical Devices (Greater)",
    "permission": {
        "default": 0
    },
    "type": "equipment"
}
