{
    "_id": "wkzxLpSe7LN6c5Ld",
    "data": {
        "MAP": {
            "value": ""
        },
        "ability": {
            "label": "Offensive Ability",
            "type": "String",
            "value": "str"
        },
        "bonus": {
            "label": "Item Bonus",
            "type": "String",
            "value": 0
        },
        "bonusDamage": {
            "value": 0
        },
        "brokenThreshold": {
            "value": 0
        },
        "bulkCapacity": {
            "value": ""
        },
        "collapsed": {
            "value": false
        },
        "containerId": {
            "value": ""
        },
        "damage": {
            "damageType": "slashing",
            "dice": 1,
            "die": "d6",
            "label": "damage",
            "type": "String",
            "value": ""
        },
        "description": {
            "chat": "",
            "label": "Description",
            "type": "String",
            "unidentified": "",
            "value": "<p>The signature weapon of the Red Mantis assassins, this curved blade is serrated like a saw, hence the name.</p>"
        },
        "equipped": {
            "value": false
        },
        "equippedBulk": {
            "value": ""
        },
        "group": {
            "label": "Weapon Group",
            "type": "String",
            "value": "sword"
        },
        "hands": {
            "label": "Hands",
            "type": "String",
            "value": ""
        },
        "hardness": {
            "value": 0
        },
        "hp": {
            "value": 0
        },
        "identified": {
            "value": true
        },
        "invested": {
            "value": false
        },
        "level": {
            "label": "Item Level",
            "type": "Number",
            "value": 0
        },
        "maxHp": {
            "value": 0
        },
        "negateBulk": {
            "value": "0"
        },
        "potencyRune": {
            "value": ""
        },
        "preciousMaterial": {
            "value": ""
        },
        "preciousMaterialGrade": {
            "value": ""
        },
        "price": {
            "label": "Price",
            "type": "String",
            "value": "5 gp"
        },
        "property1": {
            "critDamage": "",
            "critDamageType": "",
            "critDice": null,
            "critDie": "",
            "criticalConditionType": "",
            "criticalConditionValue": null,
            "damageType": "",
            "dice": null,
            "die": "",
            "label": "Primary Property",
            "strikeConditionType": "",
            "strikeConditionValue": null,
            "type": "String",
            "value": ""
        },
        "propertyRune1": {
            "value": ""
        },
        "propertyRune2": {
            "value": ""
        },
        "propertyRune3": {
            "value": ""
        },
        "propertyRune4": {
            "value": ""
        },
        "quantity": {
            "label": "Quantity",
            "type": "Number",
            "value": 1
        },
        "range": {
            "label": "Weapon Range",
            "type": "String",
            "value": "melee"
        },
        "rarity": {
            "value": "common"
        },
        "reload": {
            "label": "Reload",
            "type": "String",
            "value": ""
        },
        "rules": [],
        "source": {
            "label": "Source",
            "type": "String",
            "value": ""
        },
        "splashDamage": {
            "value": null
        },
        "stackGroup": {
            "value": ""
        },
        "strikingRune": {
            "value": ""
        },
        "traits": {
            "custom": "",
            "label": "Weapon Traits",
            "rarity": {
                "value": "uncommon"
            },
            "type": "String",
            "value": [
                "agile",
                "finesse",
                "twin"
            ]
        },
        "usage": {
            "value": "held-in-one-hand"
        },
        "weaponType": {
            "label": "Weapon Category",
            "type": "String",
            "value": "advanced"
        },
        "weight": {
            "label": "Bulk",
            "type": "Number",
            "value": "-"
        }
    },
    "flags": {},
    "img": "systems/pf2e/icons/equipment/weapons/sawtooth-saber.png",
    "name": "Sawtooth Saber",
    "permission": {
        "default": 0
    },
    "type": "weapon"
}
