{
    "_id": "aA9clnIP3deHNNjo",
    "data": {
        "armor": {
            "value": "1"
        },
        "armorType": {
            "value": "shield"
        },
        "brokenThreshold": {
            "value": 2
        },
        "bulkCapacity": {
            "value": ""
        },
        "check": {
            "value": "0"
        },
        "collapsed": {
            "value": false
        },
        "containerId": {
            "value": ""
        },
        "description": {
            "chat": "",
            "unidentified": "",
            "value": "<p>Silver shields don't typically have an additional effect, though when used for a shield bash, they are silver weapons.</p>\n<hr />\n<p>The shield has Hardness 1, HP 4, and BT 2.</p>\n<p><strong>Craft Requirements</strong> silver worth at least 15 sp</p>"
        },
        "dex": {
            "value": "0"
        },
        "equipped": {
            "value": false
        },
        "equippedBulk": {
            "value": ""
        },
        "group": {
            "value": ""
        },
        "hardness": {
            "value": 1
        },
        "hp": {
            "value": 4
        },
        "identified": {
            "value": true
        },
        "invested": {
            "value": false
        },
        "level": {
            "value": "2"
        },
        "maxHp": {
            "value": 4
        },
        "negateBulk": {
            "value": "0"
        },
        "potencyRune": {
            "value": ""
        },
        "preciousMaterial": {
            "value": "silver"
        },
        "preciousMaterialGrade": {
            "value": "low"
        },
        "price": {
            "value": "30 gp"
        },
        "propertyRune1": {
            "value": ""
        },
        "propertyRune2": {
            "value": ""
        },
        "propertyRune3": {
            "value": ""
        },
        "propertyRune4": {
            "value": ""
        },
        "quantity": {
            "value": "1"
        },
        "rarity": {
            "value": "common"
        },
        "resiliencyRune": {
            "value": ""
        },
        "source": {
            "value": ""
        },
        "speed": {
            "value": "0"
        },
        "stackGroup": {
            "value": ""
        },
        "strength": {
            "value": "0"
        },
        "traits": {
            "rarity": {
                "value": "common"
            },
            "value": []
        },
        "usage": {
            "value": "held-in-one-hand"
        },
        "weight": {
            "value": "L"
        }
    },
    "flags": {},
    "img": "systems/pf2e/icons/equipment/shields/precious-material-shields/silver-buckler.jpg",
    "name": "Silver Buckler (Low-Grade)",
    "permission": {
        "default": 0
    },
    "type": "armor"
}
