{
    "_id": "ZPnQMNOyHjTkkGx4",
    "data": {
        "MAP": {
            "value": ""
        },
        "ability": {
            "label": "Offensive Ability",
            "type": "String",
            "value": "str"
        },
        "bonus": {
            "label": "Item Bonus",
            "type": "String",
            "value": 0
        },
        "bonusDamage": {
            "value": 0
        },
        "brokenThreshold": {
            "value": 0
        },
        "bulkCapacity": {
            "value": ""
        },
        "collapsed": {
            "value": false
        },
        "containerId": {
            "value": ""
        },
        "damage": {
            "damageType": "bludgeoning",
            "dice": 1,
            "die": "d4",
            "label": "damage",
            "type": "String",
            "value": ""
        },
        "description": {
            "chat": "",
            "label": "Description",
            "type": "String",
            "unidentified": "",
            "value": "<p>A large, stylized symbol of an eye adorns the top of this wooden staff, representing the watchful eye of the divine powers. The bearer of the staff can guide and protect, seeing bounties and tragedies that could befall them in the future. When wielding this staff, you gain a +1 item bonus on <em>Survival </em>checks to <em>Sense Direction</em> or <em>Subsist</em>, and to <em>Religion </em>checks to <em>Recall Knowledge</em>.</p>\n<p><strong>Activate</strong> Cast a Spell;</p>\n<p><strong>Effect</strong> You expend a number of charges from the staff to cast a spell from its list.</p>\n<p><strong>Craft Requirements</strong> Supply one casting of all listed levels of all listed spells.</p>\n<ul>\n<li><strong>Cantrip</strong> @Compendium[pf2e.spells-srd.Guidance]{Guidance}, @Compendium[pf2e.spells-srd.Light]{Light}</li>\n<li><strong>1st</strong> @@Compendium[pf2e.spells-srd.Bless]{Bless}, @Compendium[pf2e.spells-srd.Create Water]{Create Water}</li>\n<li><strong>2nd</strong> @Compendium[pf2e.spells-srd.Augury]{Augury}, @Compendium[pf2e.spells-srd.Create Food]{Create Food}, @Compendium[pf2e.spells-srd.See Invisibility]{See Invisibility}, @Compendium[pf2e.spells-srd.Status]{Status}</li>\n<li><strong>3rd</strong> @Compendium[pf2e.spells-srd.Safe Passage]{Safe Passage}, @Compendium[pf2e.spells-srd.Wanderer's Guide]{Wanderer's Guide}</li>\n<li><strong>4th</strong> @Compendium[pf2e.spells-srd.Remove Curse]{Remove Curse}, @Compendium[pf2e.spells-srd.Spell Immunity]{Spell Immunity}, @Compendium[pf2e.spells-srd.Status]{Status}</li>\n<li><strong>5th</strong> @Compendium[pf2e.spells-srd.Prying Eye]{Prying Eye}, @Compendium[pf2e.spells-srd.See Invisibility]{See Invisibility}, @Compendium[pf2e.spells-srd.Spell Immunity]{Spell Immunity}</li>\n<li><strong>6th</strong> @Compendium[pf2e.spells-srd.Spell Immunity]{Spell Immunity}, @Compendium[pf2e.spells-srd.Scintillating Safeguard]{Scintillating Safeguard}, @Compendium[pf2e.spells-srd.True Seeing]{True Seeing}</li>\n<li>7th @Compendium[pf2e.spells-srd.Energy Aegis]{Energy Aegis}, @Compendium[pf2e.spells-srd.Spell Immunity]{Spell Immunity}</li>\n<li>8th @Compendium[pf2e.spells-srd.Divine Inspiration]{Divine Inspiration}, @Compendium[pf2e.spells-srd.Spell Immunity]{Spell Immunity}</li>\n<li>9th @Compendium[pf2e.spells-srd.Foresight]{Foresight}, @Compendium[pf2e.spells-srd.Overwhelming Presence]{Overwhelming Presence}, @Compendium[pf2e.spells-srd.Spell Immunity]{Spell Immunity}</li>\n</ul>"
        },
        "equipped": {
            "value": false
        },
        "equippedBulk": {
            "value": ""
        },
        "group": {
            "label": "Weapon Group",
            "type": "String",
            "value": "club"
        },
        "hands": {
            "label": "Hands",
            "type": "String",
            "value": ""
        },
        "hardness": {
            "value": 0
        },
        "hp": {
            "value": 0
        },
        "identified": {
            "value": true
        },
        "invested": {
            "value": false
        },
        "level": {
            "label": "Item Level",
            "type": "Number",
            "value": 20
        },
        "maxHp": {
            "value": 0
        },
        "negateBulk": {
            "value": "0"
        },
        "potencyRune": {
            "value": ""
        },
        "preciousMaterial": {
            "value": ""
        },
        "preciousMaterialGrade": {
            "value": ""
        },
        "price": {
            "label": "Price",
            "type": "String",
            "value": "64,000 gp"
        },
        "property1": {
            "critDamage": "",
            "critDamageType": "",
            "critDice": null,
            "critDie": "",
            "criticalConditionType": "",
            "criticalConditionValue": null,
            "damageType": "",
            "dice": null,
            "die": "",
            "label": "Primary Property",
            "strikeConditionType": "",
            "strikeConditionValue": null,
            "type": "String",
            "value": ""
        },
        "propertyRune1": {
            "value": ""
        },
        "propertyRune2": {
            "value": ""
        },
        "propertyRune3": {
            "value": ""
        },
        "propertyRune4": {
            "value": ""
        },
        "quantity": {
            "label": "Quantity",
            "type": "Number",
            "value": 1
        },
        "range": {
            "label": "Weapon Range",
            "type": "String",
            "value": "melee"
        },
        "rarity": {
            "value": "common"
        },
        "reload": {
            "label": "Reload",
            "type": "String",
            "value": ""
        },
        "rules": [],
        "source": {
            "label": "Source",
            "type": "String",
            "value": ""
        },
        "splashDamage": {
            "value": 0
        },
        "stackGroup": {
            "value": ""
        },
        "strikingRune": {
            "value": ""
        },
        "traits": {
            "custom": "",
            "label": "Weapon Traits",
            "rarity": {
                "value": "common"
            },
            "type": "String",
            "value": [
                "divination",
                "magical",
                "staff",
                "two-hand-d8"
            ]
        },
        "usage": {
            "value": "held-in-one-hand"
        },
        "weaponType": {
            "label": "Weapon Category",
            "type": "String",
            "value": "simple"
        },
        "weight": {
            "label": "Bulk",
            "type": "Number",
            "value": "1"
        }
    },
    "flags": {},
    "img": "systems/pf2e/icons/equipment/staves/staff-of-providence.jpg",
    "name": "Staff of Providence (Ture)",
    "permission": {
        "default": 0
    },
    "type": "weapon"
}
