{
    "_id": "Mv2I6M70bagbaBPn",
    "data": {
        "MAP": {
            "value": ""
        },
        "ability": {
            "label": "Offensive Ability",
            "type": "String",
            "value": "str"
        },
        "bonus": {
            "label": "Item Bonus",
            "type": "String",
            "value": 0
        },
        "bonusDamage": {
            "value": 0
        },
        "brokenThreshold": {
            "value": 0
        },
        "bulkCapacity": {
            "value": ""
        },
        "collapsed": {
            "value": false
        },
        "containerId": {
            "value": ""
        },
        "damage": {
            "damageType": "piercing",
            "dice": 1,
            "die": "d4",
            "label": "damage",
            "type": "String",
            "value": ""
        },
        "description": {
            "chat": "",
            "label": "Description",
            "type": "String",
            "unidentified": "",
            "value": "<p>From a central metal ring, four tapering metal blades extend like points on a compass rose. When gripping a starknife from the center, the wielder can use it as a melee weapon. It can also be thrown short distances.</p>"
        },
        "equipped": {
            "value": false
        },
        "equippedBulk": {
            "value": ""
        },
        "group": {
            "label": "Weapon Group",
            "type": "String",
            "value": "knife"
        },
        "hands": {
            "label": "Hands",
            "type": "String",
            "value": ""
        },
        "hardness": {
            "value": 0
        },
        "hp": {
            "value": 0
        },
        "identified": {
            "value": true
        },
        "invested": {
            "value": false
        },
        "level": {
            "label": "Item Level",
            "type": "Number",
            "value": 0
        },
        "maxHp": {
            "value": 0
        },
        "negateBulk": {
            "value": "0"
        },
        "potencyRune": {
            "value": ""
        },
        "preciousMaterial": {
            "value": ""
        },
        "preciousMaterialGrade": {
            "value": ""
        },
        "price": {
            "label": "Price",
            "type": "String",
            "value": "2 gp"
        },
        "property1": {
            "critDamage": "",
            "critDamageType": "",
            "critDice": null,
            "critDie": "",
            "criticalConditionType": "",
            "criticalConditionValue": null,
            "damageType": "",
            "dice": null,
            "die": "",
            "label": "Primary Property",
            "strikeConditionType": "",
            "strikeConditionValue": null,
            "type": "String",
            "value": ""
        },
        "propertyRune1": {
            "value": ""
        },
        "propertyRune2": {
            "value": ""
        },
        "propertyRune3": {
            "value": ""
        },
        "propertyRune4": {
            "value": ""
        },
        "quantity": {
            "label": "Quantity",
            "type": "Number",
            "value": 1
        },
        "range": {
            "label": "Weapon Range",
            "type": "String",
            "value": "20"
        },
        "rarity": {
            "value": "common"
        },
        "reload": {
            "label": "Reload",
            "type": "String",
            "value": ""
        },
        "rules": [],
        "source": {
            "label": "Source",
            "type": "String",
            "value": ""
        },
        "splashDamage": {
            "value": null
        },
        "stackGroup": {
            "value": ""
        },
        "strikingRune": {
            "value": ""
        },
        "traits": {
            "custom": "",
            "label": "Weapon Traits",
            "rarity": {
                "value": "common"
            },
            "type": "String",
            "value": [
                "agile",
                "deadly-d6",
                "finesse",
                "thrown-20",
                "versatile-s"
            ]
        },
        "usage": {
            "value": "held-in-one-hand"
        },
        "weaponType": {
            "label": "Weapon Category",
            "type": "String",
            "value": "martial"
        },
        "weight": {
            "label": "Bulk",
            "type": "Number",
            "value": "L"
        }
    },
    "effects": [],
    "flags": {},
    "img": "systems/pf2e/icons/equipment/weapons/starknife.jpg",
    "name": "Starknife",
    "permission": {
        "default": 0
    },
    "type": "weapon"
}
