{
    "_id": "Hh3F4DEP6aVulwQN",
    "data": {
        "MAP": {
            "value": null
        },
        "ability": {
            "value": "str"
        },
        "bonus": {
            "value": 0
        },
        "bonusDamage": {
            "value": 0
        },
        "brokenThreshold": {
            "value": 0
        },
        "bulkCapacity": {
            "value": ""
        },
        "collapsed": {
            "value": false
        },
        "containerId": {
            "value": ""
        },
        "damage": {
            "damageType": "piercing",
            "dice": 1,
            "die": "d4",
            "value": ""
        },
        "description": {
            "chat": "",
            "unidentified": "",
            "value": "<p>This weapon is a fully functional, lavish ink pen with a clip that can be attached to a pocket or bandoleer and easily retrieved as a free action. Using an action to Interact with the pen allows its wielder to disengage a stiletto blade that slides free of the upper body or reattach the previously removed blade.</p>"
        },
        "equipped": {
            "value": false
        },
        "equippedBulk": {
            "value": ""
        },
        "group": {
            "value": "dart"
        },
        "hands": {
            "value": ""
        },
        "hardness": {
            "value": 0
        },
        "hp": {
            "value": 0
        },
        "identified": {
            "value": true
        },
        "invested": {
            "value": false
        },
        "level": {
            "value": "1"
        },
        "maxHp": {
            "value": 0
        },
        "negateBulk": {
            "value": "0"
        },
        "potencyRune": {
            "value": ""
        },
        "preciousMaterial": {
            "value": ""
        },
        "preciousMaterialGrade": {
            "value": ""
        },
        "price": {
            "value": "8 gp"
        },
        "property1": {
            "critDamage": "",
            "critDamageType": "",
            "critDice": 0,
            "critDie": "",
            "criticalConditionType": "",
            "criticalConditionValue": null,
            "damageType": "",
            "dice": 0,
            "die": "",
            "strikeConditionType": "",
            "strikeConditionValue": null,
            "value": null
        },
        "propertyRune1": {
            "value": ""
        },
        "propertyRune2": {
            "value": ""
        },
        "propertyRune3": {
            "value": ""
        },
        "propertyRune4": {
            "value": ""
        },
        "quantity": {
            "value": "1"
        },
        "range": {
            "value": null
        },
        "rarity": {
            "value": "common"
        },
        "reload": {
            "value": null
        },
        "rules": [],
        "source": {
            "value": ""
        },
        "splashDamage": {
            "value": 0
        },
        "stackGroup": {
            "value": ""
        },
        "strikingRune": {
            "value": ""
        },
        "traits": {
            "custom": "",
            "rarity": {
                "value": "uncommon"
            },
            "value": [
                "agile",
                "concealable",
                "finesse",
                "thrown-10"
            ]
        },
        "usage": {
            "value": "held-in-one-hand"
        },
        "weaponType": {
            "value": "simple"
        },
        "weight": {
            "value": "L"
        }
    },
    "effects": [],
    "flags": {},
    "img": "systems/pf2e/icons/equipment/weapons/stiletto-pen.jpg",
    "name": "Stiletto Pen",
    "permission": {
        "default": 0
    },
    "type": "weapon"
}
