{
    "_id": "X0AJV2Zfj2d6rab5",
    "data": {
        "abilities": {
            "cha": {
                "min": 3,
                "mod": -1,
                "value": 8
            },
            "con": {
                "min": 3,
                "mod": 3,
                "value": 16
            },
            "dex": {
                "min": 3,
                "mod": 3,
                "value": 16
            },
            "int": {
                "min": 3,
                "mod": 3,
                "value": 16
            },
            "str": {
                "min": 3,
                "mod": 2,
                "value": 14
            },
            "wis": {
                "min": 3,
                "mod": 0,
                "value": 10
            }
        },
        "attributes": {
            "ac": {
                "check": 0,
                "details": "",
                "dex": 0,
                "item": 0,
                "min": 0,
                "value": 17
            },
            "allSaves": {
                "value": ""
            },
            "ancestryhp": 0,
            "bonusEncumbranceBulk": 0,
            "bonusLimitBulk": 0,
            "bonusbulk": 0,
            "classDC": {
                "ability": "str",
                "breakdown": "",
                "item": 0,
                "rank": 0,
                "value": 0
            },
            "classhp": 0,
            "flatbonushp": 0,
            "flatbonussp": 0,
            "hp": {
                "details": "",
                "max": 30,
                "min": 0,
                "temp": 0,
                "tempmax": 0,
                "value": 30
            },
            "init": {
                "bonus": 0,
                "value": 0
            },
            "initiative": {
                "ability": "",
                "circumstance": 0,
                "status": 0
            },
            "levelbonushp": 0,
            "levelbonussp": 0,
            "perception": {
                "ability": "wis",
                "breakdown": "",
                "item": 0,
                "rank": 0,
                "value": 6
            },
            "resolve": {
                "value": 0
            },
            "shield": {
                "ac": 0,
                "brokenThreshold": "0",
                "hardness": 0,
                "max": "0",
                "min": 0,
                "value": 0
            },
            "sp": {
                "details": "",
                "max": 0,
                "min": 0,
                "value": 0
            },
            "speed": {
                "otherSpeeds": [],
                "special": "",
                "value": "25 feet"
            }
        },
        "currency": {
            "cp": {
                "value": 0
            },
            "gp": {
                "value": 0
            },
            "pp": {
                "value": 0
            },
            "sp": {
                "value": 0
            }
        },
        "details": {
            "alignment": {
                "value": "CE"
            },
            "ancestry": {
                "value": ""
            },
            "biography": {
                "public": "",
                "value": ""
            },
            "class": {
                "value": ""
            },
            "creatureType": "",
            "deity": {
                "image": "systems/pf2e/assets/sheet/deity.png",
                "value": ""
            },
            "flavourText": "",
            "heritage": {
                "value": ""
            },
            "keyability": {
                "value": "str"
            },
            "level": {
                "min": 1,
                "value": 2
            },
            "nethysUrl": "",
            "rarity": {
                "value": ""
            },
            "recallKnowledgeText": "",
            "sidebarText": "",
            "source": {
                "value": ""
            }
        },
        "martial": {
            "advanced": {
                "breakdown": "",
                "rank": 0,
                "value": 0
            },
            "heavy": {
                "breakdown": "",
                "rank": 0,
                "value": 0
            },
            "light": {
                "breakdown": "",
                "rank": 0,
                "value": 0
            },
            "martial": {
                "breakdown": "",
                "rank": 0,
                "value": 0
            },
            "medium": {
                "breakdown": "",
                "rank": 0,
                "value": 0
            },
            "simple": {
                "breakdown": "",
                "rank": 0,
                "value": 0
            },
            "unarmed": {
                "breakdown": "",
                "rank": 0,
                "value": 0
            },
            "unarmored": {
                "breakdown": "",
                "rank": 0,
                "value": 0
            }
        },
        "saves": {
            "fortitude": {
                "ability": "con",
                "breakdown": "",
                "item": 0,
                "rank": 0,
                "saveDetail": "",
                "value": 9
            },
            "reflex": {
                "ability": "dex",
                "breakdown": "",
                "item": 0,
                "rank": 0,
                "saveDetail": "",
                "value": 9
            },
            "will": {
                "ability": "wis",
                "breakdown": "",
                "item": 0,
                "rank": 0,
                "saveDetail": "",
                "value": 4
            }
        },
        "schema": {
            "version": {
                "value": ""
            }
        },
        "skills": {
            "acr": {
                "ability": "dex",
                "armor": 1,
                "breakdown": "",
                "item": 0,
                "mod": 0,
                "rank": 0,
                "value": 0
            },
            "arc": {
                "ability": "int",
                "breakdown": "",
                "item": 0,
                "mod": 0,
                "rank": 0,
                "value": 0
            },
            "ath": {
                "ability": "str",
                "armor": 1,
                "breakdown": "",
                "item": 0,
                "mod": 0,
                "rank": 0,
                "value": 0
            },
            "cra": {
                "ability": "int",
                "breakdown": "",
                "item": 0,
                "mod": 0,
                "rank": 0,
                "value": 0
            },
            "dec": {
                "ability": "cha",
                "breakdown": "",
                "item": 0,
                "mod": 0,
                "rank": 0,
                "value": 0
            },
            "dip": {
                "ability": "cha",
                "breakdown": "",
                "item": 0,
                "mod": 0,
                "rank": 0,
                "value": 0
            },
            "itm": {
                "ability": "cha",
                "breakdown": "",
                "item": 0,
                "mod": 0,
                "rank": 0,
                "value": 0
            },
            "med": {
                "ability": "wis",
                "breakdown": "",
                "item": 0,
                "mod": 0,
                "rank": 0,
                "value": 0
            },
            "nat": {
                "ability": "wis",
                "breakdown": "",
                "item": 0,
                "mod": 0,
                "rank": 0,
                "value": 0
            },
            "occ": {
                "ability": "int",
                "breakdown": "",
                "item": 0,
                "mod": 0,
                "rank": 0,
                "value": 0
            },
            "prf": {
                "ability": "cha",
                "breakdown": "",
                "item": 0,
                "mod": 0,
                "rank": 0,
                "value": 0
            },
            "rel": {
                "ability": "wis",
                "breakdown": "",
                "item": 0,
                "mod": 0,
                "rank": 0,
                "value": 0
            },
            "soc": {
                "ability": "int",
                "breakdown": "",
                "item": 0,
                "mod": 0,
                "rank": 0,
                "value": 0
            },
            "ste": {
                "ability": "dex",
                "armor": 1,
                "breakdown": "",
                "item": 0,
                "mod": 0,
                "rank": 0,
                "value": 0
            },
            "sur": {
                "ability": "wis",
                "breakdown": "",
                "item": 0,
                "mod": 0,
                "rank": 0,
                "value": 0
            },
            "thi": {
                "ability": "dex",
                "armor": 1,
                "breakdown": "",
                "item": 0,
                "mod": 0,
                "rank": 0,
                "value": 0
            }
        },
        "spells": {
            "spell0": {
                "max": 0
            },
            "spell1": {
                "max": 0
            },
            "spell10": {
                "max": 0
            },
            "spell11": {
                "max": 0
            },
            "spell2": {
                "max": 0
            },
            "spell3": {
                "max": 0
            },
            "spell4": {
                "max": 0
            },
            "spell5": {
                "max": 0
            },
            "spell6": {
                "max": 0
            },
            "spell7": {
                "max": 0
            },
            "spell8": {
                "max": 0
            },
            "spell9": {
                "max": 0
            }
        },
        "statusEffects": [],
        "traits": {
            "ci": [],
            "di": {
                "custom": "",
                "value": []
            },
            "dr": [],
            "dv": [],
            "languages": {
                "custom": "",
                "selected": [],
                "value": [
                    "orcish"
                ]
            },
            "rarity": {
                "value": "common"
            },
            "senses": {
                "value": "darkvision"
            },
            "size": {
                "value": "med"
            },
            "traits": {
                "custom": "",
                "value": [
                    "humanoid",
                    "orc"
                ]
            }
        }
    },
    "flags": {
        "exportSource": {
            "coreVersion": "0.5.5",
            "system": "pf2e",
            "systemVersion": "0.569.2",
            "world": "plaguestone"
        },
        "pf2e_updatednpcsheet": {
            "npcNotes": {
                "value": ""
            }
        }
    },
    "img": "icons/svg/mystery-man.svg",
    "items": [
        {
            "_id": "Ew8dACNjUULmbLp5",
            "data": {
                "description": {
                    "chat": "",
                    "unidentified": "",
                    "value": ""
                },
                "featType": "",
                "item": {
                    "value": 0
                },
                "mod": {
                    "value": 7
                },
                "proficient": {
                    "value": 0
                },
                "rarity": {
                    "value": "common"
                },
                "source": {
                    "value": ""
                },
                "traits": {
                    "value": []
                },
                "usage": {
                    "value": "held-in-one-hand"
                }
            },
            "flags": {},
            "img": "/icons/svg/d20-black.svg",
            "name": "Acrobatics",
            "sort": 100000,
            "type": "lore"
        },
        {
            "_id": "InEMSri24ldx1Vp8",
            "data": {
                "description": {
                    "chat": "",
                    "unidentified": "",
                    "value": ""
                },
                "featType": "",
                "item": {
                    "value": 0
                },
                "mod": {
                    "value": 6
                },
                "proficient": {
                    "value": 0
                },
                "rarity": {
                    "value": "common"
                },
                "source": {
                    "value": ""
                },
                "traits": {
                    "value": []
                },
                "usage": {
                    "value": "held-in-one-hand"
                }
            },
            "flags": {},
            "img": "/icons/svg/d20-black.svg",
            "name": "Athletics",
            "sort": 200000,
            "type": "lore"
        },
        {
            "_id": "mWYeSNyz9dHdEcfC",
            "data": {
                "description": {
                    "chat": "",
                    "unidentified": "",
                    "value": ""
                },
                "featType": "",
                "item": {
                    "value": 0
                },
                "mod": {
                    "value": 9
                },
                "proficient": {
                    "value": 0
                },
                "rarity": {
                    "value": "common"
                },
                "source": {
                    "value": ""
                },
                "traits": {
                    "value": []
                },
                "usage": {
                    "value": "held-in-one-hand"
                }
            },
            "flags": {},
            "img": "/icons/svg/d20-black.svg",
            "name": "Crafting",
            "sort": 300000,
            "type": "lore"
        },
        {
            "_id": "TiKdgop2TyK2CrAz",
            "data": {
                "description": {
                    "chat": "",
                    "unidentified": "",
                    "value": ""
                },
                "featType": "",
                "item": {
                    "value": 0
                },
                "mod": {
                    "value": 7
                },
                "proficient": {
                    "value": 0
                },
                "rarity": {
                    "value": "common"
                },
                "source": {
                    "value": ""
                },
                "traits": {
                    "value": []
                },
                "usage": {
                    "value": "held-in-one-hand"
                }
            },
            "flags": {},
            "img": "/icons/svg/d20-black.svg",
            "name": "Stealth",
            "sort": 400000,
            "type": "lore"
        },
        {
            "_id": "LqETm1RSl3iPTcmc",
            "data": {
                "MAP": {
                    "value": ""
                },
                "ability": {
                    "label": "Offensive Ability",
                    "type": "String",
                    "value": "str"
                },
                "bonus": {
                    "label": "Item Bonus",
                    "type": "String",
                    "value": 0
                },
                "bonusDamage": {
                    "value": 0
                },
                "brokenThreshold": {
                    "value": 0
                },
                "bulkCapacity": {
                    "value": ""
                },
                "collapsed": {
                    "value": false
                },
                "containerId": {
                    "value": ""
                },
                "damage": {
                    "damageType": "bludgeoning",
                    "dice": 1,
                    "die": "",
                    "label": "damage",
                    "type": "String",
                    "value": ""
                },
                "description": {
                    "chat": "",
                    "label": "Description",
                    "type": "String",
                    "unidentified": "",
                    "value": "<p><span id=\"ctl00_MainContent_DetailedOutput\">This flask filled with corrosive acid deals 1 acid damage, the listed persistent acid damage, and the listed acid splash damage. Many types grant an item bonus to attack rolls.</span></p>\n<p><span id=\"ctl00_MainContent_DetailedOutput\">It deals 1d6 persistent acid damage and 1 acid splash damage. </span></p>\n<p><span id=\"ctl00_MainContent_DetailedOutput\"><strong>Activate</strong> <img class=\"actiondark\" style=\"height: 15px; padding: 0px 2px 0px 2px;\" src=\"systems/pf2e/icons/actions/OneAction.png\" alt=\"Single Action\"> Strike</span></p>"
                },
                "equipped": {
                    "value": false
                },
                "equippedBulk": {
                    "value": ""
                },
                "group": {
                    "label": "Weapon Group",
                    "type": "String",
                    "value": ""
                },
                "hands": {
                    "label": "Hands",
                    "type": "String",
                    "value": ""
                },
                "hardness": {
                    "value": 0
                },
                "hp": {
                    "value": 0
                },
                "identified": {
                    "value": false
                },
                "invested": {
                    "value": false
                },
                "level": {
                    "label": "Item Level",
                    "type": "Number",
                    "value": 1
                },
                "maxHp": {
                    "value": 0
                },
                "negateBulk": {
                    "value": "0"
                },
                "potencyRune": {
                    "value": ""
                },
                "preciousMaterial": {
                    "value": ""
                },
                "preciousMaterialGrade": {
                    "value": ""
                },
                "price": {
                    "label": "Price",
                    "type": "String",
                    "value": "3 gp"
                },
                "property1": {
                    "critDamage": "",
                    "critDamageType": "",
                    "critDice": null,
                    "critDie": "",
                    "criticalConditionType": "",
                    "criticalConditionValue": null,
                    "damageType": "",
                    "dice": null,
                    "die": "",
                    "label": "Primary Property",
                    "strikeConditionType": "",
                    "strikeConditionValue": null,
                    "type": "String",
                    "value": ""
                },
                "property2": {
                    "critDamage": "",
                    "critDamageType": "",
                    "critDice": 0,
                    "critDie": "",
                    "damageType": "",
                    "dice": 0,
                    "die": "",
                    "label": "Secondary Property",
                    "type": "String",
                    "value": ""
                },
                "property3": {
                    "critDamage": "",
                    "critDamageType": "",
                    "critDice": 0,
                    "critDie": "",
                    "damageType": "",
                    "dice": 0,
                    "die": "",
                    "label": "Tertiary Property",
                    "type": "String",
                    "value": ""
                },
                "propertyRune1": {
                    "value": ""
                },
                "propertyRune2": {
                    "value": ""
                },
                "propertyRune3": {
                    "value": ""
                },
                "propertyRune4": {
                    "value": ""
                },
                "quantity": {
                    "label": "Quantity",
                    "type": "Number",
                    "value": 1
                },
                "range": {
                    "label": "Weapon Range",
                    "type": "String",
                    "value": ""
                },
                "rarity": {
                    "value": "common"
                },
                "reload": {
                    "label": "Reload",
                    "type": "String",
                    "value": ""
                },
                "source": {
                    "label": "Source",
                    "type": "String",
                    "value": ""
                },
                "splashDamage": {
                    "value": 0
                },
                "stackGroup": {
                    "value": ""
                },
                "strikingRune": {
                    "value": ""
                },
                "traits": {
                    "label": "Weapon Traits",
                    "type": "String",
                    "value": []
                },
                "usage": {
                    "value": "held-in-one-hand"
                },
                "weaponType": {
                    "label": "Weapon Category",
                    "type": "String",
                    "value": ""
                },
                "weight": {
                    "label": "Bulk",
                    "type": "Number",
                    "value": "L"
                }
            },
            "flags": {},
            "img": "systems/pf2e/icons/equipment/alchemical-items/alchemical-bombs/acid-flask.jpg",
            "name": "Acid Flask (Lesser)",
            "sort": 200001,
            "type": "weapon"
        },
        {
            "_id": "7Acqekp5YNeehH7e",
            "data": {
                "MAP": {
                    "value": ""
                },
                "ability": {
                    "label": "Offensive Ability",
                    "type": "String",
                    "value": "str"
                },
                "bonus": {
                    "label": "Item Bonus",
                    "type": "String",
                    "value": 0
                },
                "bonusDamage": {
                    "value": 0
                },
                "brokenThreshold": {
                    "value": 0
                },
                "bulkCapacity": {
                    "value": ""
                },
                "collapsed": {
                    "value": false
                },
                "containerId": {
                    "value": ""
                },
                "damage": {
                    "damageType": "bludgeoning",
                    "dice": 1,
                    "die": "",
                    "label": "damage",
                    "type": "String",
                    "value": ""
                },
                "description": {
                    "chat": "",
                    "label": "Description",
                    "type": "String",
                    "unidentified": "",
                    "value": "<p><span id=\"ctl00_MainContent_DetailedOutput\">This flask filled with corrosive acid deals 1 acid damage, the listed persistent acid damage, and the listed acid splash damage. Many types grant an item bonus to attack rolls.</span></p>\n<p><span id=\"ctl00_MainContent_DetailedOutput\">It deals 1d6 persistent acid damage and 1 acid splash damage. </span></p>\n<p><span id=\"ctl00_MainContent_DetailedOutput\"><strong>Activate</strong> <img class=\"actiondark\" style=\"height: 15px; padding: 0px 2px 0px 2px;\" src=\"systems/pf2e/icons/actions/OneAction.png\" alt=\"Single Action\"> Strike</span></p>"
                },
                "equipped": {
                    "value": false
                },
                "equippedBulk": {
                    "value": ""
                },
                "group": {
                    "label": "Weapon Group",
                    "type": "String",
                    "value": ""
                },
                "hands": {
                    "label": "Hands",
                    "type": "String",
                    "value": ""
                },
                "hardness": {
                    "value": 0
                },
                "hp": {
                    "value": 0
                },
                "identified": {
                    "value": false
                },
                "invested": {
                    "value": false
                },
                "level": {
                    "label": "Item Level",
                    "type": "Number",
                    "value": 1
                },
                "maxHp": {
                    "value": 0
                },
                "negateBulk": {
                    "value": "0"
                },
                "potencyRune": {
                    "value": ""
                },
                "preciousMaterial": {
                    "value": ""
                },
                "preciousMaterialGrade": {
                    "value": ""
                },
                "price": {
                    "label": "Price",
                    "type": "String",
                    "value": "3 gp"
                },
                "property1": {
                    "critDamage": "",
                    "critDamageType": "",
                    "critDice": null,
                    "critDie": "",
                    "criticalConditionType": "",
                    "criticalConditionValue": null,
                    "damageType": "",
                    "dice": null,
                    "die": "",
                    "label": "Primary Property",
                    "strikeConditionType": "",
                    "strikeConditionValue": null,
                    "type": "String",
                    "value": ""
                },
                "property2": {
                    "critDamage": "",
                    "critDamageType": "",
                    "critDice": 0,
                    "critDie": "",
                    "damageType": "",
                    "dice": 0,
                    "die": "",
                    "label": "Secondary Property",
                    "type": "String",
                    "value": ""
                },
                "property3": {
                    "critDamage": "",
                    "critDamageType": "",
                    "critDice": 0,
                    "critDie": "",
                    "damageType": "",
                    "dice": 0,
                    "die": "",
                    "label": "Tertiary Property",
                    "type": "String",
                    "value": ""
                },
                "propertyRune1": {
                    "value": ""
                },
                "propertyRune2": {
                    "value": ""
                },
                "propertyRune3": {
                    "value": ""
                },
                "propertyRune4": {
                    "value": ""
                },
                "quantity": {
                    "label": "Quantity",
                    "type": "Number",
                    "value": 1
                },
                "range": {
                    "label": "Weapon Range",
                    "type": "String",
                    "value": ""
                },
                "rarity": {
                    "value": "common"
                },
                "reload": {
                    "label": "Reload",
                    "type": "String",
                    "value": ""
                },
                "source": {
                    "label": "Source",
                    "type": "String",
                    "value": ""
                },
                "splashDamage": {
                    "value": 0
                },
                "stackGroup": {
                    "value": ""
                },
                "strikingRune": {
                    "value": ""
                },
                "traits": {
                    "label": "Weapon Traits",
                    "type": "String",
                    "value": []
                },
                "usage": {
                    "value": "held-in-one-hand"
                },
                "weaponType": {
                    "label": "Weapon Category",
                    "type": "String",
                    "value": ""
                },
                "weight": {
                    "label": "Bulk",
                    "type": "Number",
                    "value": "L"
                }
            },
            "flags": {},
            "img": "systems/pf2e/icons/equipment/alchemical-items/alchemical-bombs/acid-flask.jpg",
            "name": "Acid Flask (Lesser)",
            "sort": 200001,
            "type": "weapon"
        },
        {
            "_id": "kNQ1GFvfIybvGK3b",
            "data": {
                "MAP": {
                    "value": ""
                },
                "ability": {
                    "label": "Offensive Ability",
                    "type": "String",
                    "value": "str"
                },
                "bonus": {
                    "label": "Item Bonus",
                    "type": "String",
                    "value": 0
                },
                "bonusDamage": {
                    "value": 0
                },
                "brokenThreshold": {
                    "value": 0
                },
                "bulkCapacity": {
                    "value": ""
                },
                "collapsed": {
                    "value": false
                },
                "containerId": {
                    "value": ""
                },
                "damage": {
                    "damageType": "bludgeoning",
                    "dice": 1,
                    "die": "",
                    "label": "damage",
                    "type": "String",
                    "value": ""
                },
                "description": {
                    "chat": "",
                    "label": "Description",
                    "type": "String",
                    "unidentified": "",
                    "value": "<p><span id=\"ctl00_MainContent_DetailedOutput\">Alchemist's fire is a combination of volatile liquids that ignite when exposed to air. Alchemist's fire deals the listed fire damage, persistent fire damage, and splash damage. Many types grant an item bonus to attack rolls.</span></p>\n<p><span id=\"ctl00_MainContent_DetailedOutput\">The bomb deals 1d8 fire damage, 1 persistent fire damage, and 1 fire splash damage. </span></p>\n<p><span id=\"ctl00_MainContent_DetailedOutput\"><strong>Activate</strong> <img class=\"actiondark\" style=\"height: 15px; padding: 0px 2px;\" src=\"systems/pf2e/icons/actions/OneAction.png\" alt=\"Single Action\"> Strike</span></p>"
                },
                "equipped": {
                    "value": false
                },
                "equippedBulk": {
                    "value": ""
                },
                "group": {
                    "label": "Weapon Group",
                    "type": "String",
                    "value": ""
                },
                "hands": {
                    "label": "Hands",
                    "type": "String",
                    "value": ""
                },
                "hardness": {
                    "value": 0
                },
                "hp": {
                    "value": 0
                },
                "identified": {
                    "value": false
                },
                "invested": {
                    "value": false
                },
                "level": {
                    "label": "Item Level",
                    "type": "Number",
                    "value": 1
                },
                "maxHp": {
                    "value": 0
                },
                "negateBulk": {
                    "value": "0"
                },
                "potencyRune": {
                    "value": ""
                },
                "preciousMaterial": {
                    "value": ""
                },
                "preciousMaterialGrade": {
                    "value": ""
                },
                "price": {
                    "label": "Price",
                    "type": "String",
                    "value": "3 gp"
                },
                "property1": {
                    "critDamage": "",
                    "critDamageType": "",
                    "critDice": null,
                    "critDie": "",
                    "criticalConditionType": "",
                    "criticalConditionValue": null,
                    "damageType": "",
                    "dice": null,
                    "die": "",
                    "label": "Primary Property",
                    "strikeConditionType": "",
                    "strikeConditionValue": null,
                    "type": "String",
                    "value": ""
                },
                "property2": {
                    "critDamage": "",
                    "critDamageType": "",
                    "critDice": 0,
                    "critDie": "",
                    "damageType": "",
                    "dice": 0,
                    "die": "",
                    "label": "Secondary Property",
                    "type": "String",
                    "value": ""
                },
                "property3": {
                    "critDamage": "",
                    "critDamageType": "",
                    "critDice": 0,
                    "critDie": "",
                    "damageType": "",
                    "dice": 0,
                    "die": "",
                    "label": "Tertiary Property",
                    "type": "String",
                    "value": ""
                },
                "propertyRune1": {
                    "value": ""
                },
                "propertyRune2": {
                    "value": ""
                },
                "propertyRune3": {
                    "value": ""
                },
                "propertyRune4": {
                    "value": ""
                },
                "quantity": {
                    "label": "Quantity",
                    "type": "Number",
                    "value": 1
                },
                "range": {
                    "label": "Weapon Range",
                    "type": "String",
                    "value": ""
                },
                "rarity": {
                    "value": "common"
                },
                "reload": {
                    "label": "Reload",
                    "type": "String",
                    "value": ""
                },
                "source": {
                    "label": "Source",
                    "type": "String",
                    "value": ""
                },
                "splashDamage": {
                    "value": 0
                },
                "stackGroup": {
                    "value": ""
                },
                "strikingRune": {
                    "value": ""
                },
                "traits": {
                    "label": "Weapon Traits",
                    "type": "String",
                    "value": []
                },
                "usage": {
                    "value": "held-in-one-hand"
                },
                "weaponType": {
                    "label": "Weapon Category",
                    "type": "String",
                    "value": ""
                },
                "weight": {
                    "label": "Bulk",
                    "type": "Number",
                    "value": "L"
                }
            },
            "flags": {},
            "img": "systems/pf2e/icons/equipment/alchemical-items/alchemical-bombs/alchemists-fire.jpg",
            "name": "Alchemist's Fire (Lesser)",
            "sort": 600001,
            "type": "weapon"
        },
        {
            "_id": "LCZ5huF62FM4pqE1",
            "data": {
                "MAP": {
                    "value": ""
                },
                "ability": {
                    "label": "Offensive Ability",
                    "type": "String",
                    "value": "str"
                },
                "bonus": {
                    "label": "Item Bonus",
                    "type": "String",
                    "value": 0
                },
                "bonusDamage": {
                    "value": 0
                },
                "brokenThreshold": {
                    "value": 0
                },
                "bulkCapacity": {
                    "value": ""
                },
                "collapsed": {
                    "value": false
                },
                "containerId": {
                    "value": ""
                },
                "damage": {
                    "damageType": "bludgeoning",
                    "dice": 1,
                    "die": "",
                    "label": "damage",
                    "type": "String",
                    "value": ""
                },
                "description": {
                    "chat": "",
                    "label": "Description",
                    "type": "String",
                    "unidentified": "",
                    "value": "<p><span id=\"ctl00_MainContent_DetailedOutput\">Alchemist's fire is a combination of volatile liquids that ignite when exposed to air. Alchemist's fire deals the listed fire damage, persistent fire damage, and splash damage. Many types grant an item bonus to attack rolls.</span></p>\n<p><span id=\"ctl00_MainContent_DetailedOutput\">The bomb deals 1d8 fire damage, 1 persistent fire damage, and 1 fire splash damage. </span></p>\n<p><span id=\"ctl00_MainContent_DetailedOutput\"><strong>Activate</strong> <img class=\"actiondark\" style=\"height: 15px; padding: 0px 2px;\" src=\"systems/pf2e/icons/actions/OneAction.png\" alt=\"Single Action\"> Strike</span></p>"
                },
                "equipped": {
                    "value": false
                },
                "equippedBulk": {
                    "value": ""
                },
                "group": {
                    "label": "Weapon Group",
                    "type": "String",
                    "value": ""
                },
                "hands": {
                    "label": "Hands",
                    "type": "String",
                    "value": ""
                },
                "hardness": {
                    "value": 0
                },
                "hp": {
                    "value": 0
                },
                "identified": {
                    "value": false
                },
                "invested": {
                    "value": false
                },
                "level": {
                    "label": "Item Level",
                    "type": "Number",
                    "value": 1
                },
                "maxHp": {
                    "value": 0
                },
                "negateBulk": {
                    "value": "0"
                },
                "potencyRune": {
                    "value": ""
                },
                "preciousMaterial": {
                    "value": ""
                },
                "preciousMaterialGrade": {
                    "value": ""
                },
                "price": {
                    "label": "Price",
                    "type": "String",
                    "value": "3 gp"
                },
                "property1": {
                    "critDamage": "",
                    "critDamageType": "",
                    "critDice": null,
                    "critDie": "",
                    "criticalConditionType": "",
                    "criticalConditionValue": null,
                    "damageType": "",
                    "dice": null,
                    "die": "",
                    "label": "Primary Property",
                    "strikeConditionType": "",
                    "strikeConditionValue": null,
                    "type": "String",
                    "value": ""
                },
                "property2": {
                    "critDamage": "",
                    "critDamageType": "",
                    "critDice": 0,
                    "critDie": "",
                    "damageType": "",
                    "dice": 0,
                    "die": "",
                    "label": "Secondary Property",
                    "type": "String",
                    "value": ""
                },
                "property3": {
                    "critDamage": "",
                    "critDamageType": "",
                    "critDice": 0,
                    "critDie": "",
                    "damageType": "",
                    "dice": 0,
                    "die": "",
                    "label": "Tertiary Property",
                    "type": "String",
                    "value": ""
                },
                "propertyRune1": {
                    "value": ""
                },
                "propertyRune2": {
                    "value": ""
                },
                "propertyRune3": {
                    "value": ""
                },
                "propertyRune4": {
                    "value": ""
                },
                "quantity": {
                    "label": "Quantity",
                    "type": "Number",
                    "value": 1
                },
                "range": {
                    "label": "Weapon Range",
                    "type": "String",
                    "value": ""
                },
                "rarity": {
                    "value": "common"
                },
                "reload": {
                    "label": "Reload",
                    "type": "String",
                    "value": ""
                },
                "source": {
                    "label": "Source",
                    "type": "String",
                    "value": ""
                },
                "splashDamage": {
                    "value": 0
                },
                "stackGroup": {
                    "value": ""
                },
                "strikingRune": {
                    "value": ""
                },
                "traits": {
                    "label": "Weapon Traits",
                    "type": "String",
                    "value": []
                },
                "usage": {
                    "value": "held-in-one-hand"
                },
                "weaponType": {
                    "label": "Weapon Category",
                    "type": "String",
                    "value": ""
                },
                "weight": {
                    "label": "Bulk",
                    "type": "Number",
                    "value": "L"
                }
            },
            "flags": {},
            "img": "systems/pf2e/icons/equipment/alchemical-items/alchemical-bombs/alchemists-fire.jpg",
            "name": "Alchemist's Fire (Lesser)",
            "sort": 600001,
            "type": "weapon"
        },
        {
            "_id": "m3tKUGDl5em8xyqs",
            "data": {
                "MAP": {
                    "value": ""
                },
                "ability": {
                    "label": "Offensive Ability",
                    "type": "String",
                    "value": "str"
                },
                "bonus": {
                    "label": "Item Bonus",
                    "type": "String",
                    "value": "0"
                },
                "bonusDamage": {
                    "value": 0
                },
                "brokenThreshold": {
                    "value": 0
                },
                "bulkCapacity": {
                    "value": ""
                },
                "collapsed": {
                    "value": false
                },
                "containerId": {
                    "value": ""
                },
                "damage": {
                    "damageType": "piercing",
                    "dice": 1,
                    "die": "d6",
                    "label": "damage",
                    "type": "String",
                    "value": ""
                },
                "description": {
                    "chat": "",
                    "label": "Description",
                    "type": "String",
                    "unidentified": "",
                    "value": "<p><span class=\"fontstyle0\">This stout, metal blade of orc design has a horizontal basket hilt with blades jutting from each end, or sometimes one blade like that of a katar.</span></p>"
                },
                "equipped": {
                    "value": false
                },
                "equippedBulk": {
                    "value": ""
                },
                "group": {
                    "label": "Weapon Group",
                    "type": "String",
                    "value": ""
                },
                "hands": {
                    "label": "Hands",
                    "type": "String",
                    "value": ""
                },
                "hardness": {
                    "value": 0
                },
                "hp": {
                    "value": 0
                },
                "identified": {
                    "value": false
                },
                "invested": {
                    "value": false
                },
                "level": {
                    "label": "Item Level",
                    "type": "Number",
                    "value": 0
                },
                "maxHp": {
                    "value": 0
                },
                "negateBulk": {
                    "value": "0"
                },
                "potencyRune": {
                    "value": ""
                },
                "preciousMaterial": {
                    "value": ""
                },
                "preciousMaterialGrade": {
                    "value": ""
                },
                "price": {
                    "label": "Price",
                    "type": "String",
                    "value": "7 sp"
                },
                "property1": {
                    "critDamage": "",
                    "critDamageType": "",
                    "critDice": 0,
                    "critDie": "",
                    "damageType": "",
                    "dice": 0,
                    "die": "",
                    "label": "Primary Property",
                    "type": "String",
                    "value": ""
                },
                "property2": {
                    "critDamage": "",
                    "critDamageType": "",
                    "critDice": 0,
                    "critDie": "",
                    "damageType": "",
                    "dice": 0,
                    "die": "",
                    "label": "Secondary Property",
                    "type": "String",
                    "value": ""
                },
                "property3": {
                    "critDamage": "",
                    "critDamageType": "",
                    "critDice": 0,
                    "critDie": "",
                    "damageType": "",
                    "dice": 0,
                    "die": "",
                    "label": "Tertiary Property",
                    "type": "String",
                    "value": ""
                },
                "propertyRune1": {
                    "value": ""
                },
                "propertyRune2": {
                    "value": ""
                },
                "propertyRune3": {
                    "value": ""
                },
                "propertyRune4": {
                    "value": ""
                },
                "quantity": {
                    "label": "Quantity",
                    "type": "Number",
                    "value": 1
                },
                "range": {
                    "label": "Weapon Range",
                    "type": "String",
                    "value": "melee"
                },
                "rarity": {
                    "value": "common"
                },
                "reload": {
                    "label": "Reload",
                    "type": "String",
                    "value": ""
                },
                "source": {
                    "label": "Source",
                    "type": "String",
                    "value": ""
                },
                "splashDamage": {
                    "value": 0
                },
                "stackGroup": {
                    "value": ""
                },
                "strikingRune": {
                    "value": ""
                },
                "traits": {
                    "custom": "",
                    "label": "Weapon Traits",
                    "type": "String",
                    "value": [
                        "uncommon",
                        "agile",
                        "disarm",
                        "orc"
                    ]
                },
                "usage": {
                    "value": "held-in-one-hand"
                },
                "weaponType": {
                    "label": "Weapon Category",
                    "type": "String",
                    "value": "martial"
                },
                "weight": {
                    "label": "Bulk",
                    "type": "Number",
                    "value": "-"
                }
            },
            "flags": {},
            "img": "systems/pf2e/icons/equipment/weapons/orc-knuckle-dagger.jpg",
            "name": "Orc Knuckle Dagger",
            "sort": 700001,
            "type": "weapon"
        },
        {
            "_id": "i1ygbv8UDfaBey4w",
            "data": {
                "MAP": {
                    "value": ""
                },
                "ability": {
                    "label": "Offensive Ability",
                    "type": "String",
                    "value": "str"
                },
                "bonus": {
                    "label": "Item Bonus",
                    "type": "String",
                    "value": 0
                },
                "bonusDamage": {
                    "value": 0
                },
                "brokenThreshold": {
                    "value": 0
                },
                "bulkCapacity": {
                    "value": ""
                },
                "collapsed": {
                    "value": false
                },
                "containerId": {
                    "value": ""
                },
                "damage": {
                    "damageType": "bludgeoning",
                    "dice": 1,
                    "die": "",
                    "label": "damage",
                    "type": "String",
                    "value": ""
                },
                "description": {
                    "chat": "",
                    "label": "Description",
                    "type": "String",
                    "unidentified": "",
                    "value": "Bottled lightning is packed with volatile reagents that create a blast of electricity when they are exposed to air. Bottled lightning deals the listed electricity damage and electricity splash damage. On a hit, the target becomes flat-footed until the start of your next turn. Many types grant an item bonus to attack rolls. It deals 1d6 electricity damage and 1 electricity splash damage."
                },
                "equipped": {
                    "value": false
                },
                "equippedBulk": {
                    "value": ""
                },
                "group": {
                    "label": "Weapon Group",
                    "type": "String",
                    "value": ""
                },
                "hands": {
                    "label": "Hands",
                    "type": "String",
                    "value": ""
                },
                "hardness": {
                    "value": 0
                },
                "hp": {
                    "value": 0
                },
                "identified": {
                    "value": false
                },
                "invested": {
                    "value": false
                },
                "level": {
                    "label": "Item Level",
                    "type": "Number",
                    "value": 1
                },
                "maxHp": {
                    "value": 0
                },
                "negateBulk": {
                    "value": "0"
                },
                "potencyRune": {
                    "value": ""
                },
                "preciousMaterial": {
                    "value": ""
                },
                "preciousMaterialGrade": {
                    "value": ""
                },
                "price": {
                    "label": "Price",
                    "type": "String",
                    "value": "3 gp"
                },
                "property1": {
                    "critDamage": "",
                    "critDamageType": "",
                    "critDice": null,
                    "critDie": "",
                    "criticalConditionType": "",
                    "criticalConditionValue": null,
                    "damageType": "",
                    "dice": null,
                    "die": "",
                    "label": "Primary Property",
                    "strikeConditionType": "",
                    "strikeConditionValue": null,
                    "type": "String",
                    "value": ""
                },
                "property2": {
                    "critDamage": "",
                    "critDamageType": "",
                    "critDice": 0,
                    "critDie": "",
                    "damageType": "",
                    "dice": 0,
                    "die": "",
                    "label": "Secondary Property",
                    "type": "String",
                    "value": ""
                },
                "property3": {
                    "critDamage": "",
                    "critDamageType": "",
                    "critDice": 0,
                    "critDie": "",
                    "damageType": "",
                    "dice": 0,
                    "die": "",
                    "label": "Tertiary Property",
                    "type": "String",
                    "value": ""
                },
                "propertyRune1": {
                    "value": ""
                },
                "propertyRune2": {
                    "value": ""
                },
                "propertyRune3": {
                    "value": ""
                },
                "propertyRune4": {
                    "value": ""
                },
                "quantity": {
                    "label": "Quantity",
                    "type": "Number",
                    "value": 1
                },
                "range": {
                    "label": "Weapon Range",
                    "type": "String",
                    "value": ""
                },
                "rarity": {
                    "value": "common"
                },
                "reload": {
                    "label": "Reload",
                    "type": "String",
                    "value": ""
                },
                "source": {
                    "label": "Source",
                    "type": "String",
                    "value": ""
                },
                "splashDamage": {
                    "value": 0
                },
                "stackGroup": {
                    "value": ""
                },
                "strikingRune": {
                    "value": ""
                },
                "traits": {
                    "label": "Weapon Traits",
                    "type": "String",
                    "value": []
                },
                "usage": {
                    "value": "held-in-one-hand"
                },
                "weaponType": {
                    "label": "Weapon Category",
                    "type": "String",
                    "value": ""
                },
                "weight": {
                    "label": "Bulk",
                    "type": "Number",
                    "value": "L"
                }
            },
            "flags": {},
            "img": "systems/pf2e/icons/equipment/alchemical-items/alchemical-bombs/bottled-lightning.jpg",
            "name": "Bottled Lightning (Lesser)",
            "sort": 2400001,
            "type": "weapon"
        },
        {
            "_id": "0MzsMKFBmgKkImhr",
            "data": {
                "MAP": {
                    "value": ""
                },
                "ability": {
                    "label": "Offensive Ability",
                    "type": "String",
                    "value": "str"
                },
                "bonus": {
                    "label": "Item Bonus",
                    "type": "String",
                    "value": 0
                },
                "bonusDamage": {
                    "value": 0
                },
                "brokenThreshold": {
                    "value": 0
                },
                "bulkCapacity": {
                    "value": ""
                },
                "collapsed": {
                    "value": false
                },
                "containerId": {
                    "value": ""
                },
                "damage": {
                    "damageType": "bludgeoning",
                    "dice": 1,
                    "die": "",
                    "label": "damage",
                    "type": "String",
                    "value": ""
                },
                "description": {
                    "chat": "",
                    "label": "Description",
                    "type": "String",
                    "unidentified": "",
                    "value": "Bottled lightning is packed with volatile reagents that create a blast of electricity when they are exposed to air. Bottled lightning deals the listed electricity damage and electricity splash damage. On a hit, the target becomes flat-footed until the start of your next turn. Many types grant an item bonus to attack rolls. It deals 1d6 electricity damage and 1 electricity splash damage."
                },
                "equipped": {
                    "value": false
                },
                "equippedBulk": {
                    "value": ""
                },
                "group": {
                    "label": "Weapon Group",
                    "type": "String",
                    "value": ""
                },
                "hands": {
                    "label": "Hands",
                    "type": "String",
                    "value": ""
                },
                "hardness": {
                    "value": 0
                },
                "hp": {
                    "value": 0
                },
                "identified": {
                    "value": false
                },
                "invested": {
                    "value": false
                },
                "level": {
                    "label": "Item Level",
                    "type": "Number",
                    "value": 1
                },
                "maxHp": {
                    "value": 0
                },
                "negateBulk": {
                    "value": "0"
                },
                "potencyRune": {
                    "value": ""
                },
                "preciousMaterial": {
                    "value": ""
                },
                "preciousMaterialGrade": {
                    "value": ""
                },
                "price": {
                    "label": "Price",
                    "type": "String",
                    "value": "3 gp"
                },
                "property1": {
                    "critDamage": "",
                    "critDamageType": "",
                    "critDice": null,
                    "critDie": "",
                    "criticalConditionType": "",
                    "criticalConditionValue": null,
                    "damageType": "",
                    "dice": null,
                    "die": "",
                    "label": "Primary Property",
                    "strikeConditionType": "",
                    "strikeConditionValue": null,
                    "type": "String",
                    "value": ""
                },
                "property2": {
                    "critDamage": "",
                    "critDamageType": "",
                    "critDice": 0,
                    "critDie": "",
                    "damageType": "",
                    "dice": 0,
                    "die": "",
                    "label": "Secondary Property",
                    "type": "String",
                    "value": ""
                },
                "property3": {
                    "critDamage": "",
                    "critDamageType": "",
                    "critDice": 0,
                    "critDie": "",
                    "damageType": "",
                    "dice": 0,
                    "die": "",
                    "label": "Tertiary Property",
                    "type": "String",
                    "value": ""
                },
                "propertyRune1": {
                    "value": ""
                },
                "propertyRune2": {
                    "value": ""
                },
                "propertyRune3": {
                    "value": ""
                },
                "propertyRune4": {
                    "value": ""
                },
                "quantity": {
                    "label": "Quantity",
                    "type": "Number",
                    "value": 1
                },
                "range": {
                    "label": "Weapon Range",
                    "type": "String",
                    "value": ""
                },
                "rarity": {
                    "value": "common"
                },
                "reload": {
                    "label": "Reload",
                    "type": "String",
                    "value": ""
                },
                "source": {
                    "label": "Source",
                    "type": "String",
                    "value": ""
                },
                "splashDamage": {
                    "value": 0
                },
                "stackGroup": {
                    "value": ""
                },
                "strikingRune": {
                    "value": ""
                },
                "traits": {
                    "label": "Weapon Traits",
                    "type": "String",
                    "value": []
                },
                "usage": {
                    "value": "held-in-one-hand"
                },
                "weaponType": {
                    "label": "Weapon Category",
                    "type": "String",
                    "value": ""
                },
                "weight": {
                    "label": "Bulk",
                    "type": "Number",
                    "value": "L"
                }
            },
            "flags": {},
            "img": "systems/pf2e/icons/equipment/alchemical-items/alchemical-bombs/bottled-lightning.jpg",
            "name": "Bottled Lightning (Lesser)",
            "sort": 2400001,
            "type": "weapon"
        },
        {
            "_id": "Qfv6quuSPmc9ChK0",
            "data": {
                "activation": {
                    "condition": "",
                    "cost": 0,
                    "type": ""
                },
                "autoDestroy": {
                    "_deprecated": true,
                    "label": "Destroy on Empty",
                    "type": "Boolean",
                    "value": true
                },
                "autoUse": {
                    "_deprecated": true,
                    "label": "Consume on Use",
                    "type": "Boolean",
                    "value": true
                },
                "brokenThreshold": {
                    "value": 0
                },
                "bulkCapacity": {
                    "value": ""
                },
                "charges": {
                    "_deprecated": true,
                    "label": "Charges",
                    "max": 1,
                    "type": "Number",
                    "value": 1
                },
                "collapsed": {
                    "value": false
                },
                "consumableType": {
                    "label": "Consumable Type",
                    "type": "String",
                    "value": "potion"
                },
                "consume": {
                    "_deprecated": true,
                    "label": "Roll on Consume",
                    "type": "String",
                    "value": ""
                },
                "containerId": {
                    "value": ""
                },
                "description": {
                    "chat": "",
                    "label": "Description",
                    "type": "String",
                    "unidentified": "",
                    "value": "Elixirs of life accelerate the body's natural healing processes and immune system. Upon drinking this elixir, you regain the listed number of Hit Points and gain an item bonus to saving throws against diseases and poisons for 10 minutes. The elixir restores 1d6 Hit Points, and the bonus is +1."
                },
                "duration": {
                    "units": "",
                    "value": null
                },
                "equipped": {
                    "value": false
                },
                "equippedBulk": {
                    "value": ""
                },
                "hardness": {
                    "value": 0
                },
                "hp": {
                    "value": 0
                },
                "identified": {
                    "value": false
                },
                "invested": {
                    "value": false
                },
                "level": {
                    "label": "Item Level",
                    "type": "Number",
                    "value": 1
                },
                "maxHp": {
                    "value": 0
                },
                "negateBulk": {
                    "value": "0"
                },
                "preciousMaterial": {
                    "value": ""
                },
                "preciousMaterialGrade": {
                    "value": ""
                },
                "price": {
                    "label": "Price",
                    "type": "String",
                    "value": "3 gp"
                },
                "quantity": {
                    "label": "Quantity",
                    "type": "Number",
                    "value": 1
                },
                "range": {
                    "long": null,
                    "units": "",
                    "value": null
                },
                "rarity": {
                    "value": "common"
                },
                "source": {
                    "label": "Source",
                    "type": "String",
                    "value": ""
                },
                "stackGroup": {
                    "value": ""
                },
                "target": {
                    "type": "",
                    "units": "",
                    "value": null
                },
                "traits": {
                    "value": []
                },
                "usage": {
                    "value": "held-in-one-hand"
                },
                "uses": {
                    "autoDestroy": true,
                    "autoUse": true,
                    "max": 0,
                    "per": null,
                    "value": 0
                },
                "weight": {
                    "label": "Bulk",
                    "type": "Number",
                    "value": "L"
                }
            },
            "flags": {},
            "img": "systems/pf2e/icons/equipment/alchemical-items/alchemical-elixirs/elixir-of-life.jpg",
            "name": "Elixir of Life (Minor)",
            "sort": 4900001,
            "type": "consumable"
        },
        {
            "_id": "gGPlFe8jIJ26JXYk",
            "data": {
                "activation": {
                    "condition": "",
                    "cost": 0,
                    "type": ""
                },
                "autoDestroy": {
                    "_deprecated": true,
                    "label": "Destroy on Empty",
                    "type": "Boolean",
                    "value": true
                },
                "autoUse": {
                    "_deprecated": true,
                    "label": "Consume on Use",
                    "type": "Boolean",
                    "value": true
                },
                "brokenThreshold": {
                    "value": 0
                },
                "bulkCapacity": {
                    "value": ""
                },
                "charges": {
                    "_deprecated": true,
                    "label": "Charges",
                    "max": 1,
                    "type": "Number",
                    "value": 1
                },
                "collapsed": {
                    "value": false
                },
                "consumableType": {
                    "label": "Consumable Type",
                    "type": "String",
                    "value": "potion"
                },
                "consume": {
                    "_deprecated": true,
                    "label": "Roll on Consume",
                    "type": "String",
                    "value": ""
                },
                "containerId": {
                    "value": ""
                },
                "description": {
                    "chat": "",
                    "label": "Description",
                    "type": "String",
                    "unidentified": "",
                    "value": "Elixirs of life accelerate the body's natural healing processes and immune system. Upon drinking this elixir, you regain the listed number of Hit Points and gain an item bonus to saving throws against diseases and poisons for 10 minutes. The elixir restores 1d6 Hit Points, and the bonus is +1."
                },
                "duration": {
                    "units": "",
                    "value": null
                },
                "equipped": {
                    "value": false
                },
                "equippedBulk": {
                    "value": ""
                },
                "hardness": {
                    "value": 0
                },
                "hp": {
                    "value": 0
                },
                "identified": {
                    "value": false
                },
                "invested": {
                    "value": false
                },
                "level": {
                    "label": "Item Level",
                    "type": "Number",
                    "value": 1
                },
                "maxHp": {
                    "value": 0
                },
                "negateBulk": {
                    "value": "0"
                },
                "preciousMaterial": {
                    "value": ""
                },
                "preciousMaterialGrade": {
                    "value": ""
                },
                "price": {
                    "label": "Price",
                    "type": "String",
                    "value": "3 gp"
                },
                "quantity": {
                    "label": "Quantity",
                    "type": "Number",
                    "value": 1
                },
                "range": {
                    "long": null,
                    "units": "",
                    "value": null
                },
                "rarity": {
                    "value": "common"
                },
                "source": {
                    "label": "Source",
                    "type": "String",
                    "value": ""
                },
                "stackGroup": {
                    "value": ""
                },
                "target": {
                    "type": "",
                    "units": "",
                    "value": null
                },
                "traits": {
                    "value": []
                },
                "usage": {
                    "value": "held-in-one-hand"
                },
                "uses": {
                    "autoDestroy": true,
                    "autoUse": true,
                    "max": 0,
                    "per": null,
                    "value": 0
                },
                "weight": {
                    "label": "Bulk",
                    "type": "Number",
                    "value": "L"
                }
            },
            "flags": {},
            "img": "systems/pf2e/icons/equipment/alchemical-items/alchemical-elixirs/elixir-of-life.jpg",
            "name": "Elixir of Life (Minor)",
            "sort": 4900001,
            "type": "consumable"
        },
        {
            "_id": "33rv82CqkgefhMLa",
            "data": {
                "attack": {
                    "value": ""
                },
                "attackEffects": {
                    "value": []
                },
                "bonus": {
                    "value": "8"
                },
                "brokenThreshold": {
                    "value": 0
                },
                "bulkCapacity": {
                    "value": ""
                },
                "collapsed": {
                    "value": false
                },
                "containerId": {
                    "value": ""
                },
                "damageRolls": {
                    "65okztb0y6ttkzfi8jq7l": {
                        "damage": "1d6+2",
                        "damageType": "piercing"
                    }
                },
                "description": {
                    "chat": "",
                    "unidentified": "",
                    "value": ""
                },
                "equipped": {
                    "value": false
                },
                "equippedBulk": {
                    "value": ""
                },
                "hardness": {
                    "value": 0
                },
                "hp": {
                    "value": 0
                },
                "identified": {
                    "value": false
                },
                "invested": {
                    "value": false
                },
                "maxHp": {
                    "value": 0
                },
                "negateBulk": {
                    "value": "0"
                },
                "preciousMaterial": {
                    "value": ""
                },
                "preciousMaterialGrade": {
                    "value": ""
                },
                "price": {
                    "value": 0
                },
                "property1": {
                    "critDamage": "",
                    "critDamageType": "",
                    "critDice": 0,
                    "critDie": "",
                    "damageType": "",
                    "dice": 0,
                    "die": "",
                    "value": ""
                },
                "property2": {
                    "critDamage": "",
                    "critDamageType": "",
                    "critDice": 0,
                    "critDie": "",
                    "damageType": "",
                    "dice": 0,
                    "die": "",
                    "value": ""
                },
                "property3": {
                    "critDamage": "",
                    "critDamageType": "",
                    "critDice": 0,
                    "critDie": "",
                    "damageType": "",
                    "dice": 0,
                    "die": "",
                    "value": ""
                },
                "quantity": {
                    "value": 1
                },
                "rarity": {
                    "value": "common"
                },
                "source": {
                    "value": ""
                },
                "stackGroup": {
                    "value": ""
                },
                "traits": {
                    "custom": "",
                    "value": [
                        "agile",
                        "disarm"
                    ]
                },
                "usage": {
                    "value": "held-in-one-hand"
                },
                "weaponType": {
                    "value": "melee"
                },
                "weight": {
                    "value": 0
                }
            },
            "flags": {},
            "img": "icons/svg/mystery-man.svg",
            "name": "Orc Knuckle Dagger",
            "sort": 5000001,
            "type": "melee"
        },
        {
            "_id": "chDV4MComWNOjTGT",
            "data": {
                "attack": {
                    "value": ""
                },
                "attackEffects": {
                    "value": []
                },
                "bonus": {
                    "value": "7"
                },
                "brokenThreshold": {
                    "value": 0
                },
                "bulkCapacity": {
                    "value": ""
                },
                "collapsed": {
                    "value": false
                },
                "containerId": {
                    "value": ""
                },
                "damageRolls": {
                    "y375fuuexieeiym307o4d": {
                        "damage": "1d4+2",
                        "damageType": "bludgeoning"
                    }
                },
                "description": {
                    "chat": "",
                    "unidentified": "",
                    "value": ""
                },
                "equipped": {
                    "value": false
                },
                "equippedBulk": {
                    "value": ""
                },
                "hardness": {
                    "value": 0
                },
                "hp": {
                    "value": 0
                },
                "identified": {
                    "value": false
                },
                "invested": {
                    "value": false
                },
                "maxHp": {
                    "value": 0
                },
                "negateBulk": {
                    "value": "0"
                },
                "preciousMaterial": {
                    "value": ""
                },
                "preciousMaterialGrade": {
                    "value": ""
                },
                "price": {
                    "value": 0
                },
                "property1": {
                    "critDamage": "",
                    "critDamageType": "",
                    "critDice": 0,
                    "critDie": "",
                    "damageType": "",
                    "dice": 0,
                    "die": "",
                    "value": ""
                },
                "property2": {
                    "critDamage": "",
                    "critDamageType": "",
                    "critDice": 0,
                    "critDie": "",
                    "damageType": "",
                    "dice": 0,
                    "die": "",
                    "value": ""
                },
                "property3": {
                    "critDamage": "",
                    "critDamageType": "",
                    "critDice": 0,
                    "critDie": "",
                    "damageType": "",
                    "dice": 0,
                    "die": "",
                    "value": ""
                },
                "quantity": {
                    "value": 1
                },
                "rarity": {
                    "value": "common"
                },
                "source": {
                    "value": ""
                },
                "stackGroup": {
                    "value": ""
                },
                "traits": {
                    "custom": "",
                    "value": [
                        "agile",
                        "finesse",
                        "nonlethal",
                        "unarmed"
                    ]
                },
                "usage": {
                    "value": "held-in-one-hand"
                },
                "weaponType": {
                    "value": "melee"
                },
                "weight": {
                    "value": 0
                }
            },
            "flags": {},
            "img": "icons/svg/mystery-man.svg",
            "name": "Fist",
            "sort": 5100001,
            "type": "melee"
        },
        {
            "_id": "3rtQ1oNcOSPOqKlF",
            "data": {
                "attack": {
                    "value": ""
                },
                "attackEffects": {
                    "value": []
                },
                "bonus": {
                    "value": "9"
                },
                "brokenThreshold": {
                    "value": 0
                },
                "bulkCapacity": {
                    "value": ""
                },
                "collapsed": {
                    "value": false
                },
                "containerId": {
                    "value": ""
                },
                "damageRolls": {},
                "description": {
                    "chat": "",
                    "unidentified": "",
                    "value": "<p><strong>Damage</strong> varies by bomb</p>"
                },
                "equipped": {
                    "value": false
                },
                "equippedBulk": {
                    "value": ""
                },
                "hardness": {
                    "value": 0
                },
                "hp": {
                    "value": 0
                },
                "identified": {
                    "value": false
                },
                "invested": {
                    "value": false
                },
                "maxHp": {
                    "value": 0
                },
                "negateBulk": {
                    "value": "0"
                },
                "preciousMaterial": {
                    "value": ""
                },
                "preciousMaterialGrade": {
                    "value": ""
                },
                "price": {
                    "value": 0
                },
                "property1": {
                    "critDamage": "",
                    "critDamageType": "",
                    "critDice": 0,
                    "critDie": "",
                    "damageType": "",
                    "dice": 0,
                    "die": "",
                    "value": ""
                },
                "property2": {
                    "critDamage": "",
                    "critDamageType": "",
                    "critDice": 0,
                    "critDie": "",
                    "damageType": "",
                    "dice": 0,
                    "die": "",
                    "value": ""
                },
                "property3": {
                    "critDamage": "",
                    "critDamageType": "",
                    "critDice": 0,
                    "critDie": "",
                    "damageType": "",
                    "dice": 0,
                    "die": "",
                    "value": ""
                },
                "quantity": {
                    "value": 1
                },
                "rarity": {
                    "value": "common"
                },
                "source": {
                    "value": ""
                },
                "stackGroup": {
                    "value": ""
                },
                "traits": {
                    "custom": "",
                    "value": [
                        "range-increment-20",
                        "splash"
                    ]
                },
                "usage": {
                    "value": "held-in-one-hand"
                },
                "weaponType": {
                    "value": "ranged"
                },
                "weight": {
                    "value": 0
                }
            },
            "flags": {},
            "img": "icons/svg/mystery-man.svg",
            "name": "Alchemical Bomb",
            "sort": 5200001,
            "type": "melee"
        },
        {
            "_id": "XNSeNydv2wpBXvfv",
            "data": {
                "actionCategory": {
                    "value": ""
                },
                "actionType": {
                    "value": "reaction"
                },
                "actions": {
                    "value": ""
                },
                "description": {
                    "chat": "",
                    "unidentified": "",
                    "value": "<p><strong>Trigger</strong> The monster is reduced to 0 HP.</p>\n<p><strong>Effect</strong> The monster avoids being knocked out and remains at 1 HP, but its wounded value increases by 1. When it is wounded 3, it can no longer use this ability.</p>"
                },
                "rarity": {
                    "value": "common"
                },
                "requirements": {
                    "value": ""
                },
                "skill_requirement": {
                    "skill": {
                        "rank": "",
                        "skill": ""
                    }
                },
                "skill_requirements": {
                    "rank": "",
                    "skill": ""
                },
                "source": {
                    "value": ""
                },
                "traits": {
                    "value": []
                },
                "trigger": {
                    "value": ""
                },
                "usage": {
                    "value": "held-in-one-hand"
                },
                "weapon": {
                    "value": ""
                }
            },
            "flags": {},
            "img": "systems/pf2e/icons/actions/Reaction.png",
            "name": "Ferocity",
            "sort": 5300001,
            "type": "action"
        }
    ],
    "name": "Orc Alchemist",
    "permission": {
        "default": 0
    },
    "token": {
        "actorData": {},
        "actorId": "X0AJV2Zfj2d6rab5",
        "actorLink": false,
        "bar1": {
            "attribute": "attributes.hp"
        },
        "bar2": {
            "attribute": ""
        },
        "brightLight": 0,
        "brightSight": 0,
        "dimLight": 0,
        "dimSight": 0,
        "displayBars": 20,
        "displayName": 20,
        "disposition": -1,
        "flags": {},
        "height": 1,
        "img": "icons/svg/mystery-man.svg",
        "lightAlpha": 1,
        "lightAngle": 360,
        "lightColor": "",
        "lockRotation": false,
        "mirrorX": false,
        "mirrorY": false,
        "name": "Orc Alchemist",
        "randomImg": false,
        "rotation": 0,
        "scale": 1,
        "sightAngle": 360,
        "tint": null,
        "vision": false,
        "width": 1
    },
    "type": "npc"
}
