{
    "_id": "Qf1ylAbdVi1rkc8M",
    "data": {
        "actionCategory": {
            "value": ""
        },
        "actionType": {
            "label": "Action Type",
            "type": "String",
            "value": "action"
        },
        "actions": {
            "label": "Number of Actions",
            "type": "String",
            "value": "1"
        },
        "description": {
            "chat": "",
            "label": "Description",
            "type": "String",
            "unidentified": "",
            "value": "<p><strong>Requirements</strong> You have a fly Speed</p>\n<hr />\n<p>You try a difficult maneuver while flying. Attempt an Acrobatics check. The GM determines what maneuvers are possible, but they rarely allow you to move farther than your fly Speed.</p>\n<hr />\n<p><strong>Success</strong> You succeed at the maneuver.</p>\n<p><strong>Failure</strong> Your maneuver fails. The GM chooses if you simply can't move or if some other detrimental effect happens. The outcome should be appropriate for the maneuver you attempted (for instance, being blown off course if you were trying to fly against a strong wind).</p>\n<p><strong>Critical Failure</strong> As failure, but the consequence is more dire.</p><h2 class=\"title\">Sample Maneuver in Flight Tasks</h2>\n<ul>\n<li><strong>Trained</strong> steep ascent or descent</li>\n<li><strong>Expert</strong> fly against the wind, hover midair</li>\n<li><strong>Master</strong> reverse direction</li>\n<li><strong>Legendary</strong> fly through gale force winds</li>\n</ul>"
        },
        "rarity": {
            "value": "common"
        },
        "requirements": {
            "label": "Requirements",
            "type": "String",
            "value": ""
        },
        "rules": [],
        "skill_requirement": {
            "label": "Skill Req.",
            "skill": {
                "rank": "1",
                "skill": "acrobatics",
                "type": "Number"
            },
            "type": "String"
        },
        "skill_requirements": {
            "rank": "",
            "skill": ""
        },
        "source": {
            "label": "Source",
            "type": "String",
            "value": ""
        },
        "traits": {
            "custom": "",
            "label": "Traits",
            "type": "String",
            "value": [
                "move",
                "skill"
            ]
        },
        "trigger": {
            "label": "Trigger",
            "type": "String",
            "value": ""
        },
        "weapon": {
            "label": "Associated Weapon",
            "type": "String",
            "value": ""
        }
    },
    "effects": [],
    "flags": {},
    "img": "systems/pf2e/icons/actions/OneAction.png",
    "name": "Maneuver in Flight",
    "permission": {
        "default": 0
    },
    "type": "action"
}
