{
    "_id": "XmF4q4rzKWg55vG4",
    "data": {
        "actionCategory": {
            "value": ""
        },
        "actionType": {
            "value": "passive"
        },
        "actions": {
            "value": ""
        },
        "description": {
            "chat": "",
            "unidentified": "",
            "value": "<p>You rarely misidentify an item. When using Arcana, Nature, Occultism, or Religion checks to Identify Magic, if you roll a critical failure, you get a failure instead. If you would misidentify a cursed item because you roll a success but not a critical success (Gamemastery Guide 90), you simply can't identify it instead.</p>"
        },
        "featType": {
            "value": "skill"
        },
        "level": {
            "value": "2"
        },
        "prerequisites": {
            "value": [
                "expert in Arcana, Nature, Occultism, or Religion"
            ]
        },
        "rarity": {
            "value": "common"
        },
        "source": {
            "value": ""
        },
        "traits": {
            "rarity": {
                "value": "common"
            },
            "value": [
                "general",
                "skill"
            ]
        }
    },
    "flags": {},
    "img": "systems/pf2e/icons/features/feats/feats.jpg",
    "name": "Assured Identification",
    "permission": {
        "default": 0
    },
    "type": "feat"
}
