{
    "_id": "QvBIYW6aAqoiyim3",
    "data": {
        "actionCategory": {
            "value": ""
        },
        "actionType": {
            "value": "passive"
        },
        "actions": {
            "value": ""
        },
        "description": {
            "chat": "",
            "unidentified": "",
            "value": "<p>Your knowledge of the tenets of your faith gives you insight into the best ways to get others of your faith to help you or to follow your directions.</p>\n<p>When you @Compendium[pf2e.actionspf2e.Request]{Request} something of or @Compendium[pf2e.actionspf2e.Coerce]{Coerce} members of your own faith, you can attempt a Religion check instead of Diplomacy or Intimidation, and you gain a +2 circumstance bonus to the check. On a critically failed attempt to make a Request, the target's attitude toward you doesn't worsen.</p>"
        },
        "featType": {
            "value": "skill"
        },
        "level": {
            "value": "2"
        },
        "prerequisites": {
            "value": [
                "expert in Religion",
                "follower of a specific religion"
            ]
        },
        "rarity": {
            "value": "common"
        },
        "source": {
            "value": ""
        },
        "traits": {
            "rarity": {
                "value": "common"
            },
            "value": [
                "general",
                "skill"
            ]
        }
    },
    "flags": {},
    "img": "systems/pf2e/icons/features/feats/feats.jpg",
    "name": "Exhort The Faithful",
    "permission": {
        "default": 0
    },
    "type": "feat"
}
