{
    "_id": "9u0uW1vZThRayXk2",
    "data": {
        "actionCategory": {
            "value": ""
        },
        "actionType": {
            "value": "passive"
        },
        "actions": {
            "value": ""
        },
        "description": {
            "chat": "",
            "unidentified": "",
            "value": "<p>Through a combination of careful manipulation and precise breath control, you can deploy inhaled toxins precisely. When you activate an inhaled poison, you can cause it to fill a 20-foot line that's 5 feet tall rather than a 10-foot cube. You gain a +3 status bonus to saving throws against inhaled poisons that you activate.</p>"
        },
        "featType": {
            "value": "class"
        },
        "level": {
            "value": "12"
        },
        "prerequisites": {
            "value": [
                ""
            ]
        },
        "rarity": {
            "value": "common"
        },
        "rules": [],
        "source": {
            "value": ""
        },
        "traits": {
            "custom": "",
            "rarity": {
                "value": "common"
            },
            "value": [
                "alchemist"
            ]
        }
    },
    "flags": {},
    "img": "systems/pf2e/icons/features/feats/feats.jpg",
    "name": "Shaped Contaminant",
    "permission": {
        "default": 0
    },
    "type": "feat"
}
