{
    "_id": "iDimfGmQHacwxeh2",
    "data": {
        "actionCategory": {
            "value": ""
        },
        "actionType": {
            "value": "passive"
        },
        "actions": {
            "value": ""
        },
        "description": {
            "chat": "",
            "unidentified": "",
            "value": "<p>The spells of those you have @Compendium[pf2e.actionspf2e.Demoralize]{Demoralize} are less effective on you. If you succeed in Demoralizing a creature, for the next 24 hours you gain a +1 circumstance bonus to saving throws against that creature's spells.</p>"
        },
        "featType": {
            "value": "skill"
        },
        "level": {
            "value": "2"
        },
        "prerequisites": {
            "value": [
                "expert in Intimidation"
            ]
        },
        "rarity": {
            "value": "common"
        },
        "rules": [],
        "source": {
            "value": ""
        },
        "traits": {
            "rarity": {
                "value": "common"
            },
            "value": [
                "general",
                "skill"
            ]
        }
    },
    "flags": {},
    "img": "systems/pf2e/icons/features/feats/feats.jpg",
    "name": "Terrifying Resistance",
    "permission": {
        "default": 0
    },
    "type": "feat"
}
