{
    "_id": "5HoEwzLDJGTCZtFa",
    "data": {
        "actionCategory": {
            "value": ""
        },
        "actionType": {
            "value": "passive"
        },
        "actions": {
            "value": ""
        },
        "description": {
            "chat": "",
            "unidentified": "",
            "value": "<p>To you, a fight is a kind of performance art, and you command your foes' attention with mesmerizing motions.</p>\n<p>You are trained in Performance and gain the @Compendium[pf2e.feats-srd.Fascinating Performance]{Fascinating Performance} skill feat. You gain @Compendium[pf2e.classfeatures.Panache]{Panache} during an encounter when the result of your Performance check to Perform exceeds the Will DC of an observing foe, even if the foe isn't fascinated.</p>"
        },
        "featType": {
            "value": "classfeature"
        },
        "level": {
            "value": "1"
        },
        "prerequisites": {
            "value": ""
        },
        "rarity": {
            "value": "common"
        },
        "rules": [
            {
                "key": "PF2E.RuleElement.FlatModifier",
                "predicate": {
                    "all": [
                        "panache"
                    ],
                    "any": [
                        "perform"
                    ]
                },
                "selector": "performance",
                "type": "circumstance",
                "value": 1
            }
        ],
        "source": {
            "value": ""
        },
        "traits": {
            "custom": "",
            "rarity": {
                "value": "common"
            },
            "value": [
                "swashbuckler"
            ]
        }
    },
    "effects": [],
    "flags": {},
    "img": "systems/pf2e/icons/features/classes/battledancer-style.jpg",
    "name": "Battledancer Style",
    "permission": {
        "default": 0
    },
    "type": "feat"
}
