{
    "_id": "D21HbZu4lssomcG6",
    "data": {
        "actionCategory": {
            "value": ""
        },
        "actionType": {
            "value": "passive"
        },
        "actions": {
            "value": ""
        },
        "description": {
            "chat": "",
            "unidentified": "",
            "value": "<p>The flow of magic through your spellcasting and your defensive training combine to help you get out of the way before an attack. Your proficiency rank in unarmored defense increases to expert.</p>"
        },
        "featType": {
            "value": "classfeature"
        },
        "level": {
            "value": "13"
        },
        "prerequisites": {
            "value": ""
        },
        "rarity": {
            "value": "common"
        },
        "source": {
            "value": ""
        },
        "traits": {
            "custom": "",
            "rarity": {
                "value": "common"
            },
            "value": [
                "witch"
            ]
        }
    },
    "flags": {},
    "img": "systems/pf2e/icons/features/classes/defensive-robes.jpg",
    "name": "Defensive Robes (Witch)",
    "permission": {
        "default": 0
    },
    "type": "feat"
}
