{
    "_id": "4ripp6EfdVpS0d60",
    "data": {
        "actionCategory": {
            "value": ""
        },
        "actionType": {
            "value": "passive"
        },
        "actions": {
            "value": ""
        },
        "description": {
            "chat": "",
            "unidentified": "",
            "value": "<p>Your muse is a mystery, driving you to uncover the hidden secrets of the multiverse. If your muse is a creature, it might be a dragon or otherworldly being; if a deity, it might be Irori or Nethys. You gain the @Compendium[pf2e.feats-srd.Bardic Lore]{Bardic Lore} feat and add @Compendium[pf2e.spells-srd.True Strike]{True Strike} to your spell repertoire.</p>"
        },
        "featType": {
            "value": "classfeature"
        },
        "level": {
            "value": "1"
        },
        "prerequisites": {
            "value": ""
        },
        "rarity": {
            "value": "common"
        },
        "source": {
            "value": ""
        },
        "traits": {
            "custom": "",
            "rarity": {
                "value": "common"
            },
            "value": [
                "bard"
            ]
        }
    },
    "flags": {},
    "img": "systems/pf2e/icons/features/classes/enigma.jpg",
    "name": "Enigma (Bard Muse)",
    "permission": {
        "default": 0
    },
    "type": "feat"
}
