{
    "_id": "I2qauyUmyTH3coAU",
    "data": {
        "actionCategory": {
            "value": ""
        },
        "actionType": {
            "value": "passive"
        },
        "actions": {
            "value": ""
        },
        "description": {
            "chat": "",
            "unidentified": "",
            "value": "<p>Your inherent magic responds easily and powerfully to your command. Your proficiency ranks for spell attack rolls and spell DCs for spells of your bloodline's tradition increase to expert.</p>"
        },
        "featType": {
            "value": "classfeature"
        },
        "level": {
            "value": "7"
        },
        "prerequisites": {
            "value": ""
        },
        "rarity": {
            "value": "common"
        },
        "source": {
            "value": ""
        },
        "traits": {
            "custom": "",
            "value": [
                "sorcerer"
            ]
        }
    },
    "flags": {},
    "img": "systems/pf2e/icons/features/classes/expert-spellcaster.jpg",
    "name": "Expert Spellcaster (Sorcerer)",
    "permission": {
        "default": 0
    },
    "type": "feat"
}
