{
    "_id": "qQyKAktcAyfaiUm5",
    "data": {
        "actionCategory": {
            "value": ""
        },
        "actionType": {
            "value": "passive"
        },
        "actions": {
            "value": ""
        },
        "description": {
            "chat": "",
            "unidentified": "",
            "value": "<p>Your damage from weapon specialization increases to 4 with weapons and unarmed attacks in which you're an expert, 6 if you're a master, and 8 if you're legendary.</p>"
        },
        "featType": {
            "value": "classfeature"
        },
        "level": {
            "value": "15"
        },
        "prerequisites": {
            "value": ""
        },
        "rarity": {
            "value": "common"
        },
        "source": {
            "value": ""
        },
        "traits": {
            "custom": "",
            "value": [
                "rogue"
            ]
        }
    },
    "flags": {},
    "img": "systems/pf2e/icons/features/classes/greater-weapon-specialization.jpg",
    "name": "Greater Weapon Specialization (Rogue)",
    "permission": {
        "default": 0
    },
    "type": "feat"
}
