{
    "_id": "VAvEZ1zv8l45X9CE",
    "data": {
        "actionCategory": {
            "value": ""
        },
        "actionType": {
            "value": "passive"
        },
        "actions": {
            "value": ""
        },
        "description": {
            "chat": "",
            "unidentified": "",
            "value": "<p>You can harness divine power at a level few others can match. Your proficiency ranks for divine spell attack rolls and spell DCs increase to legendary.</p>"
        },
        "featType": {
            "value": "classfeature"
        },
        "level": {
            "value": "19"
        },
        "prerequisites": {
            "value": ""
        },
        "rarity": {
            "value": "common"
        },
        "source": {
            "value": ""
        },
        "traits": {
            "custom": "",
            "rarity": {
                "value": "common"
            },
            "value": [
                "oracle"
            ]
        }
    },
    "flags": {},
    "img": "systems/pf2e/icons/features/classes/legendary-spellcaster.jpg",
    "name": "Legendary Spellcaster (Oracle)",
    "permission": {
        "default": 0
    },
    "type": "feat"
}
