{
    "_id": "ilIZDX2q7X87GraR",
    "data": {
        "actionCategory": {
            "value": ""
        },
        "actionType": {
            "value": "passive"
        },
        "actions": {
            "value": ""
        },
        "description": {
            "chat": "",
            "unidentified": "",
            "value": "<p>You are a consummate spellcaster, with a comprehensive understanding of both arcane theory and practical spellcraft. Your proficiency ranks for arcane spell attack rolls and spell DCs increase to legendary.</p>"
        },
        "featType": {
            "value": "classfeature"
        },
        "level": {
            "value": "19"
        },
        "prerequisites": {
            "value": ""
        },
        "rarity": {
            "value": "common"
        },
        "source": {
            "value": ""
        },
        "traits": {
            "custom": "",
            "value": [
                "wizard"
            ]
        }
    },
    "flags": {},
    "img": "systems/pf2e/icons/features/classes/legendary-spellcaster.jpg",
    "name": "Legendary Spellcaster (Wizard)",
    "permission": {
        "default": 0
    },
    "type": "feat"
}
