{
    "_id": "5UPkTPy5u2fZKqUW",
    "data": {
        "actionCategory": {
            "value": ""
        },
        "actionType": {
            "value": "passive"
        },
        "actions": {
            "value": ""
        },
        "description": {
            "chat": "",
            "unidentified": "",
            "value": "<p>You've mastered the occult. Your proficiency ranks for occult spell attack rolls and spell DCs increase to master.</p>"
        },
        "featType": {
            "value": "classfeature"
        },
        "level": {
            "value": "15"
        },
        "prerequisites": {
            "value": ""
        },
        "rarity": {
            "value": "common"
        },
        "source": {
            "value": ""
        },
        "traits": {
            "custom": "",
            "rarity": {
                "value": "common"
            },
            "value": [
                "bard"
            ]
        }
    },
    "flags": {},
    "img": "systems/pf2e/icons/features/classes/master-spellcaster.jpg",
    "name": "Master Spellcaster (Bard)",
    "permission": {
        "default": 0
    },
    "type": "feat"
}
