{
    "_id": "6FsusoMYxxjyIkVh",
    "data": {
        "actionCategory": {
            "value": ""
        },
        "actionType": {
            "value": "passive"
        },
        "actions": {
            "value": ""
        },
        "description": {
            "chat": "",
            "unidentified": "",
            "value": "<p>The collection of spells you can cast is called your spell repertoire. At 1st level, you learn two 1st-level spells of your choice and five cantrips of your choice. You choose these from the common spells from the occult spell list, or from otheroccult spells to which you have access. You can cast any spell in your spell repertoire by using a spell slot of an appropriate spell level.</p>\n<p><br />You add to this spell repertoire as you increase in level. Each time you get a spell slot (see Table 3-6), you add a spell of the same level to your spell repertoire. At 2nd level, you select another 1st-level spell; at 3rd level, you select two 2nd-level spells, and so on. When you add spells, you might choose a higher-level version of a spell you already have so that you can cast a heightened version of that spell.<br /><br />Though you gain them at the same rate, your spell slots and the spells in your spell repertoire are separate. If a feat or other ability adds a spell to your spell repertoire, it wouldn't give you another spell slot, and vice versa.</p>\n<h3 class=\"title\">Swapping Spells in your Repertoire</h3>\n<p>As you gain new spells in your spell repertoire, you might want to replace some of the spells you previously learned. Each time you gain a level and learn new spells, you can swap out one of your old spells for a different spell of the same level. This spell can be a cantrip. You can also swap out spells by retraining during downtime.</p>"
        },
        "featType": {
            "value": "classfeature"
        },
        "level": {
            "value": "1"
        },
        "prerequisites": {
            "value": ""
        },
        "rarity": {
            "value": "common"
        },
        "rules": [],
        "source": {
            "value": ""
        },
        "traits": {
            "custom": "",
            "rarity": {
                "value": "common"
            },
            "value": [
                "bard"
            ]
        }
    },
    "flags": {},
    "img": "systems/pf2e/icons/equipment/adventuring-gear/spellbook.jpg",
    "name": "Spell Repertoire (Bard)",
    "permission": {
        "default": 0
    },
    "type": "feat"
}
