{
    "_id": "RFCxaIS4OkacCpxD",
    "data": {
        "abilities": {
            "cha": {
                "min": 3,
                "mod": 4,
                "value": 18
            },
            "con": {
                "min": 3,
                "mod": 7,
                "value": 24
            },
            "dex": {
                "min": 3,
                "mod": 6,
                "value": 22
            },
            "int": {
                "min": 3,
                "mod": -4,
                "value": 2
            },
            "str": {
                "min": 3,
                "mod": "+8",
                "value": 26
            },
            "wis": {
                "min": 3,
                "mod": 6,
                "value": 22
            }
        },
        "attributes": {
            "ac": {
                "check": 0,
                "details": "all-around vision",
                "dex": 0,
                "item": 0,
                "min": 0,
                "value": "32"
            },
            "allSaves": {
                "value": ""
            },
            "ancestryhp": 0,
            "bonusEncumbranceBulk": 0,
            "bonusLimitBulk": 0,
            "classDC": {
                "ability": "str",
                "breakdown": "",
                "item": 0,
                "rank": 0,
                "value": 0
            },
            "classhp": 0,
            "flatbonushp": 0,
            "flatbonussp": 0,
            "hp": {
                "details": "",
                "max": "285",
                "min": 0,
                "temp": 0,
                "tempmax": 0,
                "value": "285"
            },
            "init": {
                "bonus": 0,
                "value": 0
            },
            "initiative": {
                "ability": "",
                "circumstance": 0,
                "status": 0
            },
            "levelbonushp": 0,
            "levelbonussp": 0,
            "perception": {
                "ability": "wis",
                "breakdown": "",
                "item": 0,
                "rank": 0,
                "value": 25
            },
            "resolve": {
                "value": 0
            },
            "shield": {
                "ac": 0,
                "brokenThreshold": 0,
                "hardness": 0,
                "max": 0,
                "min": 0,
                "value": 0
            },
            "sp": {
                "details": "",
                "max": 0,
                "min": 0,
                "value": 0
            },
            "speed": {
                "otherSpeeds": [
                    {
                        "type": "Swim",
                        "value": "30 feet"
                    }
                ],
                "special": "",
                "value": "20 feet"
            }
        },
        "currency": {
            "cp": {
                "value": 0
            },
            "gp": {
                "value": 0
            },
            "pp": {
                "value": 0
            },
            "sp": {
                "value": 0
            }
        },
        "details": {
            "alignment": {
                "value": "N"
            },
            "ancestry": {
                "value": ""
            },
            "biography": {
                "public": "",
                "value": ""
            },
            "class": {
                "value": ""
            },
            "creatureType": "Aberration",
            "deity": {
                "image": "systems/pf2e/assets/sheet/deity.png",
                "value": ""
            },
            "flavorText": "A terrifying abomination of teeth, tentacles, and unbridled rage, the froghemoth is thankfully rarely encountered even in the deepest swamplands or most remote Darklands caverns. Capable of devouring dinosaurs and even dragons, it is a frighteningly effective ambush hunter, immersing itself in the mire with only its eyestalk protruding and watching in every direction at once with uncanny precision.<br /><br />",
            "flavourText": "",
            "heritage": {
                "value": ""
            },
            "keyability": {
                "value": "str"
            },
            "level": {
                "min": 1,
                "value": "13"
            },
            "nethysUrl": "https://2e.aonprd.com/Monsters.aspx?ID=676",
            "recallKnowledgeText": "Recall Knowledge - Aberration : DC 33",
            "sidebarText": "<h3 class=\"title\"><img alt=\"Sidebar - Additional Lore\" title=\"Sidebar - Additional Lore\" style=\"height:20px; padding:2px 10px 0px 2px\" src=\"Images\\Icons\\Sidebar_2_AdditionalLore.png\"> Alien Origins</h3>Froghemoths have been known to suddenly abandon an established lair to seek a new home, as if in response to some cosmic convergence or subspace signal imperceptible to other creatures. Some argue that the froghemoth is never fully comfortable in any environment because it isn&apos;t from this world at all, and that these wanderings are instinctual urges to seek out its true home&#x2014;a home not represented by the strange world in which the beast finds itself trapped.",
            "source": {
                "value": "Bestiary 2 pg. 122"
            }
        },
        "martial": {
            "advanced": {
                "breakdown": "",
                "rank": 0,
                "value": 0
            },
            "heavy": {
                "breakdown": "",
                "rank": 0,
                "value": 0
            },
            "light": {
                "breakdown": "",
                "rank": 0,
                "value": 0
            },
            "martial": {
                "breakdown": "",
                "rank": 0,
                "value": 0
            },
            "medium": {
                "breakdown": "",
                "rank": 0,
                "value": 0
            },
            "simple": {
                "breakdown": "",
                "rank": 0,
                "value": 0
            },
            "unarmed": {
                "breakdown": "",
                "rank": 0,
                "value": 0
            },
            "unarmored": {
                "breakdown": "",
                "rank": 0,
                "value": 0
            }
        },
        "saves": {
            "fortitude": {
                "ability": "con",
                "breakdown": "",
                "item": 0,
                "rank": 0,
                "saveDetail": "",
                "value": 26
            },
            "reflex": {
                "ability": "dex",
                "breakdown": "",
                "item": 0,
                "rank": 0,
                "saveDetail": "",
                "value": 21
            },
            "will": {
                "ability": "wis",
                "breakdown": "",
                "item": 0,
                "rank": 0,
                "saveDetail": "",
                "value": 23
            }
        },
        "schema": {
            "version": {
                "value": ""
            }
        },
        "skills": {
            "acr": {
                "ability": "dex",
                "armor": 1,
                "breakdown": "",
                "item": 0,
                "mod": 0,
                "rank": 0,
                "value": 0
            },
            "arc": {
                "ability": "int",
                "breakdown": "",
                "item": 0,
                "mod": 0,
                "rank": 0,
                "value": 0
            },
            "ath": {
                "ability": "str",
                "armor": 1,
                "breakdown": "",
                "item": 0,
                "mod": 0,
                "rank": 0,
                "value": 0
            },
            "cra": {
                "ability": "int",
                "breakdown": "",
                "item": 0,
                "mod": 0,
                "rank": 0,
                "value": 0
            },
            "dec": {
                "ability": "cha",
                "breakdown": "",
                "item": 0,
                "mod": 0,
                "rank": 0,
                "value": 0
            },
            "dip": {
                "ability": "cha",
                "breakdown": "",
                "item": 0,
                "mod": 0,
                "rank": 0,
                "value": 0
            },
            "itm": {
                "ability": "cha",
                "breakdown": "",
                "item": 0,
                "mod": 0,
                "rank": 0,
                "value": 0
            },
            "med": {
                "ability": "wis",
                "breakdown": "",
                "item": 0,
                "mod": 0,
                "rank": 0,
                "value": 0
            },
            "nat": {
                "ability": "wis",
                "breakdown": "",
                "item": 0,
                "mod": 0,
                "rank": 0,
                "value": 0
            },
            "occ": {
                "ability": "int",
                "breakdown": "",
                "item": 0,
                "mod": 0,
                "rank": 0,
                "value": 0
            },
            "prf": {
                "ability": "cha",
                "breakdown": "",
                "item": 0,
                "mod": 0,
                "rank": 0,
                "value": 0
            },
            "rel": {
                "ability": "wis",
                "breakdown": "",
                "item": 0,
                "mod": 0,
                "rank": 0,
                "value": 0
            },
            "soc": {
                "ability": "int",
                "breakdown": "",
                "item": 0,
                "mod": 0,
                "rank": 0,
                "value": 0
            },
            "ste": {
                "ability": "dex",
                "armor": 1,
                "breakdown": "",
                "item": 0,
                "mod": 0,
                "rank": 0,
                "value": 0
            },
            "sur": {
                "ability": "wis",
                "breakdown": "",
                "item": 0,
                "mod": 0,
                "rank": 0,
                "value": 0
            },
            "thi": {
                "ability": "dex",
                "armor": 1,
                "breakdown": "",
                "item": 0,
                "mod": 0,
                "rank": 0,
                "value": 0
            }
        },
        "spells": {
            "spell0": {
                "max": 0
            },
            "spell1": {
                "max": 0
            },
            "spell10": {
                "max": 0
            },
            "spell11": {
                "max": 0
            },
            "spell2": {
                "max": 0
            },
            "spell3": {
                "max": 0
            },
            "spell4": {
                "max": 0
            },
            "spell5": {
                "max": 0
            },
            "spell6": {
                "max": 0
            },
            "spell7": {
                "max": 0
            },
            "spell8": {
                "max": 0
            },
            "spell9": {
                "max": 0
            }
        },
        "statusEffects": [],
        "traits": {
            "ci": [],
            "di": {
                "custom": "",
                "value": [
                    "electricity"
                ]
            },
            "dr": [],
            "dv": [],
            "languages": {
                "custom": "",
                "selected": [],
                "value": []
            },
            "rarity": {
                "value": "uncommon"
            },
            "senses": {
                "value": "darkvision, otherworldly vision 30 feet"
            },
            "size": {
                "value": "huge"
            },
            "traits": {
                "custom": "",
                "value": [
                    "aberration",
                    "amphibious"
                ]
            }
        }
    },
    "flags": {
        "pf2e_updatednpcsheet": {}
    },
    "img": "icons/svg/mystery-man.svg",
    "items": [
        {
            "_id": "aSfa8TllpzF0cq1p",
            "data": {
                "attack": {
                    "value": ""
                },
                "attackEffects": {
                    "value": [
                        "Improved Grab"
                    ]
                },
                "bonus": {
                    "total": 27,
                    "value": 27
                },
                "brokenThreshold": {
                    "value": 0
                },
                "bulkCapacity": {
                    "value": ""
                },
                "collapsed": {
                    "value": false
                },
                "containerId": {
                    "value": ""
                },
                "damage": {
                    "damageType": "piercing",
                    "die": "3d12+14"
                },
                "damageRolls": [
                    {
                        "damage": "3d12+14",
                        "damageType": "piercing"
                    }
                ],
                "description": {
                    "chat": "",
                    "unidentified": "",
                    "value": ""
                },
                "equipped": {
                    "value": false
                },
                "equippedBulk": {
                    "value": ""
                },
                "hardness": {
                    "value": 0
                },
                "hp": {
                    "value": 0
                },
                "identified": {
                    "value": false
                },
                "invested": {
                    "value": false
                },
                "maxHp": {
                    "value": 0
                },
                "negateBulk": {
                    "value": "0"
                },
                "preciousMaterial": {
                    "value": ""
                },
                "preciousMaterialGrade": {
                    "value": ""
                },
                "price": {
                    "value": 0
                },
                "property1": {
                    "critDamage": "",
                    "critDamageType": "",
                    "critDice": 0,
                    "critDie": "",
                    "damageType": "",
                    "dice": 0,
                    "die": "",
                    "value": ""
                },
                "property2": {
                    "critDamage": "",
                    "critDamageType": "",
                    "critDice": 0,
                    "critDie": "",
                    "damageType": "",
                    "dice": 0,
                    "die": "",
                    "value": ""
                },
                "property3": {
                    "critDamage": "",
                    "critDamageType": "",
                    "critDice": 0,
                    "critDie": "",
                    "damageType": "",
                    "dice": 0,
                    "die": "",
                    "value": ""
                },
                "quantity": {
                    "value": 1
                },
                "rarity": {
                    "value": "common"
                },
                "source": {
                    "value": ""
                },
                "stackGroup": {
                    "value": ""
                },
                "traits": {
                    "value": [
                        "reach 10 feet"
                    ]
                },
                "usage": {
                    "value": "held-in-one-hand"
                },
                "weight": {
                    "value": 0
                }
            },
            "flags": {
                "pf2e_updatednpcsheet": {}
            },
            "img": "icons/svg/mystery-man.svg",
            "name": "Jaws",
            "sort": 100000,
            "type": "melee"
        },
        {
            "_id": "qWcmE7mc3EOqNR3L",
            "data": {
                "attack": {
                    "value": ""
                },
                "attackEffects": {
                    "value": [
                        "Improved Grab"
                    ]
                },
                "bonus": {
                    "total": 27,
                    "value": 27
                },
                "brokenThreshold": {
                    "value": 0
                },
                "bulkCapacity": {
                    "value": ""
                },
                "collapsed": {
                    "value": false
                },
                "containerId": {
                    "value": ""
                },
                "damage": {
                    "damageType": "bludgeoning",
                    "die": "3d8+14"
                },
                "damageRolls": [
                    {
                        "damage": "3d8+14",
                        "damageType": "bludgeoning"
                    }
                ],
                "description": {
                    "chat": "",
                    "unidentified": "",
                    "value": ""
                },
                "equipped": {
                    "value": false
                },
                "equippedBulk": {
                    "value": ""
                },
                "hardness": {
                    "value": 0
                },
                "hp": {
                    "value": 0
                },
                "identified": {
                    "value": false
                },
                "invested": {
                    "value": false
                },
                "maxHp": {
                    "value": 0
                },
                "negateBulk": {
                    "value": "0"
                },
                "preciousMaterial": {
                    "value": ""
                },
                "preciousMaterialGrade": {
                    "value": ""
                },
                "price": {
                    "value": 0
                },
                "property1": {
                    "critDamage": "",
                    "critDamageType": "",
                    "critDice": 0,
                    "critDie": "",
                    "damageType": "",
                    "dice": 0,
                    "die": "",
                    "value": ""
                },
                "property2": {
                    "critDamage": "",
                    "critDamageType": "",
                    "critDice": 0,
                    "critDie": "",
                    "damageType": "",
                    "dice": 0,
                    "die": "",
                    "value": ""
                },
                "property3": {
                    "critDamage": "",
                    "critDamageType": "",
                    "critDice": 0,
                    "critDie": "",
                    "damageType": "",
                    "dice": 0,
                    "die": "",
                    "value": ""
                },
                "quantity": {
                    "value": 1
                },
                "rarity": {
                    "value": "common"
                },
                "source": {
                    "value": ""
                },
                "stackGroup": {
                    "value": ""
                },
                "traits": {
                    "value": [
                        "agile",
                        "reach 15 feet"
                    ]
                },
                "usage": {
                    "value": "held-in-one-hand"
                },
                "weight": {
                    "value": 0
                }
            },
            "flags": {
                "pf2e_updatednpcsheet": {}
            },
            "img": "icons/svg/mystery-man.svg",
            "name": "Tentacle",
            "sort": 200000,
            "type": "melee"
        },
        {
            "_id": "i9N4Fg8nJJdpMQUf",
            "data": {
                "attack": {
                    "value": ""
                },
                "attackEffects": {
                    "value": [
                        "barbed tongue"
                    ]
                },
                "bonus": {
                    "total": 27,
                    "value": 27
                },
                "brokenThreshold": {
                    "value": 0
                },
                "bulkCapacity": {
                    "value": ""
                },
                "collapsed": {
                    "value": false
                },
                "containerId": {
                    "value": ""
                },
                "damage": {
                    "damageType": "piercing",
                    "die": "2d10+14"
                },
                "damageRolls": [
                    {
                        "damage": "2d10+14",
                        "damageType": "piercing"
                    }
                ],
                "description": {
                    "chat": "",
                    "unidentified": "",
                    "value": ""
                },
                "equipped": {
                    "value": false
                },
                "equippedBulk": {
                    "value": ""
                },
                "hardness": {
                    "value": 0
                },
                "hp": {
                    "value": 0
                },
                "identified": {
                    "value": false
                },
                "invested": {
                    "value": false
                },
                "maxHp": {
                    "value": 0
                },
                "negateBulk": {
                    "value": "0"
                },
                "preciousMaterial": {
                    "value": ""
                },
                "preciousMaterialGrade": {
                    "value": ""
                },
                "price": {
                    "value": 0
                },
                "property1": {
                    "critDamage": "",
                    "critDamageType": "",
                    "critDice": 0,
                    "critDie": "",
                    "damageType": "",
                    "dice": 0,
                    "die": "",
                    "value": ""
                },
                "property2": {
                    "critDamage": "",
                    "critDamageType": "",
                    "critDice": 0,
                    "critDie": "",
                    "damageType": "",
                    "dice": 0,
                    "die": "",
                    "value": ""
                },
                "property3": {
                    "critDamage": "",
                    "critDamageType": "",
                    "critDice": 0,
                    "critDie": "",
                    "damageType": "",
                    "dice": 0,
                    "die": "",
                    "value": ""
                },
                "quantity": {
                    "value": 1
                },
                "rarity": {
                    "value": "common"
                },
                "source": {
                    "value": ""
                },
                "stackGroup": {
                    "value": ""
                },
                "traits": {
                    "value": [
                        "agile",
                        "reach 30 feet"
                    ]
                },
                "usage": {
                    "value": "held-in-one-hand"
                },
                "weight": {
                    "value": 0
                }
            },
            "flags": {
                "pf2e_updatednpcsheet": {}
            },
            "img": "icons/svg/mystery-man.svg",
            "name": "Tongue",
            "sort": 300000,
            "type": "melee"
        },
        {
            "_id": "zdW63lmShrSpZWkm",
            "data": {
                "actionCategory": {
                    "value": "interaction"
                },
                "actionType": {
                    "value": "passive"
                },
                "actions": {
                    "value": ""
                },
                "description": {
                    "chat": "",
                    "unidentified": "",
                    "value": "A froghemoth's alien eyes allow it to perceive creatures within 30 feet, even if they are invisible or ethereal. It can still be fooled by successful Stealth checks to @Compendium[pf2e.actionspf2e.Hide]{Hide}, but it has Perception DC 38 in such cases. It also sees through and is unaffected by illusions with the visual trait if they are within 30 feet."
                },
                "rarity": {
                    "value": "common"
                },
                "requirements": {
                    "value": ""
                },
                "skill_requirements": {
                    "rank": "",
                    "skill": ""
                },
                "source": {
                    "value": ""
                },
                "traits": {
                    "value": [
                        "visual"
                    ]
                },
                "trigger": {
                    "value": ""
                },
                "usage": {
                    "value": "held-in-one-hand"
                },
                "weapon": {
                    "value": ""
                }
            },
            "flags": {},
            "img": "icons/svg/mystery-man.svg",
            "name": "Otherworldly Vision",
            "sort": 400000,
            "type": "action"
        },
        {
            "_id": "r9UN2dDmxrL8ACPX",
            "data": {
                "actionCategory": {
                    "value": "interaction"
                },
                "actionType": {
                    "value": "passive"
                },
                "actions": {
                    "value": ""
                },
                "description": {
                    "chat": "",
                    "unidentified": "",
                    "value": "This monster can see in all directions simultaneously, and therefore can't be flanked."
                },
                "rarity": {
                    "value": "common"
                },
                "requirements": {
                    "value": ""
                },
                "skill_requirements": {
                    "rank": "",
                    "skill": ""
                },
                "source": {
                    "value": ""
                },
                "traits": {
                    "value": []
                },
                "trigger": {
                    "value": ""
                },
                "usage": {
                    "value": "held-in-one-hand"
                },
                "weapon": {
                    "value": ""
                }
            },
            "flags": {},
            "img": "icons/svg/mystery-man.svg",
            "name": "All-Around Vision",
            "sort": 500000,
            "type": "action"
        },
        {
            "_id": "pfYqWHlnkQUBpJIo",
            "data": {
                "actionCategory": {
                    "value": "defensive"
                },
                "actionType": {
                    "value": "passive"
                },
                "actions": {
                    "value": ""
                },
                "description": {
                    "chat": "",
                    "unidentified": "",
                    "value": "Though a froghemoth is immune to electricity damage, it is @Compendium[pf2e.conditionitems.Slowed]{Slowed} 1 for [[/r 1 # round whenever it would have otherwise taken electricity damage]] round whenever it would have otherwise taken electricity damage."
                },
                "rarity": {
                    "value": "common"
                },
                "requirements": {
                    "value": ""
                },
                "skill_requirements": {
                    "rank": "",
                    "skill": ""
                },
                "source": {
                    "value": ""
                },
                "traits": {
                    "value": []
                },
                "trigger": {
                    "value": ""
                },
                "usage": {
                    "value": "held-in-one-hand"
                },
                "weapon": {
                    "value": ""
                }
            },
            "flags": {},
            "img": "icons/svg/mystery-man.svg",
            "name": "Electric Torpor",
            "sort": 600000,
            "type": "action"
        },
        {
            "_id": "RuWDU3wgkgh16Fvp",
            "data": {
                "actionCategory": {
                    "value": "offensive"
                },
                "actionType": {
                    "value": "action"
                },
                "actions": {
                    "value": 1
                },
                "description": {
                    "chat": "",
                    "unidentified": "",
                    "value": "<b>Requirements</b> The monster is hiding in water and a creature that hasn't detected it is within the listed number of feet. <b>Effect</b> The monster moves up to its swim Speed + 10 feet toward the triggering creature, traveling on water and on land. Once the creature is in reach, the monster makes a Strike against it. The creature is @Compendium[pf2e.conditionitems.Flat-Footed]{Flat-Footed} against this Strike."
                },
                "rarity": {
                    "value": "common"
                },
                "requirements": {
                    "value": ""
                },
                "skill_requirements": {
                    "rank": "",
                    "skill": ""
                },
                "source": {
                    "value": ""
                },
                "traits": {
                    "value": []
                },
                "trigger": {
                    "value": ""
                },
                "usage": {
                    "value": "held-in-one-hand"
                },
                "weapon": {
                    "value": ""
                }
            },
            "flags": {},
            "img": "icons/svg/mystery-man.svg",
            "name": "Aquatic Ambush",
            "sort": 700000,
            "type": "action"
        },
        {
            "_id": "2KNgUCdMbbr8kaE7",
            "data": {
                "actionCategory": {
                    "value": "offensive"
                },
                "actionType": {
                    "value": "passive"
                },
                "actions": {
                    "value": ""
                },
                "description": {
                    "chat": "",
                    "unidentified": "",
                    "value": "A creature hit by the froghemoth's tongue becomes @Compendium[pf2e.conditionitems.Grabbed]{Grabbed} by the froghemoth. The creature isn't @Compendium[pf2e.conditionitems.Immobilized]{Immobilized}, but it can't move beyond the reach of the froghemoth's tongue. A creature can sever the tongue with a successful Strike against AC 31 that deals at least [[/r 15 # slashing damage]] slashing damage. This deals no damage to the froghemoth but prevents it from using its tongue Strike until it regrows its tongue, which takes 1 minute."
                },
                "rarity": {
                    "value": "common"
                },
                "requirements": {
                    "value": ""
                },
                "skill_requirements": {
                    "rank": "",
                    "skill": ""
                },
                "source": {
                    "value": ""
                },
                "traits": {
                    "value": []
                },
                "trigger": {
                    "value": ""
                },
                "usage": {
                    "value": "held-in-one-hand"
                },
                "weapon": {
                    "value": ""
                }
            },
            "flags": {},
            "img": "icons/svg/mystery-man.svg",
            "name": "Barbed Tongue",
            "sort": 800000,
            "type": "action"
        },
        {
            "_id": "tVBujCEfyKPKjA2Q",
            "data": {
                "actionCategory": {
                    "value": "offensive"
                },
                "actionType": {
                    "value": "action"
                },
                "actions": {
                    "value": 2
                },
                "description": {
                    "chat": "",
                    "unidentified": "",
                    "value": "The froghemoth makes up to four tentacle Strikes, each against a different target. These count toward the froghemoth's multiple attack penalty, but the multiple attack penalty doesn't increase until after all the attacks."
                },
                "rarity": {
                    "value": "common"
                },
                "requirements": {
                    "value": ""
                },
                "skill_requirements": {
                    "rank": "",
                    "skill": ""
                },
                "source": {
                    "value": ""
                },
                "traits": {
                    "value": []
                },
                "trigger": {
                    "value": ""
                },
                "usage": {
                    "value": "held-in-one-hand"
                },
                "weapon": {
                    "value": ""
                }
            },
            "flags": {},
            "img": "icons/svg/mystery-man.svg",
            "name": "Flailing Tentacles",
            "sort": 900000,
            "type": "action"
        },
        {
            "_id": "NNS69J6piQef0Wl4",
            "data": {
                "actionCategory": {
                    "value": "offensive"
                },
                "actionType": {
                    "value": "action"
                },
                "actions": {
                    "value": 1
                },
                "description": {
                    "chat": "",
                    "unidentified": "",
                    "value": "3d6+12, DC 33<br />The monster deals the listed amount of damage to any number of creatures grabbed or restrained by it. Each of those creatures can attempt a basic Fortitude save with the listed DC. A creature that fails this save falls @Compendium[pf2e.conditionitems.Unconscious]{Unconscious}, and a creature that succeeds is then temporarily immune to falling @Compendium[pf2e.conditionitems.Unconscious]{Unconscious} from Greater Constrict for 1 minute."
                },
                "rarity": {
                    "value": "common"
                },
                "requirements": {
                    "value": ""
                },
                "skill_requirements": {
                    "rank": "",
                    "skill": ""
                },
                "source": {
                    "value": ""
                },
                "traits": {
                    "value": []
                },
                "trigger": {
                    "value": ""
                },
                "usage": {
                    "value": "held-in-one-hand"
                },
                "weapon": {
                    "value": ""
                }
            },
            "flags": {},
            "img": "icons/svg/mystery-man.svg",
            "name": "Greater Constrict",
            "sort": 1000000,
            "type": "action"
        },
        {
            "_id": "BfQDGpd8cSNGgENd",
            "data": {
                "actionCategory": {
                    "value": "offensive"
                },
                "actionType": {
                    "value": "action"
                },
                "actions": {
                    "value": 2
                },
                "description": {
                    "chat": "",
                    "unidentified": "",
                    "value": "The froghemoth pulls a creature grabbed by its tongue toward itself. The froghemoth rolls an Athletics check against the creature's Fortitude DC. On a success, the froghemoth pulls the creature into an adjacent space, and if it critically succeeds it can also make a bite Strike against the creature after the pull."
                },
                "rarity": {
                    "value": "common"
                },
                "requirements": {
                    "value": ""
                },
                "skill_requirements": {
                    "rank": "",
                    "skill": ""
                },
                "source": {
                    "value": ""
                },
                "traits": {
                    "value": []
                },
                "trigger": {
                    "value": ""
                },
                "usage": {
                    "value": "held-in-one-hand"
                },
                "weapon": {
                    "value": ""
                }
            },
            "flags": {},
            "img": "icons/svg/mystery-man.svg",
            "name": "Retract Tongue",
            "sort": 1100000,
            "type": "action"
        },
        {
            "_id": "o4Lsa9PKhSljiBYk",
            "data": {
                "actionCategory": {
                    "value": "offensive"
                },
                "actionType": {
                    "value": "action"
                },
                "actions": {
                    "value": 1
                },
                "description": {
                    "chat": "",
                    "unidentified": "",
                    "value": "Large, 3d6+9 bludgeoning, Rupture 24<br />The monster attempts to swallow a creature of the listed size or smaller that it has grabbed in its jaws or mouth. If a swallowed creature is of the maximum size listed, the monster can't use Swallow Whole again. If the creature is smaller than the maximum, the monster can usually swallow more creatures; the GM determines the maximum. The monster attempts an Athletics check opposed by the grabbed creature's Reflex DC. If it succeeds, it swallows the creature. The monster's mouth or jaws no longer grab a creature it has swallowed, so the monster is free to use them to Strike or Grab once again. The monster can't attack creatures it has swallowed.<br /><br /> A swallowed creature is @Compendium[pf2e.conditionitems.Grabbed]{Grabbed}, is @Compendium[pf2e.conditionitems.Slowed]{Slowed} 1, and has to hold its breath or start suffocating. The swallowed creature takes the listed amount of damage when first swallowed and at the end of each of its turns while it's swallowed. If the victim Escapes this ability's grabbed condition, it exits through the monster's mouth. This frees any other creature grabbed in the monster's mouth or jaws. A swallowed creature can attack the monster that has swallowed it, but only with unarmed attacks or with weapons of light Bulk or less. The engulfing creature is flat-footed against the attack. If the monster takes piercing or slashing damage equaling or exceeding the listed Rupture value from a single attack or spell, the engulfed creature cuts itself free. A creature that gets free by either Escaping or cutting itself free can immediately breathe and exits the swallowing monster's space.<br /><br /> If the monster dies, a swallowed creature can be freed by creatures adjacent to the corpse if they spend a combined total of [[/r 3 # actions cutting the monster open with a weapon or unarmed attack that deals piercing or slashing damage]] actions cutting the monster open with a weapon or unarmed attack that deals piercing or slashing damage."
                },
                "rarity": {
                    "value": "common"
                },
                "requirements": {
                    "value": ""
                },
                "skill_requirements": {
                    "rank": "",
                    "skill": ""
                },
                "source": {
                    "value": ""
                },
                "traits": {
                    "value": [
                        "attack"
                    ]
                },
                "trigger": {
                    "value": ""
                },
                "usage": {
                    "value": "held-in-one-hand"
                },
                "weapon": {
                    "value": ""
                }
            },
            "flags": {},
            "img": "icons/svg/mystery-man.svg",
            "name": "Swallow Whole",
            "sort": 1200000,
            "type": "action"
        },
        {
            "_id": "W7SXZmTHpiTgyihi",
            "data": {
                "actionCategory": {
                    "value": "offensive"
                },
                "actionType": {
                    "value": "free"
                },
                "actions": {
                    "value": ""
                },
                "description": {
                    "chat": "",
                    "unidentified": "",
                    "value": "The monster can use Grab as a free action triggered by a hit with its initial attack. A monster with Improved Grab still needs to spend an action to extend the duration for creatures it already has grabbed. <br /><b>Effect</b> The monster automatically Grabs the target until the end of the monster's next turn. The creature is grabbed by whichever body part the monster attacked with, and that body part can't be used to Strike creatures until the grab is ended.<br /><br /> Using Grab extends the duration of the monster's Grab until the end of its next turn for all creatures grabbed by it. A grabbed creature can use the @Compendium[pf2e.actionspf2e.Escape]{Escape} action to get out of the grab, and the Grab ends for a grabbed creatures if the monster moves away from it."
                },
                "rarity": {
                    "value": "common"
                },
                "requirements": {
                    "value": ""
                },
                "skill_requirements": {
                    "rank": "",
                    "skill": ""
                },
                "source": {
                    "value": ""
                },
                "traits": {
                    "value": []
                },
                "trigger": {
                    "value": ""
                },
                "usage": {
                    "value": "held-in-one-hand"
                },
                "weapon": {
                    "value": ""
                }
            },
            "flags": {},
            "img": "icons/svg/mystery-man.svg",
            "name": "Improved Grab",
            "sort": 1300000,
            "type": "action"
        },
        {
            "_id": "LahoiBxKjT7Ue7VY",
            "data": {
                "description": {
                    "chat": "",
                    "unidentified": "",
                    "value": ""
                },
                "featType": "",
                "item": {
                    "value": 0
                },
                "mod": {
                    "value": 23
                },
                "proficient": {
                    "value": 0
                },
                "rarity": {
                    "value": "common"
                },
                "source": {
                    "value": ""
                },
                "traits": {
                    "value": []
                },
                "usage": {
                    "value": "held-in-one-hand"
                }
            },
            "flags": {},
            "img": "icons/svg/mystery-man.svg",
            "name": "Acrobatics",
            "sort": 1400000,
            "type": "lore"
        },
        {
            "_id": "8Q112n7FWbWrP6Lv",
            "data": {
                "description": {
                    "chat": "",
                    "unidentified": "",
                    "value": ""
                },
                "featType": "",
                "item": {
                    "value": 0
                },
                "mod": {
                    "value": 27
                },
                "proficient": {
                    "value": 0
                },
                "rarity": {
                    "value": "common"
                },
                "source": {
                    "value": ""
                },
                "traits": {
                    "value": []
                },
                "usage": {
                    "value": "held-in-one-hand"
                }
            },
            "flags": {},
            "img": "icons/svg/mystery-man.svg",
            "name": "Athletics",
            "sort": 1500000,
            "type": "lore"
        },
        {
            "_id": "Ic32ezDxqx8TwcBo",
            "data": {
                "description": {
                    "chat": "",
                    "unidentified": "",
                    "value": ""
                },
                "featType": "",
                "item": {
                    "value": 0
                },
                "mod": {
                    "value": 27
                },
                "proficient": {
                    "value": 0
                },
                "rarity": {
                    "value": "common"
                },
                "source": {
                    "value": ""
                },
                "traits": {
                    "value": []
                },
                "usage": {
                    "value": "held-in-one-hand"
                }
            },
            "flags": {},
            "img": "icons/svg/mystery-man.svg",
            "name": "Stealth ",
            "sort": 1600000,
            "type": "lore"
        }
    ],
    "name": "Froghemoth",
    "permission": {
        "default": 0
    },
    "token": {
        "actorData": {},
        "actorId": "RFCxaIS4OkacCpxD",
        "actorLink": false,
        "bar1": {
            "attribute": "attributes.hp"
        },
        "bar2": {},
        "brightLight": 0,
        "brightSight": 0,
        "dimLight": 0,
        "dimSight": 0,
        "displayBars": 20,
        "displayName": 20,
        "disposition": -1,
        "flags": {},
        "height": 3,
        "img": "icons/svg/mystery-man.svg",
        "lightAlpha": 1,
        "lightAngle": 360,
        "lockRotation": false,
        "name": "Froghemoth",
        "randomImg": false,
        "rotation": 0,
        "scale": 1,
        "sightAngle": 360,
        "tint": null,
        "vision": false,
        "width": 3
    },
    "type": "npc"
}
