{
    "_id": "g1htYgARxNKxc7MV",
    "data": {
        "abilities": {
            "cha": {
                "min": 3,
                "mod": -4,
                "value": 2
            },
            "con": {
                "min": 3,
                "mod": 7,
                "value": 24
            },
            "dex": {
                "min": 3,
                "mod": -1,
                "value": 8
            },
            "int": {
                "min": 3,
                "mod": -5,
                "value": 0
            },
            "str": {
                "min": 3,
                "mod": "+7",
                "value": 24
            },
            "wis": {
                "min": 3,
                "mod": 2,
                "value": 14
            }
        },
        "attributes": {
            "ac": {
                "check": 0,
                "details": "",
                "dex": 0,
                "item": 0,
                "min": 0,
                "value": "25"
            },
            "allSaves": {
                "value": ""
            },
            "ancestryhp": 0,
            "bonusEncumbranceBulk": 0,
            "bonusLimitBulk": 0,
            "classDC": {
                "ability": "str",
                "breakdown": "",
                "item": 0,
                "rank": 0,
                "value": 0
            },
            "classhp": 0,
            "flatbonushp": 0,
            "flatbonussp": 0,
            "hp": {
                "details": "",
                "max": "165",
                "min": 0,
                "temp": 0,
                "tempmax": 0,
                "value": "165"
            },
            "init": {
                "bonus": 0,
                "value": 0
            },
            "initiative": {
                "ability": "",
                "circumstance": 0,
                "status": 0
            },
            "levelbonushp": 0,
            "levelbonussp": 0,
            "perception": {
                "ability": "wis",
                "breakdown": "",
                "item": 0,
                "rank": 0,
                "value": 14
            },
            "resolve": {
                "value": 0
            },
            "shield": {
                "ac": 0,
                "brokenThreshold": 0,
                "hardness": 0,
                "max": 0,
                "min": 0,
                "value": 0
            },
            "sp": {
                "details": "",
                "max": 0,
                "min": 0,
                "value": 0
            },
            "speed": {
                "otherSpeeds": [
                    {
                        "type": "Climb",
                        "value": "15 feet"
                    }
                ],
                "special": "",
                "value": "20 feet"
            }
        },
        "currency": {
            "cp": {
                "value": 0
            },
            "gp": {
                "value": 0
            },
            "pp": {
                "value": 0
            },
            "sp": {
                "value": 0
            }
        },
        "details": {
            "alignment": {
                "value": "N"
            },
            "ancestry": {
                "value": "Tick"
            },
            "biography": {
                "public": "",
                "value": ""
            },
            "class": {
                "value": ""
            },
            "creatureType": "Animal",
            "deity": {
                "image": "systems/pf2e/assets/sheet/deity.png",
                "value": ""
            },
            "flavorText": "These massive, primeval relatives of ordinary slugs squirm slowly through swamps and grasslands. Giant slugs are always voracious and prefer to eat flesh or plants high in water content. They frequently consume livestock or strip bare entire orchards or melon crops. For cattle, pigs, or other sizable meals, they first shred the creatures using their radula-tongue-like appendages covered in teeth- to make them easier to consume. The mucus secreted by a giant slug is powerfully acidic and viscous. Wherever it travels, the creature leaves a trailing brown strip that kills most vegetation. Farmers and ranchers, especially those living near swamps known to contain giant slugs, keep close tabs on these journeys. Many almanacs go into great detail on slug migration and mating seasons. Since each giant slug needs its own wide hunting ground, the creatures typically come into proximity to mate only once a year. Either or both slugs can become impregnated, and any that do typically lay a clutch of around 100 eggs. They usually lay these eggs in a shallow bog or a cool, humid cave.<br /><br /> Giant slugs tend to travel at night, as the creatures dislike sunlight and dry weather. They have been known to seek out locations like barns, the undersides of bridges, or even fortifications like castles for shelter as dawn starts to break. Woe to the unprepared farmer who ambles out at sunrise to milk the cows but instead finds that a giant slug has made the barn its home! Subterranean giant slugs don't have to worry about sunlight, and crawl about on no schedule in particular. Narrow tunnels pose little obstacle for them, as the creatures can easily compress their bodies. These factors make their movements very unpredictable, so they pose quite a menace for underground peoples like kobolds or xulgaths.<br /><br />",
            "flavourText": "",
            "heritage": {
                "value": ""
            },
            "keyability": {
                "value": "str"
            },
            "level": {
                "min": 1,
                "value": "8"
            },
            "nethysUrl": "https://2e.aonprd.com/Monsters.aspx?ID=806",
            "recallKnowledgeText": "Recall Knowledge - Animal : DC 24",
            "sidebarText": "<h3 class=\"title\"><img alt=\"Sidebar - Additional Lore\" title=\"Sidebar - Additional Lore\" style=\"height:20px; padding:2px 10px 0px 2px\" src=\"Images\\Icons\\Sidebar_2_AdditionalLore.png\"> Slugs of War</h3>Subterranean cultures like urdefhans and xulgaths sometimes turn giant slugs into war beasts. The creatures&apos; primitive minds make them easy to control for anyone who knows a few simple tactics&#x2014; mostly ways of keeping them well-fed until just before battle and methods of guiding them in the right direction as they rampage.",
            "source": {
                "value": "Bestiary 2 pg. 244"
            }
        },
        "martial": {
            "advanced": {
                "breakdown": "",
                "rank": 0,
                "value": 0
            },
            "heavy": {
                "breakdown": "",
                "rank": 0,
                "value": 0
            },
            "light": {
                "breakdown": "",
                "rank": 0,
                "value": 0
            },
            "martial": {
                "breakdown": "",
                "rank": 0,
                "value": 0
            },
            "medium": {
                "breakdown": "",
                "rank": 0,
                "value": 0
            },
            "simple": {
                "breakdown": "",
                "rank": 0,
                "value": 0
            },
            "unarmed": {
                "breakdown": "",
                "rank": 0,
                "value": 0
            },
            "unarmored": {
                "breakdown": "",
                "rank": 0,
                "value": 0
            }
        },
        "saves": {
            "fortitude": {
                "ability": "con",
                "breakdown": "",
                "item": 0,
                "rank": 0,
                "saveDetail": "",
                "value": 21
            },
            "reflex": {
                "ability": "dex",
                "breakdown": "",
                "item": 0,
                "rank": 0,
                "saveDetail": "",
                "value": 11
            },
            "will": {
                "ability": "wis",
                "breakdown": "",
                "item": 0,
                "rank": 0,
                "saveDetail": "",
                "value": 14
            }
        },
        "schema": {
            "version": {
                "value": ""
            }
        },
        "skills": {
            "acr": {
                "ability": "dex",
                "armor": 1,
                "breakdown": "",
                "item": 0,
                "mod": 0,
                "rank": 0,
                "value": 0
            },
            "arc": {
                "ability": "int",
                "breakdown": "",
                "item": 0,
                "mod": 0,
                "rank": 0,
                "value": 0
            },
            "ath": {
                "ability": "str",
                "armor": 1,
                "breakdown": "",
                "item": 0,
                "mod": 0,
                "rank": 0,
                "value": 0
            },
            "cra": {
                "ability": "int",
                "breakdown": "",
                "item": 0,
                "mod": 0,
                "rank": 0,
                "value": 0
            },
            "dec": {
                "ability": "cha",
                "breakdown": "",
                "item": 0,
                "mod": 0,
                "rank": 0,
                "value": 0
            },
            "dip": {
                "ability": "cha",
                "breakdown": "",
                "item": 0,
                "mod": 0,
                "rank": 0,
                "value": 0
            },
            "itm": {
                "ability": "cha",
                "breakdown": "",
                "item": 0,
                "mod": 0,
                "rank": 0,
                "value": 0
            },
            "med": {
                "ability": "wis",
                "breakdown": "",
                "item": 0,
                "mod": 0,
                "rank": 0,
                "value": 0
            },
            "nat": {
                "ability": "wis",
                "breakdown": "",
                "item": 0,
                "mod": 0,
                "rank": 0,
                "value": 0
            },
            "occ": {
                "ability": "int",
                "breakdown": "",
                "item": 0,
                "mod": 0,
                "rank": 0,
                "value": 0
            },
            "prf": {
                "ability": "cha",
                "breakdown": "",
                "item": 0,
                "mod": 0,
                "rank": 0,
                "value": 0
            },
            "rel": {
                "ability": "wis",
                "breakdown": "",
                "item": 0,
                "mod": 0,
                "rank": 0,
                "value": 0
            },
            "soc": {
                "ability": "int",
                "breakdown": "",
                "item": 0,
                "mod": 0,
                "rank": 0,
                "value": 0
            },
            "ste": {
                "ability": "dex",
                "armor": 1,
                "breakdown": "",
                "item": 0,
                "mod": 0,
                "rank": 0,
                "value": 0
            },
            "sur": {
                "ability": "wis",
                "breakdown": "",
                "item": 0,
                "mod": 0,
                "rank": 0,
                "value": 0
            },
            "thi": {
                "ability": "dex",
                "armor": 1,
                "breakdown": "",
                "item": 0,
                "mod": 0,
                "rank": 0,
                "value": 0
            }
        },
        "spells": {
            "spell0": {
                "max": 0
            },
            "spell1": {
                "max": 0
            },
            "spell10": {
                "max": 0
            },
            "spell11": {
                "max": 0
            },
            "spell2": {
                "max": 0
            },
            "spell3": {
                "max": 0
            },
            "spell4": {
                "max": 0
            },
            "spell5": {
                "max": 0
            },
            "spell6": {
                "max": 0
            },
            "spell7": {
                "max": 0
            },
            "spell8": {
                "max": 0
            },
            "spell9": {
                "max": 0
            }
        },
        "statusEffects": [],
        "traits": {
            "ci": [],
            "di": {
                "custom": "",
                "value": []
            },
            "dr": [
                {
                    "label": "Acid",
                    "type": "acid",
                    "value": "10"
                }
            ],
            "dv": [
                {
                    "label": "Salt",
                    "type": "salt",
                    "value": "5"
                }
            ],
            "languages": {
                "custom": "",
                "selected": [],
                "value": []
            },
            "rarity": {
                "value": "common"
            },
            "senses": {
                "value": "no hearing, scent (imprecise) 60 feet"
            },
            "size": {
                "value": "huge"
            },
            "traits": {
                "custom": "",
                "value": [
                    "animal"
                ]
            }
        }
    },
    "flags": {
        "pf2e_updatednpcsheet": {}
    },
    "img": "icons/svg/mystery-man.svg",
    "items": [
        {
            "_id": "oC4rXv11i7sVgw4k",
            "data": {
                "attack": {
                    "value": ""
                },
                "attackEffects": {
                    "value": [
                        "mucus"
                    ]
                },
                "bonus": {
                    "total": 21,
                    "value": 21
                },
                "brokenThreshold": {
                    "value": 0
                },
                "bulkCapacity": {
                    "value": ""
                },
                "collapsed": {
                    "value": false
                },
                "containerId": {
                    "value": ""
                },
                "damage": {
                    "damageType": "slashing",
                    "die": "2d10+10"
                },
                "damageRolls": [
                    {
                        "damage": "2d10+10",
                        "damageType": "slashing"
                    }
                ],
                "description": {
                    "chat": "",
                    "unidentified": "",
                    "value": ""
                },
                "equipped": {
                    "value": false
                },
                "equippedBulk": {
                    "value": ""
                },
                "hardness": {
                    "value": 0
                },
                "hp": {
                    "value": 0
                },
                "identified": {
                    "value": false
                },
                "invested": {
                    "value": false
                },
                "maxHp": {
                    "value": 0
                },
                "negateBulk": {
                    "value": "0"
                },
                "preciousMaterial": {
                    "value": ""
                },
                "preciousMaterialGrade": {
                    "value": ""
                },
                "price": {
                    "value": 0
                },
                "property1": {
                    "critDamage": "",
                    "critDamageType": "",
                    "critDice": 0,
                    "critDie": "",
                    "damageType": "",
                    "dice": 0,
                    "die": "",
                    "value": ""
                },
                "property2": {
                    "critDamage": "",
                    "critDamageType": "",
                    "critDice": 0,
                    "critDie": "",
                    "damageType": "",
                    "dice": 0,
                    "die": "",
                    "value": ""
                },
                "property3": {
                    "critDamage": "",
                    "critDamageType": "",
                    "critDice": 0,
                    "critDie": "",
                    "damageType": "",
                    "dice": 0,
                    "die": "",
                    "value": ""
                },
                "quantity": {
                    "value": 1
                },
                "rarity": {
                    "value": "common"
                },
                "source": {
                    "value": ""
                },
                "stackGroup": {
                    "value": ""
                },
                "traits": {
                    "value": [
                        "reach 15 feet"
                    ]
                },
                "usage": {
                    "value": "held-in-one-hand"
                },
                "weight": {
                    "value": 0
                }
            },
            "flags": {
                "pf2e_updatednpcsheet": {}
            },
            "img": "icons/svg/mystery-man.svg",
            "name": "Radula",
            "sort": 100000,
            "type": "melee"
        },
        {
            "_id": "GBBCSikxVuTyL14m",
            "data": {
                "attack": {
                    "value": ""
                },
                "attackEffects": {
                    "value": [
                        "mucus"
                    ]
                },
                "bonus": {
                    "total": 21,
                    "value": 21
                },
                "brokenThreshold": {
                    "value": 0
                },
                "bulkCapacity": {
                    "value": ""
                },
                "collapsed": {
                    "value": false
                },
                "containerId": {
                    "value": ""
                },
                "damage": {
                    "damageType": "bludgeoning",
                    "die": "2d8+10"
                },
                "damageRolls": [
                    {
                        "damage": "2d8+10",
                        "damageType": "bludgeoning"
                    }
                ],
                "description": {
                    "chat": "",
                    "unidentified": "",
                    "value": ""
                },
                "equipped": {
                    "value": false
                },
                "equippedBulk": {
                    "value": ""
                },
                "hardness": {
                    "value": 0
                },
                "hp": {
                    "value": 0
                },
                "identified": {
                    "value": false
                },
                "invested": {
                    "value": false
                },
                "maxHp": {
                    "value": 0
                },
                "negateBulk": {
                    "value": "0"
                },
                "preciousMaterial": {
                    "value": ""
                },
                "preciousMaterialGrade": {
                    "value": ""
                },
                "price": {
                    "value": 0
                },
                "property1": {
                    "critDamage": "",
                    "critDamageType": "",
                    "critDice": 0,
                    "critDie": "",
                    "damageType": "",
                    "dice": 0,
                    "die": "",
                    "value": ""
                },
                "property2": {
                    "critDamage": "",
                    "critDamageType": "",
                    "critDice": 0,
                    "critDie": "",
                    "damageType": "",
                    "dice": 0,
                    "die": "",
                    "value": ""
                },
                "property3": {
                    "critDamage": "",
                    "critDamageType": "",
                    "critDice": 0,
                    "critDie": "",
                    "damageType": "",
                    "dice": 0,
                    "die": "",
                    "value": ""
                },
                "quantity": {
                    "value": 1
                },
                "rarity": {
                    "value": "common"
                },
                "source": {
                    "value": ""
                },
                "stackGroup": {
                    "value": ""
                },
                "traits": {
                    "value": [
                        "reach 10 feet"
                    ]
                },
                "usage": {
                    "value": "held-in-one-hand"
                },
                "weight": {
                    "value": 0
                }
            },
            "flags": {
                "pf2e_updatednpcsheet": {}
            },
            "img": "icons/svg/mystery-man.svg",
            "name": "Foot",
            "sort": 200000,
            "type": "melee"
        },
        {
            "_id": "WdzuTa2nPDcswvjz",
            "data": {
                "attack": {
                    "value": ""
                },
                "attackEffects": {
                    "value": [
                        "mucus"
                    ]
                },
                "bonus": {
                    "total": 17,
                    "value": 17
                },
                "brokenThreshold": {
                    "value": 0
                },
                "bulkCapacity": {
                    "value": ""
                },
                "collapsed": {
                    "value": false
                },
                "containerId": {
                    "value": ""
                },
                "damage": {
                    "damageType": "aciddamage",
                    "die": "3d6"
                },
                "damageRolls": [
                    {
                        "damage": "3d6",
                        "damageType": "aciddamage"
                    },
                    {
                        "damage": "1d6",
                        "damageType": "acidsplashdamage"
                    }
                ],
                "description": {
                    "chat": "",
                    "unidentified": "",
                    "value": ""
                },
                "equipped": {
                    "value": false
                },
                "equippedBulk": {
                    "value": ""
                },
                "hardness": {
                    "value": 0
                },
                "hp": {
                    "value": 0
                },
                "identified": {
                    "value": false
                },
                "invested": {
                    "value": false
                },
                "maxHp": {
                    "value": 0
                },
                "negateBulk": {
                    "value": "0"
                },
                "preciousMaterial": {
                    "value": ""
                },
                "preciousMaterialGrade": {
                    "value": ""
                },
                "price": {
                    "value": 0
                },
                "property1": {
                    "critDamage": "",
                    "critDamageType": "",
                    "critDice": 0,
                    "critDie": "",
                    "damageType": "",
                    "dice": 0,
                    "die": "",
                    "value": ""
                },
                "property2": {
                    "critDamage": "",
                    "critDamageType": "",
                    "critDice": 0,
                    "critDie": "",
                    "damageType": "",
                    "dice": 0,
                    "die": "",
                    "value": ""
                },
                "property3": {
                    "critDamage": "",
                    "critDamageType": "",
                    "critDice": 0,
                    "critDie": "",
                    "damageType": "",
                    "dice": 0,
                    "die": "",
                    "value": ""
                },
                "quantity": {
                    "value": 1
                },
                "rarity": {
                    "value": "common"
                },
                "source": {
                    "value": ""
                },
                "stackGroup": {
                    "value": ""
                },
                "traits": {
                    "value": [
                        "brutal",
                        "range increment 50 feet",
                        "splash"
                    ]
                },
                "usage": {
                    "value": "held-in-one-hand"
                },
                "weaponType": {
                    "value": "ranged"
                },
                "weight": {
                    "value": 0
                }
            },
            "flags": {
                "pf2e_updatednpcsheet": {}
            },
            "img": "icons/svg/mystery-man.svg",
            "name": "Disgorged Mucus",
            "sort": 300000,
            "type": "melee"
        },
        {
            "_id": "5WLytdwKYQa3JLh7",
            "data": {
                "actionCategory": {
                    "value": "offensive"
                },
                "actionType": {
                    "value": "passive"
                },
                "actions": {
                    "value": ""
                },
                "description": {
                    "chat": "",
                    "unidentified": "",
                    "value": "The giant slug can fit through tight spaces as if it were a Large creature. While @Compendium[pf2e.actionspf2e.Squeeze]{Squeezing}, it can move at its full Speed. It can Squeeze through spaces that typically fit only a Medium creature, but it does so at the usual Speed for Squeezing."
                },
                "rarity": {
                    "value": "common"
                },
                "requirements": {
                    "value": ""
                },
                "skill_requirements": {
                    "rank": "",
                    "skill": ""
                },
                "source": {
                    "value": ""
                },
                "traits": {
                    "value": []
                },
                "trigger": {
                    "value": ""
                },
                "usage": {
                    "value": "held-in-one-hand"
                },
                "weapon": {
                    "value": ""
                }
            },
            "flags": {},
            "img": "icons/svg/mystery-man.svg",
            "name": "Malleable",
            "sort": 400000,
            "type": "action"
        },
        {
            "_id": "72YvqHEAOHV34zLK",
            "data": {
                "actionCategory": {
                    "value": "offensive"
                },
                "actionType": {
                    "value": "passive"
                },
                "actions": {
                    "value": ""
                },
                "description": {
                    "chat": "",
                    "unidentified": "",
                    "value": "Any creature hit by the giant slug or that moves into its mucus trail is coated in sticky, caustic mucus. It takes 1d4 @Compendium[pf2e.conditionitems.Persistent Damage]{Persistent Damage} and takes a -5-foot status penalty to its Speeds while the damage persists."
                },
                "rarity": {
                    "value": "common"
                },
                "requirements": {
                    "value": ""
                },
                "skill_requirements": {
                    "rank": "",
                    "skill": ""
                },
                "source": {
                    "value": ""
                },
                "traits": {
                    "value": []
                },
                "trigger": {
                    "value": ""
                },
                "usage": {
                    "value": "held-in-one-hand"
                },
                "weapon": {
                    "value": ""
                }
            },
            "flags": {},
            "img": "icons/svg/mystery-man.svg",
            "name": "Mucus",
            "sort": 500000,
            "type": "action"
        },
        {
            "_id": "3s66FP7raqgSCnP1",
            "data": {
                "actionCategory": {
                    "value": "offensive"
                },
                "actionType": {
                    "value": "passive"
                },
                "actions": {
                    "value": ""
                },
                "description": {
                    "chat": "",
                    "unidentified": "",
                    "value": "Any square the giant slug moves into is coated in mucus. These spaces are difficult terrain, and any creature that moves into one or ends its turn in one is subjected to the slug's mucus. After an hour, the mucus dries and the area is no longer difficult terrain."
                },
                "rarity": {
                    "value": "common"
                },
                "requirements": {
                    "value": ""
                },
                "skill_requirements": {
                    "rank": "",
                    "skill": ""
                },
                "source": {
                    "value": ""
                },
                "traits": {
                    "value": []
                },
                "trigger": {
                    "value": ""
                },
                "usage": {
                    "value": "held-in-one-hand"
                },
                "weapon": {
                    "value": ""
                }
            },
            "flags": {},
            "img": "icons/svg/mystery-man.svg",
            "name": "Mucus Trail",
            "sort": 600000,
            "type": "action"
        },
        {
            "_id": "f2oBf0FhELPtDfWN",
            "data": {
                "actionCategory": {
                    "value": "offensive"
                },
                "actionType": {
                    "value": "action"
                },
                "actions": {
                    "value": 3
                },
                "description": {
                    "chat": "",
                    "unidentified": "",
                    "value": "Large or smaller, foot, DC 27<br />The monster Strides up to double its Speed and can move through the spaces of creatures of the listed size, Trampling each creature whose space it enters. The monster can attempt to Trample the same creature only once in a single use of Trample. The monster deals the damage of the listed Strike, but trampled creatures can attempt a basic Reflex save at the listed DC."
                },
                "rarity": {
                    "value": "common"
                },
                "requirements": {
                    "value": ""
                },
                "skill_requirements": {
                    "rank": "",
                    "skill": ""
                },
                "source": {
                    "value": ""
                },
                "traits": {
                    "value": []
                },
                "trigger": {
                    "value": ""
                },
                "usage": {
                    "value": "held-in-one-hand"
                },
                "weapon": {
                    "value": ""
                }
            },
            "flags": {},
            "img": "icons/svg/mystery-man.svg",
            "name": "Trample",
            "sort": 700000,
            "type": "action"
        },
        {
            "_id": "UNiSMnzzbAPqSBPl",
            "data": {
                "description": {
                    "chat": "",
                    "unidentified": "",
                    "value": ""
                },
                "featType": "",
                "item": {
                    "value": 0
                },
                "mod": {
                    "value": 19
                },
                "proficient": {
                    "value": 0
                },
                "rarity": {
                    "value": "common"
                },
                "source": {
                    "value": ""
                },
                "traits": {
                    "value": []
                },
                "usage": {
                    "value": "held-in-one-hand"
                }
            },
            "flags": {},
            "img": "icons/svg/mystery-man.svg",
            "name": "Athletics",
            "sort": 800000,
            "type": "lore"
        }
    ],
    "name": "Giant Slug",
    "permission": {
        "default": 0
    },
    "token": {
        "actorData": {},
        "actorId": "g1htYgARxNKxc7MV",
        "actorLink": false,
        "bar1": {
            "attribute": "attributes.hp"
        },
        "bar2": {},
        "brightLight": 0,
        "brightSight": 0,
        "dimLight": 0,
        "dimSight": 0,
        "displayBars": 20,
        "displayName": 20,
        "disposition": -1,
        "flags": {},
        "height": 3,
        "img": "icons/svg/mystery-man.svg",
        "lightAlpha": 1,
        "lightAngle": 360,
        "lockRotation": false,
        "name": "Giant Slug",
        "randomImg": false,
        "rotation": 0,
        "scale": 1,
        "sightAngle": 360,
        "tint": null,
        "vision": false,
        "width": 3
    },
    "type": "npc"
}
