{
    "_id": "TzdLLC68qlgrn91m",
    "data": {
        "abilities": {
            "cha": {
                "min": 3,
                "mod": 3,
                "value": 16
            },
            "con": {
                "min": 3,
                "mod": 6,
                "value": 22
            },
            "dex": {
                "min": 3,
                "mod": 5,
                "value": 20
            },
            "int": {
                "min": 3,
                "mod": 0,
                "value": 10
            },
            "str": {
                "min": 3,
                "mod": "+7",
                "value": 24
            },
            "wis": {
                "min": 3,
                "mod": 5,
                "value": 20
            }
        },
        "attributes": {
            "ac": {
                "check": 0,
                "details": "",
                "dex": 0,
                "item": 0,
                "min": 0,
                "value": "29"
            },
            "allSaves": {
                "value": ""
            },
            "ancestryhp": 0,
            "bonusEncumbranceBulk": 0,
            "bonusLimitBulk": 0,
            "classDC": {
                "ability": "str",
                "breakdown": "",
                "item": 0,
                "rank": 0,
                "value": 0
            },
            "classhp": 0,
            "flatbonushp": 0,
            "flatbonussp": 0,
            "hp": {
                "details": "",
                "max": "175",
                "min": 0,
                "temp": 0,
                "tempmax": 0,
                "value": "175"
            },
            "init": {
                "bonus": 0,
                "value": 0
            },
            "initiative": {
                "ability": "",
                "circumstance": 0,
                "status": 0
            },
            "levelbonushp": 0,
            "levelbonussp": 0,
            "perception": {
                "ability": "wis",
                "breakdown": "",
                "item": 0,
                "rank": 0,
                "value": 19
            },
            "resolve": {
                "value": 0
            },
            "shield": {
                "ac": 0,
                "brokenThreshold": 0,
                "hardness": 0,
                "max": 0,
                "min": 0,
                "value": 0
            },
            "sp": {
                "details": "",
                "max": 0,
                "min": 0,
                "value": 0
            },
            "speed": {
                "otherSpeeds": [
                    {
                        "type": "Fly",
                        "value": "25 feet"
                    }
                ],
                "special": "",
                "value": "5 feet"
            }
        },
        "currency": {
            "cp": {
                "value": 0
            },
            "gp": {
                "value": 0
            },
            "pp": {
                "value": 0
            },
            "sp": {
                "value": 0
            }
        },
        "details": {
            "alignment": {
                "value": "CE"
            },
            "ancestry": {
                "value": "Qlippoth"
            },
            "biography": {
                "public": "",
                "value": ""
            },
            "class": {
                "value": ""
            },
            "creatureType": "Fiend",
            "deity": {
                "image": "systems/pf2e/assets/sheet/deity.png",
                "value": ""
            },
            "flavorText": "Little more than a coiled mass of intestines encircling a massive gaping maw, this qlippoth is an Abyssal scavenger, subsisting on the filth and leftovers of demons and qlippoth alike, although it relishes any opportunity to consume living prey. Despite this seeming lowly role in the Abyssal ecosystem, a nyogoth is far from a stupid beast and can orchestrate cunning ambushes to secure its next meal.<br /><br />",
            "flavourText": "",
            "heritage": {
                "value": ""
            },
            "keyability": {
                "value": "str"
            },
            "level": {
                "min": 1,
                "value": "10"
            },
            "nethysUrl": "https://2e.aonprd.com/Monsters.aspx?ID=774",
            "recallKnowledgeText": "Recall Knowledge - Fiend : DC 29",
            "sidebarText": "",
            "source": {
                "value": "Bestiary 2 pg. 214"
            }
        },
        "martial": {
            "advanced": {
                "breakdown": "",
                "rank": 0,
                "value": 0
            },
            "heavy": {
                "breakdown": "",
                "rank": 0,
                "value": 0
            },
            "light": {
                "breakdown": "",
                "rank": 0,
                "value": 0
            },
            "martial": {
                "breakdown": "",
                "rank": 0,
                "value": 0
            },
            "medium": {
                "breakdown": "",
                "rank": 0,
                "value": 0
            },
            "simple": {
                "breakdown": "",
                "rank": 0,
                "value": 0
            },
            "unarmed": {
                "breakdown": "",
                "rank": 0,
                "value": 0
            },
            "unarmored": {
                "breakdown": "",
                "rank": 0,
                "value": 0
            }
        },
        "saves": {
            "fortitude": {
                "ability": "con",
                "breakdown": "",
                "item": 0,
                "rank": 0,
                "saveDetail": "",
                "value": 20
            },
            "reflex": {
                "ability": "dex",
                "breakdown": "",
                "item": 0,
                "rank": 0,
                "saveDetail": "",
                "value": 19
            },
            "will": {
                "ability": "wis",
                "breakdown": "",
                "item": 0,
                "rank": 0,
                "saveDetail": "",
                "value": 16
            }
        },
        "schema": {
            "version": {
                "value": ""
            }
        },
        "skills": {
            "acr": {
                "ability": "dex",
                "armor": 1,
                "breakdown": "",
                "item": 0,
                "mod": 0,
                "rank": 0,
                "value": 0
            },
            "arc": {
                "ability": "int",
                "breakdown": "",
                "item": 0,
                "mod": 0,
                "rank": 0,
                "value": 0
            },
            "ath": {
                "ability": "str",
                "armor": 1,
                "breakdown": "",
                "item": 0,
                "mod": 0,
                "rank": 0,
                "value": 0
            },
            "cra": {
                "ability": "int",
                "breakdown": "",
                "item": 0,
                "mod": 0,
                "rank": 0,
                "value": 0
            },
            "dec": {
                "ability": "cha",
                "breakdown": "",
                "item": 0,
                "mod": 0,
                "rank": 0,
                "value": 0
            },
            "dip": {
                "ability": "cha",
                "breakdown": "",
                "item": 0,
                "mod": 0,
                "rank": 0,
                "value": 0
            },
            "itm": {
                "ability": "cha",
                "breakdown": "",
                "item": 0,
                "mod": 0,
                "rank": 0,
                "value": 0
            },
            "med": {
                "ability": "wis",
                "breakdown": "",
                "item": 0,
                "mod": 0,
                "rank": 0,
                "value": 0
            },
            "nat": {
                "ability": "wis",
                "breakdown": "",
                "item": 0,
                "mod": 0,
                "rank": 0,
                "value": 0
            },
            "occ": {
                "ability": "int",
                "breakdown": "",
                "item": 0,
                "mod": 0,
                "rank": 0,
                "value": 0
            },
            "prf": {
                "ability": "cha",
                "breakdown": "",
                "item": 0,
                "mod": 0,
                "rank": 0,
                "value": 0
            },
            "rel": {
                "ability": "wis",
                "breakdown": "",
                "item": 0,
                "mod": 0,
                "rank": 0,
                "value": 0
            },
            "soc": {
                "ability": "int",
                "breakdown": "",
                "item": 0,
                "mod": 0,
                "rank": 0,
                "value": 0
            },
            "ste": {
                "ability": "dex",
                "armor": 1,
                "breakdown": "",
                "item": 0,
                "mod": 0,
                "rank": 0,
                "value": 0
            },
            "sur": {
                "ability": "wis",
                "breakdown": "",
                "item": 0,
                "mod": 0,
                "rank": 0,
                "value": 0
            },
            "thi": {
                "ability": "dex",
                "armor": 1,
                "breakdown": "",
                "item": 0,
                "mod": 0,
                "rank": 0,
                "value": 0
            }
        },
        "spells": {
            "spell0": {
                "max": 0
            },
            "spell1": {
                "max": 0
            },
            "spell10": {
                "max": 0
            },
            "spell11": {
                "max": 0
            },
            "spell2": {
                "max": 0
            },
            "spell3": {
                "max": 0
            },
            "spell4": {
                "max": 0
            },
            "spell5": {
                "max": 0
            },
            "spell6": {
                "max": 0
            },
            "spell7": {
                "max": 0
            },
            "spell8": {
                "max": 0
            },
            "spell9": {
                "max": 0
            }
        },
        "statusEffects": [],
        "traits": {
            "ci": [],
            "di": {
                "custom": "",
                "value": [
                    "acid",
                    "controlled",
                    "fear effects"
                ]
            },
            "dr": [
                {
                    "label": "Mental",
                    "type": "mental",
                    "value": "10"
                },
                {
                    "exceptions": "cold iron",
                    "label": "Physical",
                    "type": "physical",
                    "value": "10"
                }
            ],
            "dv": [
                {
                    "label": "Lawful",
                    "type": "lawful",
                    "value": "10"
                }
            ],
            "languages": {
                "custom": "telepathy 100 ft.",
                "selected": [],
                "value": [
                    "abyssal",
                    "custom"
                ]
            },
            "rarity": {
                "value": "uncommon"
            },
            "senses": {
                "value": "darkvision"
            },
            "size": {
                "value": "med"
            },
            "traits": {
                "custom": "",
                "value": [
                    "fiend",
                    "qlippoth"
                ]
            }
        }
    },
    "flags": {
        "pf2e_updatednpcsheet": {}
    },
    "img": "icons/svg/mystery-man.svg",
    "items": [
        {
            "_id": "nQJ4bCNSLy7MFyXP",
            "data": {
                "ability": {
                    "value": ""
                },
                "description": {
                    "chat": "",
                    "unidentified": "",
                    "value": ""
                },
                "displayLevel": {},
                "displayLevels": {},
                "focus": {
                    "points": 1,
                    "pool": 1
                },
                "item": {
                    "value": 0
                },
                "prepared": {
                    "value": "Innate"
                },
                "proficiency": {
                    "value": 0
                },
                "rarity": {
                    "value": "common"
                },
                "showUnpreparedSpells": {
                    "value": false
                },
                "slots": {
                    "slot0": {
                        "max": 0,
                        "prepared": [],
                        "value": 0
                    },
                    "slot1": {
                        "max": 0,
                        "prepared": [],
                        "value": 0
                    },
                    "slot10": {
                        "max": 0,
                        "prepared": [],
                        "value": 0
                    },
                    "slot11": {
                        "max": 0,
                        "prepared": [],
                        "value": 0
                    },
                    "slot2": {
                        "max": 0,
                        "prepared": [],
                        "value": 0
                    },
                    "slot3": {
                        "max": 0,
                        "prepared": [],
                        "value": 0
                    },
                    "slot4": {
                        "max": 0,
                        "prepared": [],
                        "value": 0
                    },
                    "slot5": {
                        "max": 0,
                        "prepared": [],
                        "value": 0
                    },
                    "slot6": {
                        "max": 0,
                        "prepared": [],
                        "value": 0
                    },
                    "slot7": {
                        "max": 0,
                        "prepared": [],
                        "value": 0
                    },
                    "slot8": {
                        "max": 0,
                        "prepared": [],
                        "value": 0
                    },
                    "slot9": {
                        "max": 0,
                        "prepared": [],
                        "value": 0
                    }
                },
                "source": {
                    "value": ""
                },
                "spelldc": {
                    "dc": "26",
                    "item": 0,
                    "mod": 0,
                    "value": 20
                },
                "tradition": {
                    "value": "occult"
                },
                "traits": {
                    "value": []
                },
                "usage": {
                    "value": "held-in-one-hand"
                }
            },
            "flags": {},
            "img": "icons/svg/mystery-man.svg",
            "name": "Occult Innate Spells",
            "sort": 100000,
            "type": "spellcastingEntry"
        },
        {
            "_id": "nKIx5Vo7bnB5h2VK",
            "data": {
                "ability": {
                    "label": "Spellcasting Ability",
                    "type": "String",
                    "value": ""
                },
                "area": {
                    "areaType": "",
                    "label": "Area",
                    "type": "String",
                    "value": null
                },
                "components": {
                    "label": "Spell Components",
                    "type": "String",
                    "value": "material, somatic, verbal"
                },
                "cost": {
                    "label": "Cost",
                    "type": "String",
                    "value": ""
                },
                "damage": {
                    "applyMod": false,
                    "label": "Spell Damage",
                    "type": "String",
                    "value": "6d8"
                },
                "damageType": {
                    "label": "Damage Type",
                    "type": "String",
                    "value": ""
                },
                "description": {
                    "chat": "",
                    "label": "Description",
                    "type": "String",
                    "unidentified": "",
                    "value": "<p>You conjure a poisonous fog. This functions as obscuring mist, except the area moves 10 feet away from you each round. You deal 6d8 poison damage to each breathing creature that starts its turn in the spell's area. You can Dismiss the spell.</p>\n<hr />\n<p><strong>Heightened</strong>  The damage increases by 1d8.</p>"
                },
                "duration": {
                    "label": "Duration",
                    "type": "String",
                    "value": "1 minute"
                },
                "level": {
                    "label": "Spell Level",
                    "type": "Number",
                    "value": 5
                },
                "location": {
                    "value": "nQJ4bCNSLy7MFyXP"
                },
                "materials": {
                    "label": "Materials",
                    "type": "String",
                    "value": ""
                },
                "prepared": {
                    "label": "Prepared Spell",
                    "type": "String",
                    "value": ""
                },
                "range": {
                    "label": "Range",
                    "type": "String",
                    "value": "120 feet"
                },
                "rarity": {
                    "value": "common"
                },
                "save": {
                    "basic": "",
                    "label": "Saving Throw",
                    "type": "String",
                    "value": ""
                },
                "scaling": {
                    "formula": "",
                    "mode": "none"
                },
                "school": {
                    "label": "Spell School",
                    "type": "String",
                    "value": "nec"
                },
                "source": {
                    "label": "Source",
                    "type": "String",
                    "value": "https://2e.aonprd.com/Spells.aspx?ID=42"
                },
                "spellCategory": {
                    "value": ""
                },
                "spellType": {
                    "label": "Spell Type",
                    "type": "String",
                    "value": "save"
                },
                "sustained": {
                    "label": "Can be Sustained",
                    "type": "Boolean",
                    "value": false
                },
                "target": {
                    "label": "Target",
                    "type": "String",
                    "value": ""
                },
                "time": {
                    "label": "Casting Time",
                    "type": "String",
                    "value": "3"
                },
                "traditions": {
                    "label": "Spell Traditions",
                    "type": "String",
                    "value": [
                        "arcane",
                        "primal"
                    ]
                },
                "traits": {
                    "label": "Spell Traits",
                    "type": "String",
                    "value": [
                        "death",
                        "necromancy",
                        "potion"
                    ]
                },
                "usage": {
                    "value": "held-in-one-hand"
                }
            },
            "flags": {},
            "img": "systems/pf2e/icons/spells/cloudkill.jpg",
            "name": "Cloudkill",
            "sort": 200000,
            "type": "spell"
        },
        {
            "_id": "JRFyIylzGczyjUui",
            "data": {
                "ability": {
                    "label": "Spellcasting Ability",
                    "type": "String",
                    "value": ""
                },
                "area": {
                    "areaType": "",
                    "label": "Area",
                    "type": "String",
                    "value": null
                },
                "components": {
                    "label": "Spell Components",
                    "type": "String",
                    "value": "somatic, verbal"
                },
                "cost": {
                    "label": "Cost",
                    "type": "String",
                    "value": ""
                },
                "damage": {
                    "applyMod": false,
                    "label": "Spell Damage",
                    "type": "String",
                    "value": "3d8"
                },
                "damageType": {
                    "label": "Damage Type",
                    "type": "String",
                    "value": "acid"
                },
                "description": {
                    "chat": "",
                    "label": "Description",
                    "type": "String",
                    "unidentified": "",
                    "value": "<p>You conjure an arrow of acid that continues corroding the target after it hits. Make a spell attack against the target. On a hit, you deal 3d8 acid damage plus 1d6 persistent acid damage. On a critical hit, double the initial damage, but not the @Compendium[pf2e.conditionitems.Persistent Damage]{Persistent Damage}.</p>\n<hr />\n<p><strong>Heightened</strong>  The initial damage increases by 2d8, and the persistent acid damage increases by 1d6.</p>"
                },
                "duration": {
                    "label": "Duration",
                    "type": "String",
                    "value": ""
                },
                "level": {
                    "label": "Spell Level",
                    "type": "Number",
                    "value": "4"
                },
                "location": {
                    "value": "nQJ4bCNSLy7MFyXP"
                },
                "materials": {
                    "label": "Materials",
                    "type": "String",
                    "value": ""
                },
                "prepared": {
                    "label": "Prepared Spell",
                    "type": "String",
                    "value": ""
                },
                "range": {
                    "label": "Range",
                    "type": "String",
                    "value": "120 feet"
                },
                "rarity": {
                    "value": "common"
                },
                "save": {
                    "basic": "",
                    "label": "Saving Throw",
                    "type": "String",
                    "value": ""
                },
                "scaling": {
                    "formula": "",
                    "mode": "none"
                },
                "school": {
                    "label": "Spell School",
                    "type": "String",
                    "value": "evo"
                },
                "source": {
                    "label": "Source",
                    "type": "String",
                    "value": "https://2e.aonprd.com/Spells.aspx?ID=2"
                },
                "spellCategory": {
                    "value": ""
                },
                "spellType": {
                    "label": "Spell Type",
                    "type": "String",
                    "value": "attack"
                },
                "sustained": {
                    "label": "Can be Sustained",
                    "type": "Boolean",
                    "value": false
                },
                "target": {
                    "label": "Target",
                    "type": "String",
                    "value": "1 creature or object"
                },
                "time": {
                    "label": "Casting Time",
                    "type": "String",
                    "value": "2"
                },
                "traditions": {
                    "label": "Spell Traditions",
                    "type": "String",
                    "value": [
                        "arcane",
                        "primal"
                    ]
                },
                "traits": {
                    "label": "Spell Traits",
                    "type": "String",
                    "value": [
                        "acid",
                        "attack",
                        "evocation"
                    ]
                },
                "usage": {
                    "value": "held-in-one-hand"
                }
            },
            "flags": {},
            "img": "systems/pf2e/icons/spells/acid-arrow.jpg",
            "name": "Acid Arrow ",
            "sort": 300000,
            "type": "spell"
        },
        {
            "_id": "EalSatSahOPR3aOn",
            "data": {
                "ability": {
                    "label": "Spellcasting Ability",
                    "type": "String",
                    "value": ""
                },
                "area": {
                    "areaType": "",
                    "label": "Area",
                    "type": "String",
                    "value": null
                },
                "components": {
                    "label": "Spell Components",
                    "type": "String",
                    "value": "somatic, verbal"
                },
                "cost": {
                    "label": "Cost",
                    "type": "String",
                    "value": ""
                },
                "damage": {
                    "applyMod": false,
                    "label": "Spell Damage",
                    "type": "String",
                    "value": ""
                },
                "damageType": {
                    "label": "Damage Type",
                    "type": "String",
                    "value": ""
                },
                "description": {
                    "chat": "",
                    "label": "Description",
                    "type": "String",
                    "unidentified": "",
                    "value": "<p>Opening a door that bypasses normal space, you instantly transport yourself and any items you're wearing and holding from your current space to a clear space within range you can see. If this would bring another creature with you-even if you're carrying it in an extradimensional container-the spell is lost.</p>\n<hr />\n<p><strong>Heightened</strong>  The range increases to 1 mile. You don't need to be able to see your destination, as long as you have been there in the past and know its relative location and distance from you. You are temporarily immune for 1 hour.</p>"
                },
                "duration": {
                    "label": "Duration",
                    "type": "String",
                    "value": ""
                },
                "level": {
                    "label": "Spell Level",
                    "type": "Number",
                    "value": 4
                },
                "location": {
                    "value": "nQJ4bCNSLy7MFyXP"
                },
                "materials": {
                    "label": "Materials",
                    "type": "String",
                    "value": ""
                },
                "prepared": {
                    "label": "Prepared Spell",
                    "type": "String",
                    "value": ""
                },
                "range": {
                    "label": "Range",
                    "type": "String",
                    "value": "120 feet"
                },
                "rarity": {
                    "value": "common"
                },
                "save": {
                    "basic": "",
                    "label": "Saving Throw",
                    "type": "String",
                    "value": ""
                },
                "scaling": {
                    "formula": "",
                    "mode": "none"
                },
                "school": {
                    "label": "Spell School",
                    "type": "String",
                    "value": "con"
                },
                "source": {
                    "label": "Source",
                    "type": "String",
                    "value": "https://2e.aonprd.com/Spells.aspx?ID=69"
                },
                "spellCategory": {
                    "value": ""
                },
                "spellType": {
                    "label": "Spell Type",
                    "type": "String",
                    "value": "utility"
                },
                "sustained": {
                    "label": "Can be Sustained",
                    "type": "Boolean",
                    "value": false
                },
                "target": {
                    "label": "Target",
                    "type": "String",
                    "value": ""
                },
                "time": {
                    "label": "Casting Time",
                    "type": "String",
                    "value": "2"
                },
                "traditions": {
                    "label": "Spell Traditions",
                    "type": "String",
                    "value": [
                        "arcane",
                        "occult"
                    ]
                },
                "traits": {
                    "label": "Spell Traits",
                    "type": "String",
                    "value": [
                        "conjuration",
                        "teleportation"
                    ]
                },
                "usage": {
                    "value": "held-in-one-hand"
                }
            },
            "flags": {},
            "img": "systems/pf2e/icons/spells/dimension-door.jpg",
            "name": "Dimension Door",
            "sort": 400000,
            "type": "spell"
        },
        {
            "_id": "61F4Zq5558XtgOh3",
            "data": {
                "ability": {
                    "label": "Spellcasting Ability",
                    "type": "String",
                    "value": ""
                },
                "area": {
                    "areaType": "",
                    "label": "Area",
                    "type": "String",
                    "value": null
                },
                "components": {
                    "label": "Spell Components",
                    "type": "String",
                    "value": "somatic, verbal"
                },
                "cost": {
                    "label": "Cost",
                    "type": "String",
                    "value": ""
                },
                "damage": {
                    "applyMod": false,
                    "label": "Spell Damage",
                    "type": "String",
                    "value": ""
                },
                "damageType": {
                    "label": "Damage Type",
                    "type": "String",
                    "value": "mental"
                },
                "description": {
                    "chat": "",
                    "label": "Description",
                    "type": "String",
                    "unidentified": "",
                    "value": "<p>You plant fear in the target; it must attempt a Will save.</p>\r<p>\n<hr /><b>Critical Success</b> The target is unaffected.</p>\r<p>\n<b>Success</b> The target is @Compendium[pf2e.conditionitems.Frightened]{Frightened} 1.</p>\r<p>\n<b>Failure</b> The target is @Compendium[pf2e.conditionitems.Frightened]{Frightened} 2.</p>\r<p>\n<b>Critical Failure</b> The target is @Compendium[pf2e.conditionitems.Frightened]{Frightened} 3 and @Compendium[pf2e.conditionitems.Fleeing]{Fleeing} for 1 round.</p>\r<p>\n<hr /><b>Heightened </b> You can target up to five creatures.</p>"
                },
                "duration": {
                    "label": "Duration",
                    "type": "String",
                    "value": "varies"
                },
                "level": {
                    "label": "Spell Level",
                    "type": "Number",
                    "value": "3"
                },
                "location": {
                    "value": "nQJ4bCNSLy7MFyXP"
                },
                "materials": {
                    "label": "Materials",
                    "type": "String",
                    "value": ""
                },
                "prepared": {
                    "label": "Prepared Spell",
                    "type": "String",
                    "value": ""
                },
                "range": {
                    "label": "Range",
                    "type": "String",
                    "value": "30 feet"
                },
                "rarity": {
                    "value": "common"
                },
                "save": {
                    "basic": "",
                    "label": "Saving Throw",
                    "type": "String",
                    "value": "will"
                },
                "scaling": {
                    "formula": "",
                    "mode": "none"
                },
                "school": {
                    "label": "Spell School",
                    "type": "String",
                    "value": "enc"
                },
                "source": {
                    "label": "Source",
                    "type": "String",
                    "value": "https://2e.aonprd.com/Spells.aspx?ID=110"
                },
                "spellCategory": {
                    "value": ""
                },
                "spellType": {
                    "label": "Spell Type",
                    "type": "String",
                    "value": "save"
                },
                "sustained": {
                    "label": "Can be Sustained",
                    "type": "Boolean",
                    "value": false
                },
                "target": {
                    "label": "Target",
                    "type": "String",
                    "value": "1 creature"
                },
                "time": {
                    "label": "Casting Time",
                    "type": "String",
                    "value": "2"
                },
                "traditions": {
                    "label": "Spell Traditions",
                    "type": "String",
                    "value": [
                        "arcane",
                        "divine",
                        "occult",
                        "primal"
                    ]
                },
                "traits": {
                    "label": "Spell Traits",
                    "type": "String",
                    "value": [
                        "emotion",
                        "enchantment",
                        "fear",
                        "mental"
                    ]
                },
                "usage": {
                    "value": "held-in-one-hand"
                }
            },
            "flags": {},
            "img": "systems/pf2e/icons/spells/fear.jpg",
            "name": "Fear ",
            "sort": 500000,
            "type": "spell"
        },
        {
            "_id": "k0yAlAVkZbGrXfX3",
            "data": {
                "attack": {
                    "value": ""
                },
                "attackEffects": {
                    "value": [
                        "and Grab"
                    ]
                },
                "bonus": {
                    "total": 23,
                    "value": 23
                },
                "brokenThreshold": {
                    "value": 0
                },
                "bulkCapacity": {
                    "value": ""
                },
                "collapsed": {
                    "value": false
                },
                "containerId": {
                    "value": ""
                },
                "damage": {
                    "damageType": "piercing",
                    "die": "2d6+13"
                },
                "damageRolls": [
                    {
                        "damage": "2d6+13",
                        "damageType": "piercing"
                    },
                    {
                        "damage": "2d6",
                        "damageType": "acid"
                    },
                    {
                        "damage": "1d6",
                        "damageType": "chaotic"
                    }
                ],
                "description": {
                    "chat": "",
                    "unidentified": "",
                    "value": ""
                },
                "equipped": {
                    "value": false
                },
                "equippedBulk": {
                    "value": ""
                },
                "hardness": {
                    "value": 0
                },
                "hp": {
                    "value": 0
                },
                "identified": {
                    "value": false
                },
                "invested": {
                    "value": false
                },
                "maxHp": {
                    "value": 0
                },
                "negateBulk": {
                    "value": "0"
                },
                "preciousMaterial": {
                    "value": ""
                },
                "preciousMaterialGrade": {
                    "value": ""
                },
                "price": {
                    "value": 0
                },
                "property1": {
                    "critDamage": "",
                    "critDamageType": "",
                    "critDice": 0,
                    "critDie": "",
                    "damageType": "",
                    "dice": 0,
                    "die": "",
                    "value": ""
                },
                "property2": {
                    "critDamage": "",
                    "critDamageType": "",
                    "critDice": 0,
                    "critDie": "",
                    "damageType": "",
                    "dice": 0,
                    "die": "",
                    "value": ""
                },
                "property3": {
                    "critDamage": "",
                    "critDamageType": "",
                    "critDice": 0,
                    "critDie": "",
                    "damageType": "",
                    "dice": 0,
                    "die": "",
                    "value": ""
                },
                "quantity": {
                    "value": 1
                },
                "rarity": {
                    "value": "common"
                },
                "source": {
                    "value": ""
                },
                "stackGroup": {
                    "value": ""
                },
                "traits": {
                    "value": [
                        "chaotic",
                        "magical"
                    ]
                },
                "usage": {
                    "value": "held-in-one-hand"
                },
                "weight": {
                    "value": 0
                }
            },
            "flags": {
                "pf2e_updatednpcsheet": {}
            },
            "img": "icons/svg/mystery-man.svg",
            "name": "Jaws",
            "sort": 600000,
            "type": "melee"
        },
        {
            "_id": "fmHvsMYoy6LDxLkK",
            "data": {
                "attack": {
                    "value": ""
                },
                "attackEffects": {
                    "value": [
                        "and Grab"
                    ]
                },
                "bonus": {
                    "total": 23,
                    "value": 23
                },
                "brokenThreshold": {
                    "value": 0
                },
                "bulkCapacity": {
                    "value": ""
                },
                "collapsed": {
                    "value": false
                },
                "containerId": {
                    "value": ""
                },
                "damage": {
                    "damageType": "piercing",
                    "die": "2d6+13"
                },
                "damageRolls": [
                    {
                        "damage": "2d6+13",
                        "damageType": "piercing"
                    },
                    {
                        "damage": "1d6",
                        "damageType": "acid"
                    },
                    {
                        "damage": "1d6",
                        "damageType": "chaotic"
                    }
                ],
                "description": {
                    "chat": "",
                    "unidentified": "",
                    "value": ""
                },
                "equipped": {
                    "value": false
                },
                "equippedBulk": {
                    "value": ""
                },
                "hardness": {
                    "value": 0
                },
                "hp": {
                    "value": 0
                },
                "identified": {
                    "value": false
                },
                "invested": {
                    "value": false
                },
                "maxHp": {
                    "value": 0
                },
                "negateBulk": {
                    "value": "0"
                },
                "preciousMaterial": {
                    "value": ""
                },
                "preciousMaterialGrade": {
                    "value": ""
                },
                "price": {
                    "value": 0
                },
                "property1": {
                    "critDamage": "",
                    "critDamageType": "",
                    "critDice": 0,
                    "critDie": "",
                    "damageType": "",
                    "dice": 0,
                    "die": "",
                    "value": ""
                },
                "property2": {
                    "critDamage": "",
                    "critDamageType": "",
                    "critDice": 0,
                    "critDie": "",
                    "damageType": "",
                    "dice": 0,
                    "die": "",
                    "value": ""
                },
                "property3": {
                    "critDamage": "",
                    "critDamageType": "",
                    "critDice": 0,
                    "critDie": "",
                    "damageType": "",
                    "dice": 0,
                    "die": "",
                    "value": ""
                },
                "quantity": {
                    "value": 1
                },
                "rarity": {
                    "value": "common"
                },
                "source": {
                    "value": ""
                },
                "stackGroup": {
                    "value": ""
                },
                "traits": {
                    "value": [
                        "agile",
                        "chaotic",
                        "magical",
                        "reach 10 feet"
                    ]
                },
                "usage": {
                    "value": "held-in-one-hand"
                },
                "weight": {
                    "value": 0
                }
            },
            "flags": {
                "pf2e_updatednpcsheet": {}
            },
            "img": "icons/svg/mystery-man.svg",
            "name": "Tentacle Mouth",
            "sort": 700000,
            "type": "melee"
        },
        {
            "_id": "aRmGycM99xyVkKnJ",
            "data": {
                "actionCategory": {
                    "value": "defensive"
                },
                "actionType": {
                    "value": "passive"
                },
                "actions": {
                    "value": ""
                },
                "description": {
                    "chat": "",
                    "unidentified": "",
                    "value": "<b>Trigger</b> The nyogoth takes piercing or slashing damage; <b>Effect</b> The nyogoth sprays its acidic blood on adjacent creatures, dealing [[/r 6d6 # acid damage]] acid damage (DC 29 basic Reflex save)."
                },
                "rarity": {
                    "value": "common"
                },
                "requirements": {
                    "value": ""
                },
                "skill_requirements": {
                    "rank": "",
                    "skill": ""
                },
                "source": {
                    "value": ""
                },
                "traits": {
                    "value": []
                },
                "trigger": {
                    "value": ""
                },
                "usage": {
                    "value": "held-in-one-hand"
                },
                "weapon": {
                    "value": ""
                }
            },
            "flags": {},
            "img": "icons/svg/mystery-man.svg",
            "name": "Caustic Blood ",
            "sort": 800000,
            "type": "action"
        },
        {
            "_id": "V5mIlHkiRCxhndVN",
            "data": {
                "actionCategory": {
                    "value": "offensive"
                },
                "actionType": {
                    "value": "action"
                },
                "actions": {
                    "value": 1
                },
                "description": {
                    "chat": "",
                    "unidentified": "",
                    "value": "<b>Requirement</b> The nyogoth has @Compendium[pf2e.conditionitems.Grabbed]{Grabbed} a creature; <b>Effect</b> The nyogoth slavers and chews at the grabbed creature, dealing 2d6+7 slashing and [[/r 1d6 # acid damage]] acid damage (DC 29 basic Fortitude save)."
                },
                "rarity": {
                    "value": "common"
                },
                "requirements": {
                    "value": ""
                },
                "skill_requirements": {
                    "rank": "",
                    "skill": ""
                },
                "source": {
                    "value": ""
                },
                "traits": {
                    "value": []
                },
                "trigger": {
                    "value": ""
                },
                "usage": {
                    "value": "held-in-one-hand"
                },
                "weapon": {
                    "value": ""
                }
            },
            "flags": {},
            "img": "icons/svg/mystery-man.svg",
            "name": "Feeding Frenzy",
            "sort": 900000,
            "type": "action"
        },
        {
            "_id": "mcIvTT80sYixnl9W",
            "data": {
                "actionCategory": {
                    "value": "offensive"
                },
                "actionType": {
                    "value": "action"
                },
                "actions": {
                    "value": 2
                },
                "description": {
                    "chat": "",
                    "unidentified": "",
                    "value": "The nyogoth untangles its tentacles and prolapses its many mouths, turning itself inside out in a truly nauseating display. Creatures in a 30-foot emanation must attempt a DC 29 Will save, after which they are temporarily immune to further Nauseating Displays for 1 minute. <br /><b>Critical</b> Success The creature is unaffected. <br /><b>Success</b> The creature is @Compendium[pf2e.conditionitems.Sickened]{Sickened} 1. <br /><b>Failure</b> The creature is @Compendium[pf2e.conditionitems.Stunned]{Stunned} 3 and sickened 1. <br /><b>Critical Failure</b> The creature is stunned 5 and sickened 2."
                },
                "rarity": {
                    "value": "common"
                },
                "requirements": {
                    "value": ""
                },
                "skill_requirements": {
                    "rank": "",
                    "skill": ""
                },
                "source": {
                    "value": ""
                },
                "traits": {
                    "value": [
                        "concentrate",
                        "emotion",
                        "enchantment",
                        "fear",
                        "incapacitation",
                        "mental",
                        "occult",
                        "visual"
                    ]
                },
                "trigger": {
                    "value": ""
                },
                "usage": {
                    "value": "held-in-one-hand"
                },
                "weapon": {
                    "value": ""
                }
            },
            "flags": {},
            "img": "icons/svg/mystery-man.svg",
            "name": "Nauseating Display",
            "sort": 1000000,
            "type": "action"
        },
        {
            "_id": "oxh0AN3d64PaBvfW",
            "data": {
                "description": {
                    "chat": "",
                    "unidentified": "",
                    "value": ""
                },
                "featType": "",
                "item": {
                    "value": 0
                },
                "mod": {
                    "value": 21
                },
                "proficient": {
                    "value": 0
                },
                "rarity": {
                    "value": "common"
                },
                "source": {
                    "value": ""
                },
                "traits": {
                    "value": []
                },
                "usage": {
                    "value": "held-in-one-hand"
                }
            },
            "flags": {},
            "img": "icons/svg/mystery-man.svg",
            "name": "Acrobatics",
            "sort": 1100000,
            "type": "lore"
        },
        {
            "_id": "RNCaxNKe0fP3GZrH",
            "data": {
                "description": {
                    "chat": "",
                    "unidentified": "",
                    "value": ""
                },
                "featType": "",
                "item": {
                    "value": 0
                },
                "mod": {
                    "value": 21
                },
                "proficient": {
                    "value": 0
                },
                "rarity": {
                    "value": "common"
                },
                "source": {
                    "value": ""
                },
                "traits": {
                    "value": []
                },
                "usage": {
                    "value": "held-in-one-hand"
                }
            },
            "flags": {},
            "img": "icons/svg/mystery-man.svg",
            "name": "Athletics",
            "sort": 1200000,
            "type": "lore"
        },
        {
            "_id": "1KzZ99vspEesje49",
            "data": {
                "description": {
                    "chat": "",
                    "unidentified": "",
                    "value": ""
                },
                "featType": "",
                "item": {
                    "value": 0
                },
                "mod": {
                    "value": 19
                },
                "proficient": {
                    "value": 0
                },
                "rarity": {
                    "value": "common"
                },
                "source": {
                    "value": ""
                },
                "traits": {
                    "value": []
                },
                "usage": {
                    "value": "held-in-one-hand"
                }
            },
            "flags": {},
            "img": "icons/svg/mystery-man.svg",
            "name": "Intimidation",
            "sort": 1300000,
            "type": "lore"
        },
        {
            "_id": "So5AzMmLIqsvZO9N",
            "data": {
                "description": {
                    "chat": "",
                    "unidentified": "",
                    "value": ""
                },
                "featType": "",
                "item": {
                    "value": 0
                },
                "mod": {
                    "value": 16
                },
                "proficient": {
                    "value": 0
                },
                "rarity": {
                    "value": "common"
                },
                "source": {
                    "value": ""
                },
                "traits": {
                    "value": []
                },
                "usage": {
                    "value": "held-in-one-hand"
                }
            },
            "flags": {},
            "img": "icons/svg/mystery-man.svg",
            "name": "Occultism",
            "sort": 1400000,
            "type": "lore"
        },
        {
            "_id": "vb3SSp042FiIfRBm",
            "data": {
                "description": {
                    "chat": "",
                    "unidentified": "",
                    "value": ""
                },
                "featType": "",
                "item": {
                    "value": 0
                },
                "mod": {
                    "value": 21
                },
                "proficient": {
                    "value": 0
                },
                "rarity": {
                    "value": "common"
                },
                "source": {
                    "value": ""
                },
                "traits": {
                    "value": []
                },
                "usage": {
                    "value": "held-in-one-hand"
                }
            },
            "flags": {},
            "img": "icons/svg/mystery-man.svg",
            "name": "Stealth",
            "sort": 1500000,
            "type": "lore"
        }
    ],
    "name": "Nyogoth",
    "permission": {
        "default": 0
    },
    "token": {
        "actorData": {},
        "actorId": "TzdLLC68qlgrn91m",
        "actorLink": false,
        "bar1": {
            "attribute": "attributes.hp"
        },
        "bar2": {},
        "brightLight": 0,
        "brightSight": 0,
        "dimLight": 0,
        "dimSight": 0,
        "displayBars": 20,
        "displayName": 20,
        "disposition": -1,
        "flags": {},
        "height": 1,
        "img": "icons/svg/mystery-man.svg",
        "lightAlpha": 1,
        "lightAngle": 360,
        "lockRotation": false,
        "name": "Nyogoth",
        "randomImg": false,
        "rotation": 0,
        "scale": 1,
        "sightAngle": 360,
        "tint": null,
        "vision": false,
        "width": 1
    },
    "type": "npc"
}
