{
    "_id": "bLhIBwqdjTiVJ5qm",
    "data": {
        "actionCategory": {
            "value": ""
        },
        "actionType": {
            "value": "passive"
        },
        "actions": {
            "value": null
        },
        "description": {
            "chat": "",
            "unidentified": "",
            "value": "<p>Your family has particularly long, sharp claws capable of delivering bleeding wounds with a wicked swipe. You gain a claw unarmed attack that deals <a class=\"inline-roll roll\" title=\"slashing\" data-mode=\"roll\" data-flavor=\"slashing\" data-formula=\"1d6\"><i class=\"fas fa-dice-d20\"></i> 1d6</a> slashing damage. Your claws are in the brawling group and have the agile, finesse and unarmed traits.</p>"
        },
        "featType": {
            "value": "ancestryfeature"
        },
        "level": {
            "value": "1"
        },
        "prerequisites": {
            "value": null
        },
        "rarity": {
            "value": "common"
        },
        "rules": [],
        "source": {
            "value": ""
        },
        "traits": {
            "custom": "",
            "rarity": {
                "value": "common"
            },
            "value": [
                "catfolk"
            ]
        }
    },
    "effects": [],
    "flags": {},
    "img": "systems/pf2e/icons/features/ancestry/clawed-catfolk.jpg",
    "name": "Clawed Catfolk",
    "permission": {
        "default": 0
    },
    "type": "feat"
}
