{
    "_id": "qJD3PJdoSXFrZEwr",
    "data": {
        "actionCategory": {
            "value": ""
        },
        "actionType": {
            "value": "passive"
        },
        "actions": {
            "value": null
        },
        "description": {
            "chat": "",
            "unidentified": "",
            "value": "<p>With your Sharp Beak, you are never without a weapon. You have a beak unarmed attack that deals <a class=\"inline-roll roll\" title=\"piercing\" data-mode=\"roll\" data-flavor=\"piercing\" data-formula=\"1d6\"><i class=\"fas fa-dice-d20\"></i> 1d6</a> piercing damage. Your beak is in the brawling weapon group and has the finesse and unarmed traits.</p>"
        },
        "featType": {
            "value": "ancestryfeature"
        },
        "level": {
            "value": "0"
        },
        "prerequisites": {
            "value": null
        },
        "rarity": {
            "value": "common"
        },
        "rules": [],
        "source": {
            "value": ""
        },
        "traits": {
            "custom": "",
            "rarity": {
                "value": "uncommon"
            },
            "selected": {
                "tengu": "Tengu"
            },
            "value": [
                "tengu"
            ]
        }
    },
    "effects": [],
    "flags": {},
    "img": "systems/pf2e/icons/features/ancestry/sharp-beak.jpg",
    "name": "Sharp Beak",
    "permission": {
        "default": 0
    },
    "type": "feat"
}
