{
    "_id": "WaCn0mcivFv1omNK",
    "data": {
        "actionCategory": {
            "value": ""
        },
        "actionType": {
            "value": "passive"
        },
        "actions": {
            "value": null
        },
        "description": {
            "chat": "",
            "unidentified": "",
            "value": "<p>Your bloodline is noted for their powerful jaws and sharp teeth. You gain a jaws unarmed attack that deals <a class=\"inline-roll roll\" title=\"piercing\" data-mode=\"roll\" data-flavor=\"piercing\" data-formula=\"1d6\"><i class=\"fas fa-dice-d20\"></i> 1d6</a> piercing damage. Your jaws are in the brawling group and have the finesse and unarmed traits</p>"
        },
        "featType": {
            "value": "ancestryfeature"
        },
        "level": {
            "value": "1"
        },
        "prerequisites": {
            "value": null
        },
        "rarity": {
            "value": "common"
        },
        "rules": [],
        "source": {
            "value": ""
        },
        "traits": {
            "custom": "",
            "rarity": {
                "value": "common"
            },
            "value": [
                "kobold"
            ]
        }
    },
    "effects": [],
    "flags": {},
    "img": "systems/pf2e/icons/features/ancestry/strongjaw-kobold.jpg",
    "name": "Strongjaw Kobold",
    "permission": {
        "default": 0
    },
    "type": "feat"
}
