{
    "_id": "8wGUh9RsMUamOKjh",
    "data": {
        "actionCategory": {
            "value": ""
        },
        "actionType": {
            "value": "passive"
        },
        "actions": {
            "value": null
        },
        "description": {
            "chat": "",
            "unidentified": "",
            "value": "<p>You have a powerful tail, likely because you descend from a community of monkey goblins. You gain a +2 circumstance bonus to Athletics checks to @Compendium[pf2e.actionspf2e.Climb]{Climb}, you gain @Compendium[pf2e.feats-srd.Combat Climber]{Combat Climber}as a bonus feat, and you reduce the number of free hands required to climb or @Compendium[pf2e.actionspf2e.Trip]{Trip}by one.</p>"
        },
        "featType": {
            "value": "ancestryfeature"
        },
        "level": {
            "value": "1"
        },
        "prerequisites": {
            "value": null
        },
        "rarity": {
            "value": "common"
        },
        "rules": [],
        "source": {
            "value": ""
        },
        "traits": {
            "custom": "",
            "rarity": {
                "value": "common"
            },
            "value": [
                "goblin"
            ]
        }
    },
    "effects": [],
    "flags": {},
    "img": "systems/pf2e/icons/features/ancestry/tailed-goblin.jpg",
    "name": "Tailed Goblin",
    "permission": {
        "default": 0
    },
    "type": "feat"
}
